,x1,x2,x3,x4,x5,y
0,0.12837806960027967,1.062062334714912,0.4668369657814064,-0.3412820914839483,-0.7626672844475458,9.328029743758144
1,0.31440390939196655,0.2488444394536398,0.08065858491988986,0.1347260007119922,0.3634801035518744,4.194410412608852
2,-0.36070215404738537,-0.387467620159848,-0.11937111624821645,-0.25033572024477146,-0.5332126610708048,-11.906397704517758
3,-0.14921853809409102,-0.1894665934976403,-0.2221924275988025,-0.2709082758698129,-0.18363091528884645,-7.03138200279667
4,0.6799654117426397,0.2013951584340544,-0.7530906212988517,-0.2750407865094481,1.2410769104260602,3.121125250054352
5,0.2521092125619692,0.6048270462181252,0.418608363801084,0.1667486766032057,0.16490718717461472,9.82388761682944
6,0.2124442241903547,0.0883517704027171,0.2895706990216761,0.3644141099169865,0.0837041359293786,1.5651810599855935
7,-1.2709897727902817,-1.0870874835753703,-0.3535679180079379,-0.6651159892355294,-1.0408975536045812,-5.745203858767053
8,0.9635637626382964,0.17232188727351597,1.093157103750178,0.9524960618273351,-0.5864729124634129,8.384392602737398
9,-0.2272631805121681,1.2333178989132625,-0.8449223169561295,-0.9413292373241331,0.1475102801080157,9.560045045172169
10,0.6023567738039604,0.3954098909996983,-0.058093280761789774,0.2637243900122482,0.7555463968171021,9.357024034696167
11,0.35592667943860545,0.9547414972915471,0.5807417394946955,0.6286574060272331,-0.18173874736440265,10.706031921191528
12,1.0833073937307631,1.1212311498787435,1.3151697417242578,1.6762866379437755,1.1751526781506985,12.553082655224314
13,0.5901183699565298,0.44026337286022077,0.16250214576139493,0.3788710572238268,0.6831734607031371,10.920210427634084
14,0.1834973456699732,0.07300471827899743,0.15508274621596058,0.15811502716603093,0.04808483556838006,4.122491039583618
15,-0.4761567472441413,-0.670379051714688,-1.2681245301534672,-0.4799764902338331,-0.6328201516725825,-4.356628397728817
16,0.194300294379052,0.0003955147256583802,0.0912647289686072,0.2344367065499676,0.2053631162475341,0.18407645835494654
17,-0.8844122359492639,-1.1431136198868437,-1.0179891150532092,-1.3034198815264808,-0.7079508456467758,-6.9448001746213865
18,-0.03361702002927814,0.2891801625182173,-0.25299210586740073,0.04075888171597958,0.6181553031734578,3.093934758290237
19,0.4924528927936296,0.481661828359816,0.6198566279978636,0.7047368077307616,0.32590515735188985,5.3555702324614725
20,0.059140832446113976,0.4807762220107578,-0.526373185652275,-0.07877875379852659,0.30417505525929167,6.131055557223891
21,-0.3440389939987181,-0.09537006603003663,0.06592699489998291,-0.2121409206240541,-0.593008908696375,0.18671415140430914
22,-0.18474309451240964,0.8070522791386711,0.6715765837766718,-0.1800657202189335,-0.15444109892225838,6.351966206665902
23,-0.026730017219651514,0.4100490160376997,0.7649779026346615,-0.1651726263529648,0.056821650480270776,3.678783962594632
24,-1.2706265215513146,-0.7778382940598819,-0.2635775928811286,-0.5107073842228831,-0.8197307818998497,-3.699988822463313
25,0.8284636354595571,0.6874220698746167,0.06138563454489196,0.4233110310266759,1.205656724341836,8.182698879559515
26,-0.38449721223587996,-0.3417621370982542,-0.5463718348335334,-0.6596928225083161,-0.2947678401503565,-0.9549560587717976
27,-0.35605348920451957,1.2536602239941126,0.4635653561206101,-0.2521853229153831,-1.0207154576779869,6.742768041914013
28,-0.488204251811325,-0.26884631992534785,-0.8880393974076708,-0.9581872123469714,0.03152686318278192,0.9257202971802256
29,0.056543181761332786,-0.8014634285911844,-1.9662584001380128,-0.11285025076677735,-0.19974954424963695,-9.983877055504141
30,-0.7620765428195391,-1.7777502042417834,-0.73704950002602,-0.4313652875383596,-0.8464931291140704,-14.095093549044677
31,0.1949181312364416,-0.9257389540226244,0.9756336291370022,0.3097550717998028,-0.5342590957728286,-7.869487785113307
32,-0.25224797006118793,-0.9128652131564534,-0.5724386588400502,-0.18209525159756176,0.11347463878774795,-7.554528791074761
33,-0.5642596577406722,-0.1435233314477411,0.4327321813242803,-0.12905203890160366,-0.5339025101924166,-3.492875854340354
34,0.9392380783517724,-0.2414459767119124,-1.0047788517388674,-1.0239606967742771,-0.33862792344975545,-1.5297134037359963
35,0.8144008675296558,0.0629918674640382,0.3818933321858439,0.40713359469575805,-0.3464402799552869,-1.7650061401741286
36,0.18118876580521287,-0.5035612500811575,-0.6997726413707841,-0.28197260260251944,0.5025054237092382,-2.5983034787563155
37,-0.4447621427023807,-0.35251235515928,-0.18468556906558112,-0.28879284130233795,-0.38277485579817744,1.0793530620610767
38,0.21869852806941115,0.9025138784361949,0.16180152523392086,-0.8289646340900331,-0.4984994580507284,8.178645979229827
39,-0.0646735996459398,0.33535312392513505,-0.2735978495238492,-0.5144703198783251,-0.03023987262892637,2.8662952641714496
40,-1.4422157026640805,-1.5907711600993235,-1.814330749342711,-1.1289839647148159,-0.9054182213877292,-3.45458816164246
41,-0.34521223415682395,-1.6747898717658125,-0.9613452089860092,-0.36850926052514943,-0.13287477247998253,-14.481980987742787
42,0.9852995736767812,-0.14273323502138602,0.04649709272158442,0.5201953160932077,0.46910415556251583,-0.3815112295290976
43,-0.2785166615720377,-0.6840950741679169,-0.9085101177251548,-0.6795904619071346,-0.5034845953101227,-8.334626895328164
44,0.8940282536983606,1.142454653538015,0.5555022588991054,0.6345166511419824,0.9400446510826864,8.710337598526252
45,1.4409230988795487,1.0209972896222472,-0.27476887127739075,0.4699772509496483,0.3924321276253471,3.5334428011975305
46,-0.09432041839435076,0.009077557714988305,0.4091300138463637,0.08286692490411257,-0.7897594480177936,-1.0018176549842477
47,-0.2602468499113597,0.11036682804007264,0.17651831617976962,-0.14399214239307767,-0.5245203493548539,-0.34523641498606633
48,-0.36086342493045026,-0.7672179910215842,-0.36688719290484056,-0.2882737109302961,-0.4221239860708303,-4.007706549740089
49,0.3345211612701939,-0.1635096401358245,-0.5517440493520869,-0.6469444795208148,-0.3324101021781304,0.3726875240632874
50,0.04008859651213381,-0.4336299468457174,-0.656388041898812,0.04784511802740296,0.07382436143517095,-12.697463225451633
51,-0.0746206048299124,-0.3649634788077389,-1.018399470095704,-0.6280219663017379,-0.2579247112349216,-1.2182452657541585
52,0.1159440865053849,-0.01900297327950986,0.4619281227081897,0.2549180115778444,-0.3598349242438513,-7.713854972416586
53,-0.845653686549294,-0.960541145256955,-1.3915878759239004,-1.148810059251022,-0.599875705251798,-0.06955244225453883
54,-0.0667689052958098,-0.01375829079692343,-1.3762718131109908,-0.9338927032569136,0.11363311880729866,-3.6795011932717614
55,0.059777984304452116,0.9132703048441416,0.31768857306808046,0.2234065561452244,0.685058486267582,9.636771292824816
56,0.30515960394867686,-0.11114769208305283,0.11596993503218105,0.6067289111042521,0.09702987502235194,-2.8205855039425183
57,0.19022857928578063,0.3768742318965115,-0.05584655744975481,-0.12153204991755362,0.223647698665614,4.047583025746946
58,0.02305847998394439,0.08405881365794968,0.5497605901922951,0.3088000431476972,-0.1827040532233427,-2.2165056521299538
59,0.7595999508731607,-0.2671452245846107,0.3290963955519993,0.4118306095350516,0.01833605622616441,-0.7977827638057302
60,0.4544155960977477,-0.3308870184052383,0.7738920925775631,0.8063174108698976,0.14626950947953388,-5.120649489057887
61,-1.141334165830117,-0.10312044516105046,-0.8317396986454914,-1.0915615015572666,-0.6173689396024884,1.5789099889001816
62,0.05642948293085438,-0.8919282577936489,-0.5643597905289588,-0.06269811917646534,0.25516733142778936,-2.442055166320458
63,0.3710783873760019,-0.0659546680678065,0.38023350134847217,0.6585816924126419,0.2597586344283023,-3.848661904204611
64,-0.5773602520716022,-1.2132129183562186,-0.9152908892411196,-0.5763812751060923,-1.2505492479256808,-6.193625323181088
65,-0.027058227032905,-0.42512112190446505,-0.123165736438431,-0.03166474019267718,-0.17047959215471117,-2.0716103272069466
66,0.15033153453597306,0.01799190263967789,0.04128487286000754,0.07891855143101045,0.03096645898997194,13.219655834683227
67,-0.004753452194991688,-0.07855458076366086,-0.017593401144885765,-0.01690084832393247,-0.07685515749368385,-1.8631666046207795
68,0.31949261077445434,0.13551333406056126,0.30905778434814896,0.4474846316803868,0.2254130872409401,0.8599136625690176
69,-0.19974431428166128,-0.4196361684334592,-0.6547353699406717,-0.7994351809830462,-0.4842165163108195,0.10026504749637988
70,0.12444572674614057,-0.5075586673041189,-1.2349842151319685,-0.8249483303017099,0.6792982494729599,-4.327923812060175
71,0.14435836919988912,0.2590233773325164,0.16049905441999418,0.10141587941353633,0.053403685238720584,1.8604028117099911
72,0.6253058802006117,0.201909679893002,0.3535753950672201,0.4220154607553545,0.2915396631262941,2.690215556046242
73,-0.0614013658108017,-0.13231568894669896,-0.24254859704786305,-0.22847583921475995,-0.06474434764221998,1.6884045141847228
74,-0.15124205843982724,-0.36076980328407,-0.3822681705581869,-0.5353351279044327,-0.5451717790734463,-4.965030652548112
75,0.12077575371340767,0.12403195429002031,0.3969267186921567,0.2736024115068392,-0.011111304207862799,7.109634708600549
76,-0.4514410921186603,-0.8986924230801643,-0.42716418878090495,-0.3529311229002564,-0.5228833927483643,-4.391129899481268
77,-0.22667896951260966,-0.35055151910615673,0.43987880332822177,-0.013133441581357902,-0.1551196630045651,-4.4983032105133285
78,0.8259736551953273,1.2204679265714875,1.2675897761695507,1.2911274502072112,0.6728098016141103,9.748348377244811
79,-0.11105451476203161,-0.09153087100326449,0.2723648244284727,0.08941090823038836,-0.2941546675555138,-6.296910764795985
80,-0.6920276761577271,0.03082761388357872,0.6534260196049929,0.17342813919463224,-0.14869977651078015,-2.5039858037920566
81,-1.3517210735183227,-0.6742905346739607,-0.07914721105567674,-0.8218555077955203,-1.0849530711746826,-1.683019292890933
82,-0.06291076074114726,0.022230411049885185,1.1420952895402752,0.6823788348262216,-0.26026031369650576,9.802134082371495
83,-0.13264300270150353,0.6498414204052261,0.10715169679703852,-0.13387296491418035,0.03352609584488912,8.070036320817513
84,-0.30281450311636704,-0.5773639817023819,-1.1587979767521146,-0.80472696396629,-0.21396067509747296,-6.2815471533314815
85,-0.6995274883863364,-0.5411246992931005,0.20174685227943526,-0.41471954498980623,-0.9396310245041352,-6.1211144941092055
86,0.020365833056418592,1.1829559157716278,1.215369632384869,0.8174427617950614,0.6201005202559098,18.363067762893067
87,-0.36143581863726565,-0.6444840020642408,0.06066231554268106,0.2288908806092556,-0.7837143726988748,-0.08277730780901171
88,0.21405646639790749,1.1514215213330639,2.6443233040012277,1.0537581595831245,-0.1838567234042267,10.265187613523509
89,-0.039832804667135735,0.000925107448246365,0.17229313391202827,0.15430396137854507,-0.07785806506217494,1.5595925741851993
90,-0.015372795515146809,1.3337060258405908,1.165337162109785,1.0807973664942228,-0.05501918240592363,18.392945100284212
91,0.2112254266316161,0.8738211280300929,-0.8601784158673229,-0.014936760863234918,-0.2977433687231292,8.849718745644056
92,0.06819375664683662,0.10673047047233766,1.0032953081975704,1.120565853243336,0.016062612804694912,12.653637418071543
93,0.7618107599033989,0.5866206048794633,0.20133238902348813,0.485603413448776,0.9060026217856808,-3.8026697402147205
94,0.21103877235282187,-0.055418412059177045,0.6919175748465238,1.3283802516485146,0.20133216694281464,8.952489215610969
95,0.2825887541059614,-0.39138894154566733,-0.9468082295138116,-0.08026336582116356,0.25385742582692533,-2.6353272399255903
96,-0.4137485542623723,-0.3344061746495037,-0.114643130158825,-0.2893191145485993,-0.4499706535118469,-5.8704033178901875
97,0.3099192782187592,0.7171787874385879,-0.5201600054258615,0.2503537915080747,1.04367698733151,7.5092660714855795
98,0.8456981783304778,0.8768965332527251,1.6476956802091451,1.3810979679335014,0.4633715616727386,4.264061014253602
99,0.17016407312611548,0.6439655533418712,0.336593028586278,0.15820559714549925,0.1561223090368382,10.88245896329355
100,0.4576346534024026,0.4749890175722783,0.717480341473802,0.7872265425356372,0.9573995143687586,6.062705691095682
101,0.9007740342993786,-0.12863037859796678,0.4155160490403472,0.7561295913592927,0.5163841966803543,1.363756781026176
102,0.05068125789796013,0.7064023881977637,-0.348538712859892,-0.06574076165368342,-0.4594429353478029,7.819770587610412
103,-0.12835536967594302,0.09972847225628986,-0.1677021860792384,-0.3648710840285471,-0.12687078656489903,1.7721975271870798
104,0.20328566852903607,-0.4619823901855634,-0.17371257494810496,0.055300929744197785,-0.039523067418813174,-2.658900654128216
105,0.937946026330022,0.022221594052510785,-0.587895078456315,-0.6202401636987553,0.8650333407608181,2.80412574887489
106,0.14382453948850898,0.17069400107189533,0.3995689922050252,0.27800880051096344,0.014907464907641568,2.0536728635072747
107,0.2653564931143293,0.37674650792321895,0.522744194986426,-0.01826279133589652,0.15344442707866324,5.419113296549021
108,-0.6507304839677457,-0.7383560383968296,0.35308273244865407,0.2567693327827929,-0.8923007615424848,-8.149834544556358
109,-0.3247129414556097,-0.5345612319468948,-0.060139057437824384,-0.2536685335609026,-0.86468044094085,-8.071404320665156
110,-0.2511981647545094,-0.23530843802148907,-0.10991266272424807,-0.1697199802488505,-0.2561529321320101,-6.497084742166558
111,-0.33659073979782683,0.1207313639259412,-0.22861105495375356,-0.8859327962176877,0.6428289277153707,2.284611512790152
112,0.31663099200868017,0.3039917420859753,0.43128461063046775,0.3952683803926478,0.2767594351145225,-0.08585506274015088
113,-0.6493995861631386,-0.21436483216214938,-0.08420277066975318,-0.8744211301681823,-0.6654654816554911,-5.201538155827952
114,0.06420688392804796,0.1113487413255562,0.7912084755866386,0.7910918319701559,-0.014130881115047886,18.202426705569
115,-0.19403575154248287,-0.257143955599483,0.09098816656573412,0.017593433413234882,-0.3977657611829075,-1.7783507666488192
116,-0.3842273358672833,-0.16243265004012905,0.2925058610711563,-0.0031726613760538203,-0.6967725013187402,-3.3144716478206875
117,-0.4516693550439456,-0.1557019954219829,-0.36392213047670746,-0.3081989876496234,0.16939561198666994,-6.4015908760589735
118,-0.8633194258707341,-0.8713915608714287,-0.7077663159171992,-0.17681849131739938,-0.3803818070963089,-5.77385064233536
119,0.496942629985567,-0.10127911018252066,-0.22500400566217818,0.06520964929882747,0.39687821863756895,0.029837910010100468
120,0.13718657781228905,-0.8306318076748832,-0.9285991624781164,-0.39479010256486985,-0.06514306667421356,-7.394449856195243
121,0.8108178622890918,0.6291477248652675,0.2153337865334595,0.5177333284157403,0.9688364385243756,-0.09606906559370088
122,0.12713241828642444,0.5856866043637878,-0.15138787723553634,-0.3938671734337984,0.1303616273387881,2.8475164080292736
123,-0.10438759612271996,-0.30488478455620377,0.006843209448015062,-0.10413195529328965,-0.5385097565315131,-3.2308154112348446
124,0.29436914743933,-0.4459163103830788,-0.07661779476881289,0.06837532377764016,-0.3140377480509698,-4.257593028949861
125,-0.8516004994915458,-1.0332260061323861,-0.6865104319646853,-0.9204326019757856,-0.9081781893987596,-3.806343745013407
126,-0.4590443584459424,-0.4684276512951356,-0.484593235103335,0.4097290838908022,0.34266054426465553,-6.0675488609000565
127,-0.3080892947990768,-0.47264386570804034,-0.8038486473365405,-0.6541245947680214,-0.26031910921019796,6.697757214477607
128,-0.3641398468315193,-1.3933658595570442,0.27243691438064116,0.7152136889182715,-0.5420966576258388,-14.244399555677187
129,-0.2695932991345912,-0.5407838394047375,-1.0204793733285846,-1.4921173695524919,-1.1757473540169352,-2.3728442980995204
130,-1.0498265146565853,-0.6891355232618295,-1.0099991366595629,-0.9272068549158559,-0.2608838717703135,-1.0899052145001449
131,-0.4912219858722841,-0.7812424594394296,-0.4238263445047128,-0.416867421179123,-0.600137572563474,-3.47396422114247
132,-0.10811273867122338,-0.2585690451714245,-0.2567505921045328,-0.1880886325241096,-0.15040654096872763,-2.195292935065076
133,0.29244174946939144,0.08774717052994549,-0.5395179618142063,-0.4929501238177771,0.26417393450985355,5.080429273043171
134,0.04337724249541759,-0.013159376625402385,-0.3217858280416834,-0.17277240764427315,0.033136024528776266,1.0157025782604303
135,-1.1719455030522374,-0.7092441244915363,0.22064785397817577,0.011423997373535943,-0.8593758153744272,-0.932410005858739
136,-1.16168322322909,-1.385310969968755,-0.7444282643560591,-1.3195624681352092,-1.0907277626353866,-8.308475575830858
137,0.5801673271916628,-0.06771524535781406,-0.8410310695166687,-0.22257978887239466,0.4313847251560553,1.8117363530628805
138,-0.21547278503909376,-0.24238588881550216,0.722535861945933,0.6764808356549082,-0.5220909714239579,-4.130734608994118
139,-1.0577452037274693,-0.9708718891690338,-0.1812339004111434,-0.057863266620047066,-0.9759732546761372,-6.463902092792214
140,-0.02220032312273311,0.5981294390100903,0.7137727812116048,-0.8910765341374159,-0.40295394127339473,3.2283223050173886
141,-0.28050169395610003,-0.12355270166799985,0.28866281636137664,-0.1927127921987718,-1.1599467593720902,-4.347412013641467
142,-0.03916911688338266,-0.6621264043786399,0.030251444404883587,0.6810295990869613,-0.4948061714964217,-7.992144578723397
143,0.9219015353053847,0.4545004565707581,0.07098517708660715,0.5640917423384447,1.1904155950166515,5.892469072498626
144,0.3105391116696339,0.28861364142280155,0.18041545563362085,0.19665262612498075,0.17809841110910357,9.755274039272534
145,1.0343888505774133,0.3585536867309654,0.4732163717463101,1.420068408561299,0.8585490622770817,11.552521715596631
146,-0.5906267562532365,-0.6948648690225272,-1.2856824944049934,-1.1130953512623962,-0.42909301492082885,-3.2971129049764687
147,1.235043226862081,0.3104260292491836,0.6879968804533679,0.3619479527513765,0.41257061770041936,3.1511128364746366
148,0.3020821336308769,0.09487792836311351,0.6223533363429306,0.9870926826487668,0.20514890035392674,2.999853398733666
149,0.075108379425939,0.04395347194823723,0.5279520419328361,0.33501575644947146,-0.08505588412459872,2.0013729568272383
150,0.3759793203651011,0.2343079538614388,0.29038843697028843,0.426919022639627,0.3154894834764832,10.020908149564542
151,-0.4201438103661359,-0.31822497029074415,-0.1196560529158062,-0.241198150076477,-0.368881395720087,-1.7174586202684683
152,-0.4086579665364126,-0.5388444775716433,-0.7853402607915992,-0.6231888980251776,-0.3217932668121744,0.9586125992938735
153,-0.019244671121088318,-0.7072243948615928,1.3503223397243218,1.1202053305466269,0.04267156261432742,-9.272230344102008
154,-0.04984805797077228,0.7588257163148144,0.5822201399334822,-0.13713642072874954,0.6355256405487143,3.303673569179092
155,2.213330081256785,0.5404618978894833,-0.2672187216208577,0.8390865774891735,1.1889901623787704,1.8154008129724368
156,-0.4287823074427833,-0.15005003346318874,0.17936805749055718,0.05498686065107866,-0.3276156154455778,-3.5300509790032795
157,0.5248192935452644,0.6013433417777418,0.6303590941979944,0.6807183671006459,0.36857128788351085,4.460784941930358
158,-0.6856548224863576,0.6227282974624205,0.3740031077776909,-0.5519422792355141,-0.058154368489525286,3.538512768991186
159,0.053841565495450563,-0.3560590716441288,0.7159772206924495,0.6524166673874976,-0.1759168714858103,0.5436948474639136
160,-0.7043681260432656,-0.2323194893936615,-0.6917637745852169,-1.4588877033931982,-0.4667220888592088,-9.483445452652738
161,0.07225143179151798,-0.11728903039239646,-0.32746271690040096,-0.2411463060089606,-0.018122095101907088,-6.38980713426564
162,0.6437951963552688,-0.6593060346133006,-0.16688851061591975,0.2726983440837923,0.023218054652972137,-5.008833965390412
163,-1.3135823952429608,-1.1268880373314614,-0.19714978623663962,-0.3591989985851971,-1.0297357177176159,-1.8702753293494419
164,-0.4695603101185045,-0.33202170240205503,0.17896489335405816,0.4563210027210837,-0.1053612809798623,3.147700146011109
165,-0.08459850048310863,-0.0408118565224754,0.5730287397708496,0.6167228579266966,-0.10598167460938027,9.063179187100381
166,-0.9907894977745844,-0.7789900033815855,-0.3591565117360167,-0.6397406324000532,-0.9691957991328416,-5.105507976983871
167,-0.2316087304634079,-0.002911596646081913,0.3476570529808464,0.0769224956078132,-0.5517499755576313,-1.3084202701292358
168,0.05677494847969664,0.053561044677017056,-0.046698305611039936,-0.030108515548792597,0.00016069185556561588,-0.05603412327997925
169,0.12924133678876734,-0.6381760155294542,0.4439010769749432,0.5322727527631923,0.06339109088484746,-5.2806216617233055
170,-1.193373339682322,-1.095967986872066,-0.7916014050537307,-1.2074604501087691,-1.392433848477451,-10.277518474886822
171,0.480765406901844,0.29116674488531663,-0.0876120785279938,0.18683147747806514,0.5983523841004007,5.190657096730371
172,-0.7304700437713174,-0.08873262710909516,0.5959511795435687,0.02532663478945063,-0.5942806850930189,3.0393487841317928
173,-0.6479467719397626,0.524301010811459,-0.3753568285038849,0.2843807428722261,0.08448540851930032,5.769367626674769
174,0.5074212354443238,1.0386403671160904,0.4926456496656432,0.5893363291150269,-0.10372156984063463,9.093262829256986
175,-0.6456774313102118,-1.1941369289185648,-0.565370326258838,-0.49293375468029044,-0.7347495424202329,-12.502794372117355
176,0.6705366088558731,0.8653086813642001,1.5317808145212255,1.2426449646385311,0.3753646027455026,7.658365963198981
177,-0.24889204643468946,-0.1351348548974181,-0.053130217692414,-0.14859643669483602,-0.2286814634802899,-4.115220256687357
178,-0.17028644861675324,-0.25347156470208965,-0.8162685891685524,-0.5794594538541716,-0.09917019637809192,-3.6644588202048767
179,0.5167912580618294,-0.0022742610814600467,-0.5354301068490495,-0.4198836167248355,0.22536680873024628,0.2206025566571232
180,-0.18674969981171485,-0.2341228918867007,-0.11196034718634873,0.4971689190877253,0.3039380271248387,-0.5226835821926339
181,0.358494626855462,-0.4267289360242973,0.8765441058785033,0.07536746994253687,-0.3361210821594273,-4.786361849855059
182,-0.9392224362204514,-1.5559604801632865,0.13012769721566975,-0.3229229057222195,-1.124645174034037,-13.429102562507829
183,-0.2501770618156989,0.1021278587935038,-0.18902354577162284,-0.7634831860136027,-0.08192697333675396,-7.7135873931165255
184,-0.6272964106643532,-0.7533578454586842,-0.9475168178992672,-1.6607167792461008,-0.18983580816969575,0.4707948401608646
185,-0.340992320934626,0.013757180498897877,0.30267411772455705,0.3879191205611451,-0.171679112336257,2.884702292334889
186,0.6491210120192872,1.1869425282172577,0.6238039604125519,0.48103374879866134,0.5573261996755261,10.276041189024742
187,0.6907172601765348,0.8189511918442722,-0.10951131986965383,-0.1834017235213362,1.1362365800257053,6.251156065573259
188,0.2845935436043735,0.18113110991045986,-0.21696274680266533,-0.04738512136897652,0.6281288962023441,3.7279245817098166
189,-0.04287585308971868,0.28156453863374264,-0.126391896431988,-0.804679414801842,0.6381870233880536,2.913441848972016
190,0.5477941305877093,-0.2295969887070497,-0.3346624105570698,-0.017734542351066696,-0.08004809533680264,-2.333554496430786
191,-0.8125967860726073,-1.8167734151853503,0.4267549181646002,0.1962462044470062,-1.0989035182446711,-16.257318437984598
192,-0.31766213302459984,0.5801982677560124,0.2588211779908962,-0.17736090352010636,-0.2569541347527681,3.5990526227836512
193,0.9380521946622264,-1.3734613187233078,-0.1102374367932687,0.6600370319341319,0.24888169030989535,-5.897187389897474
194,0.5928915169741253,-0.10605936374350687,0.2832799956632052,0.2945385124943282,-0.4134392896177048,-2.7904595067034257
195,0.07875226475162453,8.262865391406303e-06,-0.5838348239184932,-0.3785216434561928,0.3156363382553192,0.6989209955330478
196,-0.3933181689682798,0.15075204781465498,0.025989103581907744,-0.14874255998672073,0.36900664797990573,0.6813114080332501
197,1.290053096752656,0.5240513277486232,0.3485391223814364,0.5439572115711035,0.3935948105157089,5.408485300260326
198,1.1521967373125044,0.3202424271859749,0.2583259488008505,0.7207623508531332,0.6849147194147348,4.029494516411654
199,0.9093132895552489,0.7761516717695767,0.491388458608885,0.7189085147507088,1.0322401711649118,8.830008209986937
