,x1,x2,x3,x4,x5,y
0,-0.060085904411483725,0.9877308513722436,0.33044150071114964,1.1717862983972869,0.4942083526944388,9.351713524471897
1,0.027849638538366583,-0.7573253458165979,-0.3607087962219356,-0.6469801193835354,0.3557510207066349,-5.3259758288074455
2,-0.3029124895239506,-0.4501942695355924,-1.1910593249304424,-0.3555170893611284,0.1841194903015001,-2.1588826502005105
3,-0.8890060225073289,-0.455495613597641,0.17974264593063582,-1.3448658313163373,-0.7309238244451126,-5.167850195719266
4,-0.05190832994632918,0.12853672876283595,0.12266635566415489,0.4481729084379193,0.4612120532476555,13.322010624357047
5,-1.1934003198098475,-1.0843156042841575,0.00284463555637543,-0.2251820504081645,-0.4764647338790526,-6.6135611750616565
6,1.0631822021482171,0.3964916732148207,0.3714473579050704,0.13037437738173974,0.34557638692247816,2.502958880567878
7,-0.3676742337559202,-0.7502109930282502,0.4110285516363439,-0.7274138986076542,-0.5159774520526373,-8.556795847037566
8,0.16276135903728814,-0.042746427711570736,0.09088486023167952,0.4422851744919524,0.30169613389784516,1.2164624404116025
9,-0.055000322605009325,0.046715721218088695,-0.2653196533352645,-0.6041906910100003,0.24416909485496469,-4.872352807962394
10,-0.7917664893660096,-1.0651712799961814,-0.4760957755030535,-0.21971678250121435,-0.5220257799443547,-7.353555576162876
11,-0.12995828691262626,-1.123937972989344,0.03587331051336429,0.06443712969913808,0.052594869667660006,-12.347820599350975
12,1.2248727589521404,-1.0745020923018933,-0.04690188391145693,0.11608128736960846,-0.03087105586295823,-4.578425885569528
13,0.4396404493323754,-0.06775430179649422,-0.19326210441744426,-0.2433702847379093,-0.7679097305468651,-3.1366685923318145
14,-0.06535803523235148,0.043499741935177264,-0.39577420128501295,-0.7909663230707968,-0.7593071824953566,-6.931394649484596
15,0.3421513668789569,1.6077873856482665,0.5383209485393535,0.03458327011096808,0.194645271682624,16.59456690130702
16,0.12270461120390785,-0.07249991837685281,0.6666717254544794,0.5269278654846596,0.02551006363675732,8.799595486728757
17,-0.01915372387616772,0.05106127280265509,-0.5240643391670043,-0.3835020313745069,-0.4466025005205604,-0.15301853031711765
18,-0.01798965067971403,0.045159303733919284,-0.19193555168487828,-1.1575650811645717,0.13487648715284944,5.552031737255106
19,0.036997961088790034,-0.05936100467923221,0.17069155897411503,0.30497716563511434,0.340690833563177,14.39185837843663
20,0.21777569013290896,1.1299697817624523,-0.028920842305440262,0.057907963774742575,0.5243803308360525,11.769029630323221
21,-0.02057437525368377,-0.29687964893011703,0.43022181070879656,-0.34059719746029554,0.21986590616976606,-3.3884414946761434
22,0.1340232080563617,0.6879853744134325,0.4622681076694012,0.6923281841312224,1.6696099533871096,11.138250930782792
23,0.5299248249821447,-0.7060423434527745,1.1637142547188368,0.8332581791918415,-0.21737368767552012,-1.1277056649181303
24,-0.1436768287336894,-0.1278892507438336,0.050127425109009985,0.9641082473247168,0.3261519504682212,-1.7305352996361272
25,-0.9630993901829924,0.02567487990019629,0.027359856303165956,-0.5888117850533047,-0.30959909034208827,-0.1150341050891684
26,-1.3663509639528573,-0.19795335358661806,-0.2971230329541394,-0.06693092748632001,-0.3616940310977051,-1.6990497557238802
27,0.2058105397042057,1.5624811622261103,0.6873558121803048,0.02233062706400091,0.8755313696575404,13.888763581606307
28,1.256084294424383,0.32785067260777145,0.5717435593911024,0.06374950256932639,1.1651875618536545,4.277974774575732
29,0.4851691797857514,1.2540541840468131,0.2504452398788981,0.38942203764017547,0.8963348430505842,13.651329776943664
30,1.2106285260660634,-0.24966330176674484,0.8999353701061199,0.025869225121437,0.9067372063891233,0.7256090880461327
31,0.4499555133981899,0.34373664392237113,0.14098194773050396,0.10743956690541956,0.04408588622882903,3.4430873580134964
32,0.006817294745512571,-0.2133959002343256,-0.5003020669947758,0.282513394493761,-0.237142253906048,-3.9106824438976657
33,0.2945247738068493,0.6816136687180698,0.3121088447256407,0.030082201328720883,0.4706510938852828,8.446700583379828
34,0.19157244066096998,0.09865213150008077,0.6508240764060494,0.6853850515167192,-0.1979800062937626,1.6983981374041757
35,-0.041440047391811625,-0.5232036679352906,-0.57364940897131,-0.3726531138811294,0.08300306365397538,-5.1428478325062255
36,1.0115137235566811,0.0904829260248604,1.5404602302409411,0.053104440396730346,0.4099291177299315,7.585122606639785
37,-0.4260001468177708,-1.1425467444976718,0.03930838264456061,0.3892333347577828,0.12081285571813505,-9.31949043566328
38,-0.13232323989357833,-0.03026945312821241,0.026068351223984012,0.09125837542237504,-0.4246309238432085,-0.7759768189325125
39,0.09426721188760097,0.4705906053859493,0.19121911661633845,0.03169321899251937,0.641188540104477,6.8400387838551975
40,0.0984757586740431,-0.28180701289687343,-0.25893957568520026,-1.3006546021078118,0.7669441499677245,5.060569782060268
41,-1.1490168815728254,-0.8136114508009586,-0.0877797411239237,0.05414196283350263,-0.2189641338788256,-3.1591850862974047
42,-0.05136452388100515,0.026930314109108074,-0.2237612884152576,-0.7860724260231824,0.3012550089039285,3.776333940805887
43,-0.7951106849474942,-0.2982989365893589,-1.1948228603032045,-0.40255669919448295,-0.5647023085907633,-8.2655126135632
44,-0.2958958123503162,0.3656568147847881,0.24893861715787094,0.24174707870966503,0.4377288202215025,5.097359489184568
45,0.4532754712337244,-0.4548279919567252,0.8327885703610017,0.6763943021706248,0.4841067693009912,1.1713538480899202
46,-0.199121393032516,0.925440202615672,0.5501390825856711,1.1985167085877375,0.3606280774496892,15.903351643956993
47,0.1462316250973829,-0.6063751590211696,0.0321803071243144,0.5187431614540851,-0.1221172021974814,-4.052432653469953
48,-0.2919619672383849,0.043437131526166656,0.10816324298569527,-0.6195404787911706,-0.5713140177694199,-3.727863350650369
49,1.0781724478245671,0.3914763817952277,-0.7537333974706009,0.8878762596359021,0.23752873469450525,0.2963436226169832
50,0.15229606828306516,0.8436418812361766,0.0015415481577866208,0.03672184603263774,0.4533654075575013,4.323613970004757
51,-0.04499882077578463,-0.04086640018260945,-0.29252877639355457,-0.012692740246630821,-0.24901920928504875,2.1655393167556434
52,0.11385622663328122,2.497379571950425,0.953575598930376,1.2863017998925823,0.5927266025689902,20.8073811152104
53,0.3888849780353042,0.5543024976007349,0.4453321730817261,0.7304430928921879,0.5501865804430722,7.693487433373987
54,0.040927391595675836,-0.5740773445695253,0.3373991223904335,-0.4236718928840672,0.17269668715099984,-5.332207719462801
55,-0.10392231513658777,-0.3934158712423522,0.04323847060774921,1.135043527004319,0.43029781919822746,-0.5761047645005708
56,-0.4110729298592361,-1.0206454050520744,0.1653859822753307,-0.017285143039652215,0.5734279168256777,-7.646949131581851
57,0.11966725388842779,1.3184462349542931,1.0078956083977246,1.071575674644214,-1.1933039392610203,12.751221941520829
58,-0.7425985821653691,-0.5372679136959597,-0.9236119667248132,-0.3362013865872149,-0.2751088188147954,-2.4083513256712075
59,-0.09865272407521472,0.21487882100451308,0.7046954492734543,0.03898802862198565,0.9402472451370414,4.494674373088344
60,-0.683386902849711,-0.8212602402021469,-1.0400899652086797,-1.3553355375811296,-0.0726743041925276,-2.0054175854032823
61,0.8247818916600147,0.7438055269267849,0.6098646138621917,0.7376140443140037,0.7056669506957117,9.781232370880387
62,0.030719882588866543,-0.2549714732580012,-0.9546896357202774,-0.24014295176799558,0.298427439944024,-2.6540960469011083
63,-0.4967793291713008,-0.8898787795033338,-0.04650389801620363,-0.3965372245360969,-0.6485230310652297,-9.552473129502175
64,0.8548231128855636,0.6376030675917966,0.5903317580672474,0.16525944500780526,0.2636765654167044,5.560812914774868
65,-0.048097455406100754,-0.2625174221763321,0.6153630309164295,-0.1983882228394266,0.6327358484867707,-3.829118717938149
66,0.3584529647542252,0.40531484015260655,1.1669479839198358,1.036201425525605,1.5442365854625597,11.678129732681418
67,-1.1758632961862074,-0.8588367234195449,-0.3583337549956928,-0.10034338028935169,-1.462816555801861,-2.4626287415216708
68,-0.6531220558630271,-0.3610492295381653,-0.8546303740210057,-0.12217618450737505,-0.548935636498141,-1.3880662398262509
69,-1.2699037225867775,-0.3483272190491403,-1.2031972346046615,-0.6671281475293579,-0.1357135625424113,2.4597127210279397
70,0.1464018140071388,-0.3802808316740104,-0.07563642331814519,-0.6046183949123182,0.046227142887230094,-3.612803431650317
71,-0.21229285595661496,-0.38397042251016106,-1.2103720002950948,-0.18188492465511338,-0.2175649679181509,-3.93585908833815
72,0.39050913520571473,0.5430632722220261,1.7643188088127826,-0.02873322173291865,0.2453107258172608,4.644917796206179
73,-1.042514104281462,-0.5413202189005801,-0.04827561355189786,-0.17865988638904767,-1.2820795234785392,-0.18053007896247286
74,-0.4778177437297258,-0.09702415228911072,-0.7205877958372624,-0.3884954206165355,-0.8247444941657922,7.108332724900239
75,0.15307552472570998,1.1455409382803918,0.15445872870565305,0.027151142428729316,0.6458692120735471,12.0704735952627
76,0.3429353099556245,0.5970719613681779,0.36267355913804383,0.03666252999665198,0.011441081390276777,4.529613751337995
77,0.3252196241219295,0.7420238094516103,0.7304178489422141,0.40319735457577305,0.2336641922212593,7.90054232194105
78,0.08299005184981678,-0.7404649661709126,-0.1830406560302611,-1.0196333994703526,0.2614747860466281,-6.547767295141068
79,0.4429957504903856,0.7318084376140509,-0.10417399773104027,0.050950965924397976,0.19857732738146697,5.383287150921001
80,0.1526292984925246,0.07901186985369157,-0.08917906310879857,-0.9851778670847636,-0.4026891938804723,-0.8789013940165302
81,-0.6753813641539325,0.3294943160793017,-0.01907960370361092,0.004674042499673722,0.18731211215453938,3.9872743136701674
82,-0.10951181866299443,0.04659046374551712,-0.4824480846637446,-0.442745656439822,0.31830865401153663,9.709090505477228
83,-0.18919619749611252,0.4980173689106228,-0.3226300477140481,-0.2559455238523629,0.02069506186320041,5.002266847349433
84,-0.5948019417600449,0.5971028383109858,0.22330536914329224,0.07050718037491432,0.06431653229515423,3.896949804433773
85,-0.32746521572869003,-0.7852674641998415,-0.6952083097112592,-0.19828093150413567,-0.1417990076433977,-6.189645278873504
86,-1.750263950093636,-0.9496612643019064,-1.4586967839873788,-0.5279851721299815,-1.2322647771652993,-1.862196268722692
87,1.0860517825153688,0.17510236878305022,1.0599199262568633,0.6382853571359983,1.6622220379474948,12.212539643141694
88,-0.12004405474919247,0.09378079338551182,-0.29344883778050224,-0.3392531191691943,0.13164266465962768,-0.6527486263587636
89,0.7340779448827225,0.1254059873381956,-0.05039688199367115,1.1542363605199095,0.1363408599302124,-1.431057827895503
90,0.4882738691080621,1.1392276551909917,0.029119806940374308,0.7754167232705131,0.9181058562639168,10.10677533651568
91,-1.612251334205165,-0.016778949830464546,-0.22427489355453878,-0.04486833922742967,-1.2280990142655623,-0.011021743877286385
92,0.7990831638936021,0.6861524967468967,0.3262951366498,0.13145252119841838,0.4836805630073053,7.3503231499819055
93,0.3029412586102263,0.2633869628039537,0.18500510198153552,0.2328794645755529,0.046961141734792045,4.5105169989452545
94,1.5459950523458716,0.08175767684075189,0.9088623911781746,1.6170842761847477,1.004451817596777,8.109807503619871
95,0.3576548066062809,-0.644604692996097,-0.18033713873017249,0.3622190373217573,-0.21409084711653806,-7.151255298076233
96,0.05009689492142194,-0.00667602591284561,-0.15101732395587503,-0.8874306599760744,-1.7692690955298132,-1.9817283761768685
97,0.6970735041088439,-0.8957291299197824,-0.3513700306237837,-0.1559430077593532,-0.018338016437165715,-2.222369631131212
98,0.053295633163750335,-0.1572239413695367,0.414379981012317,0.09010169760631587,0.20512814728810178,-3.1740729281114834
99,-0.25369766905760915,0.16831917860225748,-0.3270657795772139,-0.13916054262587496,0.6816778579727436,3.4195299155164434
