,x1,x2,x3,x4,x5,y
0,-0.060085904411483725,-0.13945080154199865,-0.2204306302025077,-0.1633350428113851,-0.15105987813205043,9.351713524471897
1,-0.22113377188537287,-0.13945080154199868,-0.22043063020250775,-0.12808167764698958,-0.1510598781320504,-5.3259758288074455
2,-0.2211337718853728,-0.13945080154199863,-1.1910593249304424,-0.3555170893611284,0.1841194903015001,-2.1588826502005105
3,-0.22113377188537278,-0.13945080154199865,-0.2204306302025077,-0.12808167764698955,-0.15105987813205038,-5.167850195719266
4,-0.22113377188537287,-0.13945080154199868,-0.22043063020250775,-0.12808167764698958,-0.1510598781320504,13.322010624357047
5,-0.29554254013196346,-1.0843156042841575,-0.2204306302025077,-0.12808167764698952,-0.1510598781320504,-6.6135611750616565
6,-0.22113377188537278,-0.13945080154199865,-0.2204306302025077,-0.12808167764698952,-0.1510598781320504,2.502958880567878
7,-0.3676742337559202,-0.7502109930282502,-0.2204306302025077,-0.1280816776469895,-0.1510598781320504,-8.556795847037566
8,0.16276135903728814,-0.13945080154199863,-0.22043063020250772,0.4422851744919524,-0.1510598781320504,1.2164624404116025
9,-0.31155584233142786,-0.7013961299700151,-0.22043063020250772,-0.12808167764698952,-0.1510598781320504,-4.872352807962394
10,-0.7917664893660096,-0.13945080154199863,-0.2204306302025077,-0.1687346880071504,-0.1510598781320504,-7.353555576162876
11,-0.2211337718853728,-0.13945080154199863,0.03587331051336429,-0.12808167764698952,-0.19662300381813017,-12.347820599350975
12,-0.2956619229469054,-1.0745020923018933,-0.2204306302025077,-0.12808167764698952,-0.1510598781320504,-4.578425885569528
13,-0.22113377188537284,-0.13945080154199865,-0.22043063020250775,-0.12808167764698958,-0.1510598781320504,-3.1366685923318145
14,-0.2211337718853728,-0.13945080154199868,-0.22043063020250775,-0.20785809455237622,-0.7593071824953566,-6.931394649484596
15,-0.2211337718853728,-0.13945080154199863,-0.22043063020250775,-0.12808167764698955,0.194645271682624,16.59456690130702
16,-0.22113377188537284,-0.13945080154199865,-0.22043063020250775,-0.12808167764698952,-0.1510598781320504,8.799595486728757
17,-0.22113377188537284,-0.13945080154199865,-0.22043063020250775,-0.12808167764698952,-0.1510598781320504,-0.15301853031711765
18,-0.17478956203916587,-0.13945080154199863,-0.09726117767740325,-1.1575650811645717,-0.15105987813205043,5.552031737255106
19,0.6127152059169212,-0.13945080154199863,-0.2204306302025077,-0.12808167764698952,-0.1510598781320504,14.39185837843663
20,-0.22113377188537287,-0.13945080154199863,-0.22043063020250775,-0.12808167764698952,-0.15105987813205043,11.769029630323221
21,-0.22113377188537284,-0.29687964893011703,-0.2204306302025077,-0.12808167764698955,-0.15105987813205043,-3.3884414946761434
22,-0.22113377188537278,-0.13945080154199863,-0.22043063020250772,-0.12808167764698952,-0.1510598781320504,11.138250930782792
23,-0.22113377188537287,-0.13945080154199865,-0.22043063020250778,-0.12808167764698952,-0.15105987813205043,-1.1277056649181303
24,-0.09654785375236583,-0.13945080154199865,-0.01787253396252686,0.9641082473247168,-0.1510598781320504,-1.7305352996361272
25,-0.22113377188537287,-0.13945080154199865,-0.22043063020250775,-0.12808167764698952,-0.15105987813205043,-0.1150341050891684
26,-0.2211337718853728,-0.13945080154199865,-0.16119010194726935,-0.12808167764698952,-0.3616940310977051,-1.6990497557238802
27,0.2058105397042057,-0.13945080154199865,-0.22043063020250772,-0.17944150368252865,-0.15105987813205043,13.888763581606307
28,-0.22113377188537278,-0.13945080154199865,-0.2204306302025077,-0.12808167764698952,-0.1510598781320504,4.277974774575732
29,-0.22113377188537284,-0.13945080154199865,-0.22043063020250775,-0.12808167764698952,-0.1510598781320504,13.651329776943664
30,-0.22113377188537284,-0.13945080154199865,-0.2204306302025077,-0.12808167764698952,-0.1510598781320504,0.7256090880461327
31,-0.22113377188537278,-0.13945080154199863,-0.2204306302025077,-0.12808167764698952,-0.1510598781320504,3.4430873580134964
32,-0.22113377188537287,-0.2133959002343256,-0.2204306302025077,-0.12808167764698955,-0.15105987813205043,-3.9106824438976657
33,-0.11524164333299652,-0.13945080154199863,-0.04406208543705609,0.4772094740196107,-0.1510598781320504,8.446700583379828
34,-0.2211337718853728,-0.13945080154199863,-0.2204306302025077,-0.1280816776469895,-0.1979800062937626,1.6983981374041757
35,-0.22113377188537284,-0.13945080154199865,-0.22043063020250775,-0.12808167764698952,-0.1510598781320504,-5.1428478325062255
36,-0.22113377188537287,-0.13945080154199868,-0.22043063020250775,-0.12808167764698952,-0.15105987813205043,7.585122606639785
37,-0.22113377188537287,-0.13945080154199865,-0.22043063020250775,-0.12808167764698952,-0.15105987813205043,-9.31949043566328
38,-0.22113377188537284,-0.13945080154199865,-0.22043063020250775,-0.12808167764698952,-0.1510598781320504,-0.7759768189325125
39,-0.22113377188537275,0.4705906053859493,-0.2204306302025077,-0.12808167764698952,-0.1510598781320504,6.8400387838551975
40,-0.1758722444641872,-0.13945080154199865,-0.09305046024630378,-1.3006546021078118,-0.15105987813205043,5.060569782060268
41,-0.2211337718853728,-0.13945080154199868,-0.22043063020250772,-0.24799312494528486,-1.6464153452146209,-3.1591850862974047
42,-0.2211337718853728,-0.13945080154199865,-0.22043063020250767,-0.1280816776469895,-0.1510598781320504,3.776333940805887
43,-0.2211337718853728,-0.13945080154199865,-1.1948228603032045,-0.18481741014182224,-0.003503229120084675,-8.2655126135632
44,-0.22113377188537287,-0.13945080154199863,0.24893861715787094,0.24174707870966503,-0.1510598781320504,5.097359489184568
45,-0.2211337718853728,-0.13945080154199865,-0.22043063020250772,-0.1280816776469895,-0.1510598781320504,1.1713538480899202
46,-0.22113377188537287,-0.13945080154199863,-0.22043063020250775,-0.1280816776469895,-0.15105987813205043,15.903351643956993
47,-0.2211337718853728,-0.13945080154199865,-0.22043063020250775,-0.12808167764698952,-0.1510598781320504,-4.052432653469953
48,-0.2919619672383849,-0.13945080154199865,0.10816324298569527,-0.6195404787911706,-0.15105987813205046,-3.727863350650369
49,-0.2211337718853728,-0.13945080154199865,-0.7537333974706009,-0.17591191249014076,0.23752873469450525,0.2963436226169832
50,-0.2211337718853728,-0.13945080154199865,-0.22043063020250775,-0.12808167764698952,-0.1510598781320504,4.323613970004757
51,-0.22113377188537284,0.08201219293765499,-0.22043063020250775,-0.12808167764698952,-0.15105987813205043,2.1655393167556434
52,-0.2211337718853728,2.497379571950425,0.057633782760178526,-0.02747547261212817,-0.1510598781320504,20.8073811152104
53,-0.2211337718853728,-0.13945080154199865,-0.22043063020250772,-0.1280816776469895,-0.1510598781320504,7.693487433373987
54,-0.22113377188537284,-0.13945080154199863,0.3373991223904335,0.009473621760722917,-0.1510598781320504,-5.332207719462801
55,-0.22113377188537278,-0.13945080154199863,-0.003177410965650607,-0.12808167764698952,-0.19731295892986234,-0.5761047645005708
56,-0.22113377188537284,-0.13945080154199865,-0.8519468788684985,-0.017285143039652215,0.01142185415543702,-7.646949131581851
57,0.4303114457219385,-0.13945080154199865,1.0078956083977246,0.020171903285404413,-0.1510598781320504,12.751221941520829
58,-0.7425985821653691,-0.13945080154199865,-0.22043063020250775,-0.3362013865872149,-0.1510598781320504,-2.4083513256712075
59,-0.2211337718853728,-0.13945080154199865,-0.22043063020250775,0.4142877931630452,0.9402472451370414,4.494674373088344
60,-0.22113377188537284,-0.13945080154199865,-1.0400899652086797,-0.22012021500499243,0.028849322657467077,-2.0054175854032823
61,-0.2211337718853728,-0.13945080154199863,-0.22043063020250772,0.08711919835032052,0.7056669506957117,9.781232370880387
62,-0.2211337718853728,-0.13945080154199863,-0.22043063020250775,-0.12808167764698952,-0.1510598781320504,-2.6540960469011083
63,-0.2211337718853728,-0.13945080154199863,-0.22043063020250775,-0.12808167764698952,-0.1510598781320504,-9.552473129502175
64,-0.2211337718853728,0.6376030675917966,0.5903317580672474,0.16525944500780526,-0.1510598781320504,5.560812914774868
65,0.3921121217949883,-0.13945080154199863,-0.22043063020250772,-0.12808167764698952,-0.1510598781320504,-3.829118717938149
66,-0.2211337718853728,-0.13945080154199863,-0.22043063020250772,0.02499121691190933,1.5442365854625597,11.678129732681418
67,-0.2211337718853728,-0.13945080154199863,-0.2204306302025077,-0.12808167764698958,-0.1510598781320504,-2.4626287415216708
68,-0.22113377188537278,-0.13945080154199863,-0.1451059030991121,-0.12808167764698955,-0.548935636498141,-1.3880662398262509
69,-0.2211337718853728,-0.13945080154199863,-0.2204306302025077,-0.12808167764698952,-0.1510598781320504,2.4597127210279397
70,-0.22113377188537278,-0.13945080154199863,-0.22043063020250775,-0.12808167764698952,-0.1510598781320504,-3.612803431650317
71,-0.08630016885674738,-0.13945080154199863,-0.2204306302025077,-0.2525822442494177,-0.1510598781320504,-3.93585908833815
72,-0.3670497434342044,-0.13945080154199868,-0.22043063020250775,-0.1500091617951114,-0.15105987813205043,4.644917796206179
73,-0.22113377188537278,-0.13945080154199863,-0.2204306302025077,-0.12808167764698955,-0.15105987813205043,-0.18053007896247286
74,-0.2211337718853728,-0.13945080154199865,-0.22043063020250775,-0.3884954206165355,-0.8247444941657922,7.108332724900239
75,-0.2211337718853728,-0.13945080154199865,-0.22043063020250775,-0.12808167764698958,-0.15105987813205046,12.0704735952627
76,-0.2211337718853728,0.5970719613681779,-0.22043063020250772,-0.12808167764698955,-0.15105987813205043,4.529613751337995
77,-0.2211337718853728,-0.13945080154199863,-0.2204306302025077,-0.12808167764698952,-0.1510598781320504,7.90054232194105
78,-0.29750729350109706,-0.7404649661709126,-0.22043063020250775,-0.12808167764698952,-0.1510598781320504,-6.547767295141068
79,-0.2211337718853728,-0.13945080154199865,-0.22043063020250767,-0.12808167764698955,-0.15105987813205043,5.383287150921001
80,-0.22113377188537287,0.07901186985369157,-0.22043063020250778,-0.12808167764698952,-0.15105987813205043,-0.8789013940165302
81,-0.2211337718853728,-0.13945080154199865,-0.22043063020250772,-0.12808167764698958,-0.15105987813205046,3.9872743136701674
82,-0.2211337718853728,-0.13945080154199863,-0.22043063020250772,-0.12808167764698955,0.31830865401153663,9.709090505477228
83,-0.2211337718853728,-0.13945080154199865,-0.2204306302025077,-0.12808167764698955,-0.15105987813205043,5.002266847349433
84,-0.22113377188537275,-0.13945080154199863,-0.22043063020250764,-0.12808167764698952,-0.15105987813205043,3.896949804433773
85,-0.32746521572869003,-0.13945080154199863,-0.2204306302025077,-0.19828093150413567,-0.1510598781320504,-6.189645278873504
86,-1.750263950093636,-0.9496612643019064,-1.4586967839873788,-0.12808167764698952,-0.1510598781320504,-1.862196268722692
87,-0.22113377188537278,-0.13945080154199865,-0.2204306302025077,-0.12808167764698952,-0.1510598781320504,12.212539643141694
88,-0.2211337718853728,-0.13945080154199863,-0.22043063020250775,-0.12808167764698955,-0.1510598781320504,-0.6527486263587636
89,-0.2211337718853728,-0.13945080154199863,-0.05039688199367115,-0.12808167764698952,-0.28230531267104336,-1.431057827895503
90,-0.22113377188537278,-0.13945080154199865,-0.2204306302025077,-0.12808167764698952,-0.1510598781320504,10.10677533651568
91,,,,,,-0.011021743877286385
92,,,,,,7.3503231499819055
93,,,,,,4.5105169989452545
94,-0.005088200361880735,-0.13945080154199863,0.9088623911781746,0.012727358415918669,-0.1510598781320504,8.109807503619871
95,-0.30055466006805565,-0.644604692996097,-0.22043063020250775,-0.12808167764698952,-0.1510598781320504,-7.151255298076233
96,-0.22113377188537275,-0.13945080154199863,-0.22043063020250767,-0.2488555063157409,-1.7692690955298132,-1.9817283761768685
97,,,,,,-2.222369631131212
98,-0.3355509954054887,-0.13945080154199868,-0.22043063020250772,-0.1509856023222289,-0.15105987813205043,-3.1740729281114834
99,-0.22113377188537278,-0.13945080154199863,-0.2204306302025077,-0.12808167764698952,-0.1510598781320504,3.4195299155164434
