,x1,x2,x3,x4,x5,y
0,1.1472927406363398,0.9877308513722436,-0.18113819610222698,1.1717862983972869,0.4942083526944388,9.351713524471897
1,0.027849638538366583,-0.7573253458165979,-0.3607087962219356,1.2663686157833451,0.3557510207066349,-5.3259758288074455
2,-0.19941599818836558,-0.4501942695355924,0.28659936592744695,0.11780380608483626,0.1841194903015001,-2.1588826502005105
3,-1.7413044820990982,-0.455495613597641,-0.4781912966722198,-1.3448658313163373,-1.1660105026436316,-5.167850195719266
4,-0.24682028438379347,0.13234869448428938,-0.1783902726261871,0.03941421165524306,-0.05595110985301849,13.322010624357047
5,-0.3836907240821956,-0.03164907366976821,0.00284463555637543,-0.2251820504081645,-0.1424319940796791,-6.6135611750616565
6,0.26503934405687835,0.08430514803245892,0.3714473579050704,0.22168229906596656,0.34557638692247816,2.502958880567878
7,-0.3676742337559202,-0.7502109930282502,0.4110285516363439,-0.3331449268140839,-0.5159774520526373,-8.556795847037566
8,0.16276135903728814,-0.042746427711570736,0.11762551529714646,0.4422851744919524,0.26971152330219417,1.2164624404116025
9,-0.5083938948383706,-0.1738175723703213,-0.2653196533352645,-0.1737427698621834,-0.5385055764675235,-4.872352807962394
10,-0.7917664893660096,-1.0651712799961814,0.07862110761408397,-0.24357622464357742,-0.5899988978955136,-7.353555576162876
11,-0.12995828691262626,-1.123937972989344,0.7604156551535081,0.06443712969913808,0.052594869667660006,-12.347820599350975
12,-0.42707900661425185,-1.0745020923018933,0.4218829549172941,-0.09041307673178961,-0.3237718249323909,-4.578425885569528
13,0.4396404493323754,-0.06775430179649422,0.45693483366716703,-0.2433702847379093,-0.7679097305468651,-3.1366685923318145
14,-0.13940749974757072,1.135510987976106,-0.39577420128501295,-0.7909663230707968,-0.7593071824953566,-6.931394649484596
15,0.8876802195945899,1.6077873856482665,-0.05692128975464131,0.6017962051439893,0.9941694774929327,16.59456690130702
16,0.12270461120390785,0.7739909022940724,-0.6375124145358966,0.5269278654846596,0.01367707557991904,8.799595486728757
17,-0.21146288670697128,0.024296294871132773,-0.015769671683897674,0.009825104225322262,-0.0011516432615432115,-0.15301853031711765
18,-0.362735168958917,0.40113270480921887,-0.4214136463064577,0.09031700753985211,0.13487648715284944,5.552031737255106
19,0.6127152059169212,-0.40448789761083553,1.080798853891778,0.1615862711758349,0.340690833563177,14.39185837843663
20,0.21777569013290896,0.2159174173030658,0.17857246919986536,0.255400159842327,0.2917564955003564,11.769029630323221
21,-0.4311049780864702,0.19297554315667448,0.09440458301039659,-0.34059719746029554,0.21986590616976606,-3.3884414946761434
22,0.83351792822783,1.0947840901712456,0.4622681076694012,0.6923281841312224,1.6696099533871096,11.138250930782792
23,1.4255813120322796,-0.7060423434527745,1.1637142547188368,0.8332581791918415,-0.21737368767552012,-1.1277056649181303
24,-0.1436768287336894,0.19341191792969334,-1.2682695334112764,0.9641082473247168,-0.7271220467729814,-1.7305352996361272
25,-0.9630993901829924,0.02567487990019629,0.027359856303165956,-0.5888117850533047,0.10185741247779252,-0.1150341050891684
26,-1.3663509639528573,-0.19795335358661806,-1.0960885776508977,-0.06693092748632001,-0.5084056537318534,-1.6990497557238802
27,0.9945712863642744,1.5624811622261103,0.06707567688541713,0.5511116892293092,0.8755313696575404,13.888763581606307
28,0.9456618713577492,0.32785067260777145,0.5717435593911024,0.8106080141689458,0.869709838471454,4.277974774575732
29,0.9034024496104798,1.2540541840468131,0.2504452398788981,0.4852136030554214,0.8963348430505842,13.651329776943664
30,1.2106285260660634,-0.24966330176674484,1.0904166932382602,0.9165245117496524,0.9067372063891233,0.7256090880461327
31,0.4499555133981899,0.34373664392237113,0.04807405552543298,0.10743956690541956,-0.32215097470278753,3.4430873580134964
32,0.006817294745512571,-0.2133959002343256,0.22504739972102222,0.16808642092388446,0.06908788013440997,-3.9106824438976657
33,0.2945247738068493,0.6816136687180698,0.3121088447256407,-0.008938907146191916,0.4706510938852828,8.446700583379828
34,0.19157244066096998,0.20421973599924878,0.1667086809122913,0.24040881285345167,0.2738756584869525,1.6983981374041757
35,-0.4480383304022792,-0.081315955533933,-0.12288161522531663,-0.12552393213299395,-0.16258837478675403,-5.1428478325062255
36,0.9287839080296845,0.0904829260248604,0.28652311106304074,1.0309915345920364,0.4234404378795182,7.585122606639785
37,-0.4260001468177708,-1.1425467444976718,0.031008024365163426,0.3892333347577828,0.12081285571813505,-9.31949043566328
38,-0.13232323989357833,-0.03026945312821241,0.026068351223984012,0.09125837542237504,0.019611316436669912,-0.7759768189325125
39,0.09426721188760097,0.17563938819359076,0.2358685038864567,0.03169321899251937,0.17944000094412815,6.8400387838551975
40,0.0984757586740431,0.2128986537806496,0.2937761789059294,0.27895006002934514,0.7669441499677245,5.060569782060268
41,-1.9952456983122173,-0.8136114508009586,-1.5154306081824376,-0.5061074380912064,-1.6464153452146209,-3.1591850862974047
42,-0.28525904496772925,0.13938503591283108,-0.2237612884152576,0.027109647021912153,-0.08725674178708914,3.776333940805887
43,-0.9217961013385814,-1.2083336751011422,0.07981800683505791,-0.26847768058136967,-0.5647023085907633,-8.2655126135632
44,0.11521685759629274,0.06607660604837842,0.24893861715787094,0.15530528997013748,0.23890234902848373,5.097359489184568
45,-0.04465519820500585,0.09722294456025626,0.05821110413737651,0.10470437037885828,0.10815401437533262,1.1713538480899202
46,0.6444829827224929,0.4659023095266724,0.5501390825856711,0.5075156885421506,1.024843498737268,15.903351643956993
47,0.4207633760855142,0.26154043656886955,0.0321803071243144,0.3468835858877015,-0.1221172021974814,-4.052432653469953
48,-0.928963560644432,-0.2999707156927727,-0.18845330588551643,-0.6195404787911706,-0.5731191928015951,-3.727863350650369
49,0.8596994865679206,0.3914763817952277,0.3339754017118881,0.8878762596359021,0.7863537594841769,0.2963436226169832
50,0.6055235753961479,0.8436418812361766,0.0015415481577866208,0.6033148887197181,0.6597147589669211,4.323613970004757
51,-0.6988481069227577,0.08201219293765499,-0.29252877639355457,-0.3647214898623361,-0.27146636984068906,2.1655393167556434
52,2.168226852797516,2.497379571950425,0.953575598930376,0.8445540387799464,2.1814935386593333,20.8073811152104
53,0.3888849780353042,0.5543024976007349,0.4453321730817261,0.7304430928921879,1.5542323012945718,7.693487433373987
54,0.16018003095446218,-0.5740773445695253,0.5126304317399452,0.3148615866899136,0.17269668715099984,-5.332207719462801
55,-0.40633726468184594,-0.3934158712423522,-0.003177410965650607,0.2983008497192924,0.43029781919822746,-0.5761047645005708
56,0.2694110145382013,0.31872050594391743,0.25243581418222116,0.3075430306301551,0.5734279168256777,-7.646949131581851
57,0.605974830491799,1.3184462349542931,-0.05406805339697415,0.3856480590064496,0.7557322737449449,12.751221941520829
58,-0.5521108055474586,-0.08750668285219126,-0.08377161868665736,-0.3362013865872149,-0.2751440620774974,-2.4083513256712075
59,0.5142187080596194,0.5173683438914984,0.43744308284659117,0.4142877931630452,0.9402472451370414,4.494674373088344
60,-0.683386902849711,0.11615480402956885,-1.0400899652086797,-0.14133797954852467,-1.2568436008708943,-2.0054175854032823
61,0.8247818916600147,0.7438055269267849,0.23444893956097537,0.7376140443140037,0.8256141724832086,9.781232370880387
62,0.030719882588866543,1.6098099916635473,-0.9546896357202774,0.2615032126783173,0.298427439944024,-2.6540960469011083
63,-0.4967793291713008,-0.03614189641290849,-0.008361120383740595,-0.3965372245360969,-0.2630833019851295,-9.552473129502175
64,0.8548231128855636,0.6376030675917966,0.5903317580672474,0.16525944500780526,1.1452871051678608,5.560812914774868
65,0.3921121217949883,-0.2625174221763321,0.6153630309164295,0.33183531129682775,0.3605444598585327,-3.829118717938149
66,0.3055378703342789,-0.057284460579908714,1.1669479839198358,0.19218453106041788,1.5442365854625597,11.678129732681418
67,-1.1758632961862074,-0.8588367234195449,-0.3583337549956928,-1.2281753936598423,-1.462816555801861,-2.4626287415216708
68,-0.6531220558630271,-0.3610492295381653,-0.32870177319295846,-0.12217618450737505,-0.548935636498141,-1.3880662398262509
69,-1.2699037225867775,-0.10658742060522425,-0.3516640929612902,-0.6671281475293579,-0.1357135625424113,2.4597127210279397
70,-0.24832320204452774,-0.3802808316740104,0.18300679446222534,0.058904913918474494,0.046227142887230094,-3.612803431650317
71,-0.08630016885674738,-0.38397042251016106,0.1673195305718878,0.0961708321217623,-0.2175649679181509,-3.93585908833815
72,0.8307157146008826,-0.9267937928684362,1.7643188088127826,-0.02873322173291865,0.2453107258172608,4.644917796206179
73,-1.042514104281462,-0.34670243567738673,-0.39203658132779096,-0.46563413916082286,-0.5682527345652709,-0.18053007896247286
74,-0.5000165938809642,0.8718579896587586,-0.8696779544844715,-0.3884954206165355,-0.8247444941657922,7.108332724900239
75,0.15307552472570998,0.145666004693227,0.2009036796008262,0.20170294603351716,0.26257074646052425,12.0704735952627
76,0.3429353099556245,0.5970719613681779,0.09137865238717768,0.29928210314591813,0.45106300505427344,4.529613751337995
77,0.3252196241219295,0.23301200541868272,0.18308919146751917,0.40319735457577305,0.3883986412135626,7.90054232194105
78,0.08299005184981678,0.4723722555801634,-0.1830406560302611,0.30472284678898254,0.2614747860466281,-6.547767295141068
79,-0.013222050247097383,-0.39517117901551463,-0.10417399773104027,0.3074203705322045,-0.5584827114232427,5.383287150921001
80,-0.3354041245970732,-0.1803826859032246,-0.08917906310879857,-0.10846066613960542,-0.4026891938804723,-0.8789013940165302
81,-0.6753813641539325,0.24968637384616493,-0.01907960370361092,-0.3890571701688236,0.4062605815378739,3.9872743136701674
82,-0.8273593023059269,0.7107385636709322,-0.4824480846637446,-0.442745656439822,0.31830865401153663,9.709090505477228
83,-0.18919619749611252,0.4980173689106228,-0.04075928097075357,-0.2559455238523629,0.040077953472702155,5.002266847349433
84,-0.5948019417600449,-0.8606928705530275,0.22330536914329224,0.07050718037491432,0.06431653229515423,3.896949804433773
85,-0.6141234148741451,-0.7852674641998415,0.10444867283993661,-0.19828093150413567,-0.4277584030197624,-6.189645278873504
86,-1.5360390771050558,0.23967984752754007,-1.4586967839873788,-0.5279851721299815,-1.0807622011128042,-1.862196268722692
87,1.0860517825153688,0.531508573597842,1.0599199262568633,0.7227989444791831,1.6622220379474948,12.212539643141694
88,-0.7212559103658109,-0.452968558077349,-0.29344883778050224,-0.3392531191691943,-0.8674204119056056,-0.6527486263587636
89,0.7340779448827225,0.0768804345979957,-0.05039688199367115,1.1542363605199095,0.3929572831473971,-1.431057827895503
90,0.944215045641565,1.1392276551909917,0.12193905780468042,0.7754167232705131,0.9612476407916389,10.10677533651568
91,-1.612251334205165,-0.016778949830464546,-0.2695148123713991,-1.6846094964195752,-1.2280990142655623,-0.011021743877286385
92,0.10073971722187713,0.2950918628691971,0.22675464166082127,0.13145252119841838,0.4836805630073053,7.3503231499819055
93,0.3029412586102263,0.2539371170801082,0.21713204841876388,0.3041249025470648,0.34987263299420446,4.5105169989452545
94,1.5459950523458716,0.7034997327206469,0.9088623911781746,0.9711596567555791,1.228239823146144,8.109807503619871
95,0.07215117983597119,0.24966672213110203,-0.13558389459843007,0.3622190373217573,0.17961726880481466,-7.151255298076233
96,-2.3311771616938266,-0.26603399944505435,-0.8174807678282539,-0.8874306599760744,-0.0206063208970354,-1.9817283761768685
97,-0.9592165992965019,-0.8957291299197824,-0.3513700306237837,-0.1559430077593532,-0.7437597657646168,-2.222369631131212
98,-0.3355509954054887,-0.1572239413695367,0.414379981012317,-0.05739736168759513,-0.6959136992175541,-3.1740729281114834
99,-0.25369766905760915,0.1964968472161978,0.35995416537836655,-0.7140290956953309,-0.22496799231993236,3.4195299155164434
