,x1,x2,x3,x4,x5,y
0,0.011938212343596748,-0.08029528399969002,0.09409959156430972,0.01939037304360932,-0.03482716013255076,9.328029743758144
1,0.3773105206100507,0.4653820169465071,0.08065858491988986,-0.014537832834389378,0.3634801035518744,4.194410412608852
2,0.002504849551058706,-0.7838500256336659,1.8153626507127725,-0.14355632733706655,-0.0418015886342347,-11.906397704517758
3,-0.15889634495213315,-0.7095987368538235,-0.5728324161270884,0.019390373043609313,-0.03482716013255076,-7.03138200279667
4,-0.08008856248009999,-0.08029528399969,1.0858027371219403,-0.2750407865094481,-0.04050202223801887,3.121125250054352
5,0.0529948151288412,0.6048270462181252,0.09409959156430972,0.1667486766032057,-0.04115649661413479,9.82388761682944
6,-0.1795325891760569,0.04850224441984646,0.09409959156430972,0.3644141099169865,-0.034827160132550744,1.5651810599855935
7,-1.2709897727902817,-0.19912579530602764,0.09409959156430969,-0.8976172983962745,-0.03482716013255075,-5.745203858767053
8,0.023152533918850204,1.00290767309503,0.03093517465800056,0.08390981803934407,-0.03482716013255075,8.384392602737398
9,0.011938212343596759,-0.08029528399969002,-0.8449223169561295,0.08160043314746579,0.1475102801080157,9.560045045172169
10,0.011938212343596752,-0.05003676948017131,-0.058093280761789774,0.016680322951766136,0.7555463968171021,9.357024034696167
11,0.35592667943860545,0.9547414972915471,0.5807417394946955,0.6286574060272331,-0.18173874736440265,10.706031921191528
12,0.11796116060207464,1.1212311498787435,0.6427528869822143,1.6762866379437755,-0.08010774684289369,12.553082655224314
13,0.011938212343596752,-0.048019025255419547,0.16250214576139493,0.011927997596589024,0.6831734607031371,10.920210427634084
14,0.028768511821823956,0.5883269065948864,0.15508274621596058,-0.06230628950465525,-0.04103008985052028,4.122491039583618
15,0.011938212343596757,-0.08029528399969,-1.2681245301534672,0.09510599930097863,-0.03482716013255075,-4.356628397728817
16,0.194300294379052,-0.1340735259032772,0.2565903839196265,0.2344367065499676,0.2053631162475341,0.18407645835494654
17,0.01193821234359676,-0.08029528399969,-1.0179891150532092,0.09406017967676747,-0.03482716013255076,-6.9448001746213865
18,-0.03361702002927814,0.2891801625182173,-0.25299210586740073,0.01939037304360932,-0.03482716013255076,3.093934758290237
19,0.05145151974170818,-0.08029528399969002,0.8343211119252559,0.7047368077307616,-0.661896013108355,5.3555702324614725
20,0.059140832446113976,0.4807762220107578,0.11557253555145611,-0.07877875379852659,-0.04248513057018517,6.131055557223891
21,-0.6903741341580483,-0.09537006603003663,-1.4954990127406609,0.01939037304360931,-0.593008908696375,0.18671415140430914
22,-0.18474309451240964,-0.17677669265872992,0.6715765837766718,-0.1800657202189335,-0.12954710199359146,6.351966206665902
23,0.04885620373616281,0.4100490160376997,0.7649779026346615,-0.1651726263529648,-0.03482716013255075,3.678783962594632
24,0.05989652979072326,-1.3288228831483146,0.09409959156430972,0.019390373043609316,-0.18469201776342073,-3.699988822463313
25,0.011938212343596748,-0.04964263035084081,0.8420764309744276,0.00382101757292079,1.205656724341836,8.182698879559515
26,-0.38449721223587996,-0.08029528399969,0.09409959156430972,0.01939037304360932,-0.03482716013255076,-0.9549560587717976
27,0.5431748792309911,1.2536602239941126,0.3402153941101224,-0.2521853229153831,-0.03482716013255075,6.742768041914013
28,0.03234811900706439,-0.08902359341553182,-0.5976987387170472,-0.9581872123469714,-0.11045849837524888,0.9257202971802256
29,0.04441485121755195,-0.08029528399968999,0.09409959156430972,-0.11285025076677735,-0.19974954424963695,-9.983877055504141
30,0.02635942759748565,-0.08029528399969,-0.73704950002602,-0.4313652875383596,-0.27713577241929443,-14.095093549044677
31,0.011938212343596752,-0.9257389540226244,0.9756336291370022,-0.010114708120066259,-0.07539660870376727,-7.869487785113307
32,-0.00025572468327001927,-0.08029528399969,0.09409959156430972,0.019390373043609313,0.11347463878774795,-7.554528791074761
33,0.011938212343596752,-0.3991240873465797,0.4327321813242803,-0.12905203890160366,-0.07070935421478813,-3.492875854340354
34,0.9392380783517724,-0.2414459767119124,-0.014617144627750297,-1.0239606967742771,-0.33862792344975545,-1.5297134037359963
35,0.8144008675296558,-0.1317615230556161,0.25767481531100195,0.8050759901755108,0.06823788526360004,-1.7650061401741286
36,0.011938212343596752,-0.5035612500811575,0.40401450953552653,-0.055216245507659786,0.03735784473873532,-2.5983034787563155
37,-0.4447621427023807,-0.08029528399969002,-0.7996639913921734,0.019390373043609313,0.026628409107618628,1.0793530620610767
38,0.07326818661534115,0.9025138784361949,0.3163107407048416,-0.8289646340900331,-0.4984994580507284,8.178645979229827
39,0.07116558045927461,-0.08029528399969002,0.09409959156430972,0.01939037304360932,-0.45982783661194204,2.8662952641714496
40,0.011938212343596752,-0.08029528399969002,0.09409959156430975,0.019390373043609313,-0.03482716013255076,-3.45458816164246
41,0.060490508754595426,-1.6747898717658125,0.09409959156430972,0.019390373043609313,-0.18654814153078547,-14.481980987742787
42,-0.06238587919331014,-0.1504620974910873,0.1012379887469935,1.0899139469396424,0.008210476183016817,-0.3815112295290976
43,0.011938212343596752,-0.08029528399969002,-0.9085101177251548,0.19596986668519975,0.037278547731797174,-8.334626895328164
44,1.2380455087678244,-0.08029528399969,0.5555022588991054,1.2804653467043106,-0.03482716013255075,8.710337598526252
45,1.4409230988795487,-0.08029528399969002,0.02394841695346118,0.051626920973058626,-0.07856907540117322,3.5334428011975305
46,-0.09432041839435076,-0.08029528399969,0.09409959156430972,0.019390373043609313,-0.7897594480177936,-1.0018176549842477
47,0.011938212343596745,0.11036682804007264,0.09409959156430972,0.019390373043609327,-0.034827160132550744,-0.34523641498606633
48,0.011938212343596754,-0.7672179910215842,-0.3069602989515691,0.721298228068459,1.2124943253637142,-4.007706549740089
49,0.3345211612701939,-0.5398673166072516,-0.047769007260814185,-0.6469444795208148,-0.3324101021781304,0.3726875240632874
50,0.011938212343596755,-0.08029528399969002,-0.656388041898812,0.09265317432140485,0.02963551431374051,-12.697463225451633
51,-0.0746206048299124,-0.08029528399969,0.09409959156430972,0.019390373043609313,-0.034827160132550744,-1.2182452657541585
52,0.1159440865053849,-0.6436430079569267,0.09409959156430969,0.019390373043609313,-0.3598349242438513,-7.713854972416586
53,-0.845653686549294,-0.08029528399969002,0.09409959156430972,-0.17457516437288575,0.0215849577828473,-0.06955244225453883
54,0.011938212343596748,-0.08029528399969002,0.09409959156430972,0.01939037304360931,-0.03482716013255076,-3.6795011932717614
55,0.011938212343596752,-0.08029528399969002,0.09409959156430972,0.019390373043609313,-0.03482716013255076,9.636771292824816
56,-0.07495335718253496,-0.2952696363410626,0.11596993503218105,0.6067289111042521,0.09702987502235194,-2.8205855039425183
57,0.16632815373247914,-0.09452636498251449,0.09409959156430969,0.019390373043609313,-0.034827160132550744,4.047583025746946
58,0.05917484279626614,-0.08029528399968999,0.5497605901922951,0.09055487124723402,-0.1827040532233427,-2.2165056521299538
59,0.03413225395842441,-0.06357306514012853,0.3290963955519993,0.019390373043609313,0.04632296656864754,-0.7977827638057302
60,0.4544155960977477,-0.060301294620606224,0.7738920925775631,0.04942333711459289,-0.09723442118590311,-5.120649489057887
61,0.011938212343596752,-0.10312044516105046,0.09409959156430973,-1.1921588013329112,-0.03482716013255076,1.5789099889001816
62,0.01193821234359675,-0.08029528399968999,0.09409959156430972,-0.6447131649239,-0.04005475054463189,-2.442055166320458
63,0.01193821234359675,-0.08029528399969,0.09409959156430969,0.01939037304360931,-0.03482716013255076,-3.848661904204611
64,0.01193821234359675,-0.5148351077530159,-0.9152908892411196,0.019390373043609323,-1.2505492479256808,-6.193625323181088
65,-0.027058227032905,-0.08029528399968999,0.09409959156430969,0.38140102858503305,0.2066121334741155,-2.0716103272069466
66,0.15033153453597306,-0.08029528399968999,0.09409959156430975,0.019390373043609303,-0.03482716013255075,13.219655834683227
67,-0.8425752023637716,-0.08029528399968999,0.09409959156430972,-0.0981140049063533,0.15743469391090134,-1.8631666046207795
68,0.01193821234359675,0.13551333406056126,0.09409959156430972,0.019390373043609316,-0.06029639344877394,0.8599136625690176
69,0.01193821234359675,-0.4196361684334592,0.09409959156430969,-0.7994351809830462,-0.04326637225276819,0.10026504749637988
70,0.5728935536715873,-0.5075586673041189,0.09409959156430972,0.019390373043609327,-0.03482716013255075,-4.327923812060175
71,-1.0128337406868766,-0.08029528399968999,0.0940995915643097,-0.08317144069076073,-0.03482716013255076,1.8604028117099911
72,0.011938212343596745,0.201909679893002,0.09409959156430969,-0.0027494579099642683,0.15143553691888229,2.690215556046242
73,0.14376316330995453,0.4151281251501164,-0.24254859704786305,0.01939037304360932,-0.034827160132550744,1.6884045141847228
74,0.01193821234359675,-0.016885808229930112,0.0940995915643097,-0.5353351279044327,-0.5451717790734463,-4.965030652548112
75,0.011938212343596752,-0.08029528399969002,0.0940995915643097,0.019390373043609313,-0.03482716013255076,7.109634708600549
76,-1.2505293245470912,-0.08029528399969002,0.09409959156430972,-0.07709349436788887,-0.03482716013255075,-4.391129899481268
77,0.011938212343596752,-0.08029528399969002,0.09409959156430972,-0.013133441581357902,-0.03482716013255076,-4.4983032105133285
78,0.011938212343596752,-0.058414397068731985,0.061615566465671436,0.01672781688103607,0.8291208165841125,9.748348377244811
79,0.03361662030779876,-0.08029528399969,0.09409959156430972,0.013895868331549904,-0.2941546675555138,-6.296910764795985
80,0.011938212343596752,-0.3554047706198679,0.6534260196049929,-0.10577337848678893,-0.14869977651078015,-2.5039858037920566
81,-1.3517210735183227,-0.08029528399969002,0.0940995915643097,-0.010834374314884182,-0.4832809902048674,-1.683019292890933
82,-0.06291076074114726,-0.08029528399968999,1.1420952895402752,1.319967232042158,-0.07634218109205268,9.802134082371495
83,0.011938212343596752,-0.056084850958332655,0.10715169679703852,0.42111805014618797,1.2182306692713571,8.070036320817513
84,0.011938212343596755,-0.5773639817023819,0.23458785198436227,0.019390373043609313,0.2223666968944528,-6.2815471533314815
85,-0.11773838853666903,-0.5411246992931005,0.09409959156430972,0.01939037304360932,-0.9396310245041352,-6.1211144941092055
86,0.09179804003897646,1.1829559157716278,1.215369632384869,0.8174427617950614,0.0034913094169391166,18.363067762893067
87,0.318139383511038,-0.0990412715242394,0.09409959156430972,0.019390373043609327,-0.034827160132550744,-0.08277730780901171
88,0.011938212343596748,-0.08029528399969,0.0940995915643097,0.019390373043609313,-0.03482716013255076,10.265187613523509
89,0.011938212343596755,0.000925107448246365,0.06423147476923924,0.01626449079083228,0.9199289195132394,1.5595925741851993
90,-0.015372795515146809,-0.20485041036044,1.165337162109785,-0.2184619509490782,-0.05501918240592363,18.392945100284212
91,0.03431885446338498,-0.08029528399969,0.0940995915643097,-0.014936760863234918,-0.2977433687231292,8.849718745644056
92,0.06819375664683662,-0.04928181789413073,0.3680593733980812,0.10002297109785205,0.17086518861040434,12.653637418071543
93,0.011938212343596752,-0.4752671683116977,0.06586646656619105,0.01677808147921917,0.9060026217856808,-3.8026697402147205
94,0.02843697456667166,0.4953950881513018,0.12085398189168942,-0.05076451832789038,-0.039360407258699694,8.952489215610969
95,0.2825887541059614,-0.4632056217461948,-0.9468082295138116,0.08070371351072093,-0.03482716013255076,-2.6353272399255903
96,0.011938212343596752,-0.08029528399969002,0.09409959156430972,0.019390373043609313,-0.03482716013255076,-5.8704033178901875
97,0.3099192782187592,0.7171787874385879,0.09409959156430972,0.2503537915080747,-0.04308897634078276,7.5092660714855795
98,-0.0063179269322180725,-0.08029528399969,1.6476956802091451,1.3810979679335014,0.4633715616727386,4.264061014253602
99,-0.021385111381486403,-0.2003646017978142,1.047128659836048,0.6690293635167177,0.1561223090368382,10.88245896329355
100,0.011938212343596748,-0.08029528399968999,0.09409959156430972,0.019390373043609313,-0.03482716013255075,6.062705691095682
101,0.9007740342993786,-0.08029528399969,0.04139744180962705,0.1123822613587045,-0.06411747151392336,1.363756781026176
102,0.032955329382710424,-0.08029528399969002,0.09409959156430972,0.01939037304360932,-0.4594429353478029,7.819770587610412
103,0.011938212343596752,0.09972847225628986,0.09409959156430972,-0.3648710840285471,-0.2053174231820125,1.7721975271870798
104,-0.015676435797102407,-0.4619823901855634,0.09409959156430972,0.01939037304360932,0.3420050924754581,-2.658900654128216
105,0.937946026330022,0.07404922873321762,-0.04132546540099283,0.07015537215114961,0.8650333407608181,2.80412574887489
106,0.011938212343596748,0.17069400107189533,0.09409959156430972,0.019390373043609323,-0.07861558132111733,2.0536728635072747
107,0.011938212343596752,0.37674650792321895,0.522744194986426,-0.01826279133589652,-0.03482716013255076,5.419113296549021
108,0.011938212343596747,-0.08029528399969002,0.09409959156430972,0.2567693327827929,-0.034827160132550744,-8.149834544556358
109,-0.3247129414556097,-0.5345612319468948,0.09409959156430972,0.01939037304360932,-0.86468044094085,-8.071404320665156
110,0.10705109106980543,-0.756471568612332,-0.3162989719065435,-0.7293832321983447,-0.2561529321320101,-6.497084742166558
111,-0.33659073979782683,0.1207313639259412,-0.22861105495375356,0.019390373043609313,-0.03482716013255076,2.284611512790152
112,0.31663099200868017,-0.2358881926911838,0.14145775113182898,0.39368693448017456,0.2767594351145225,-0.08585506274015088
113,0.04636070487793768,-0.7802258288602341,0.2100318567085579,0.019390373043609316,-0.06653320822431244,-5.201538155827952
114,0.06420688392804796,1.2042375448388485,0.02026866255164937,-0.09776190646925942,-0.03482716013255076,18.202426705569
115,0.04289789830842668,-0.08029528399969002,0.09409959156430972,0.019390373043609323,-0.3977657611829075,-1.7783507666488192
116,0.01107377167663691,-0.08029528399969002,0.09409959156430972,0.019390373043609313,-0.6967725013187402,-3.3144716478206875
117,0.011938212343596748,-0.08029528399968999,0.09409959156430972,0.3794236115086465,-0.034827160132550744,-6.4015908760589735
118,-0.8633194258707341,-0.9262416464843012,0.09409959156430972,-0.17681849131739938,-0.03482716013255076,-5.77385064233536
119,0.496942629985567,-0.14179804697009007,-0.3210250291002548,0.06520964929882747,0.39687821863756895,0.029837910010100468
120,0.023293739020342374,-0.029722398442227578,0.09409959156430972,-0.34997711550450084,-0.3269098097022345,-7.394449856195243
121,-0.6679514443124241,-0.08029528399969,0.2387189098988732,0.6685401417042819,0.9688364385243756,-0.09606906559370088
122,0.12713241828642444,0.5856866043637878,0.11641145863585309,-0.010499931670501925,-0.04095135359855867,2.8475164080292736
123,0.011938212343596755,-0.08029528399969002,-0.9845669996228535,0.09394712095904784,0.057139126256815054,-3.2308154112348446
124,0.03901382368732607,-0.4459163103830788,0.0940995915643097,0.019390373043609313,-0.3140377480509698,-4.257593028949861
125,0.011938212343596752,-0.23069493945272673,-0.6865104319646853,-0.1831375184424764,-0.9081781893987596,-3.806343745013407
126,0.011938212343596748,-0.13149817494167004,-0.484593235103335,0.03311393663232745,-0.04485026737740392,-6.0675488609000565
127,0.01193821234359675,-0.08029528399968999,0.09409959156430972,-0.6541245947680214,-0.04031620127498228,6.697757214477607
128,0.011938212343596755,-0.08029528399969002,-0.7374901642327836,0.7152136889182715,0.03233535619105447,-14.244399555677187
129,-0.2695932991345912,-0.24427555626410974,0.09409959156430972,0.01939037304360932,-1.1757473540169352,-2.3728442980995204
130,-1.0498265146565853,-0.5410936260908104,0.0940995915643097,-0.6305071731951032,-0.03482716013255076,-1.0899052145001449
131,-1.2190005901340313,-0.08029528399968999,0.09409959156430972,0.0011147977531902158,-0.034827160132550744,-3.47396422114247
132,-0.052135669095433816,-0.08029528399969,0.09409959156430973,0.01939037304360932,0.08817036055367553,-2.195292935065076
133,0.29244174946939144,0.2725954881620351,-0.2829004384161303,0.01939037304360932,-0.03482716013255076,5.080429273043171
134,0.011938212343596748,-0.08029528399969002,0.09409959156430972,0.019390373043609323,-0.03482716013255075,1.0157025782604303
135,0.011938212343596748,-0.08029528399969,0.09409959156430969,0.01939037304360932,-0.03131885381424071,-0.932410005858739
136,-0.5586446050293388,-1.385310969968755,0.09409959156430972,0.001291499061800835,-1.0907277626353866,-8.308475575830858
137,-0.03268836990742556,0.1202583610441038,0.0940995915643097,0.019390373043609327,-0.03482716013255075,1.8117363530628805
138,0.011938212343596748,-0.08029528399969002,0.05501902607075182,0.01939037304360931,-0.03482716013255076,-4.130734608994118
139,-1.0577452037274693,-1.094797922858639,0.0940995915643097,-0.057863266620047066,-0.9759732546761372,-6.463902092792214
140,-0.042986553280561446,-0.08029528399968999,0.7137727812116048,-0.05555047650015925,0.24638920793770866,3.2283223050173886
141,0.011938212343596748,-0.12355270166799985,0.09409959156430972,0.019390373043609323,-0.03482716013255075,-4.347412013641467
142,0.0314371463874592,-0.6621264043786399,0.0940995915643097,0.01939037304360932,-0.4948061714964217,-7.992144578723397
143,0.6764517152870171,0.4545004565707581,0.08918762235863391,0.019390373043609313,1.1904155950166515,5.892469072498626
144,0.011938212343596748,-0.08029528399969002,0.09409959156430972,0.019390373043609323,-0.03482716013255075,9.755274039272534
145,-0.23703109653158483,-0.08029528399969002,0.4732163717463101,1.420068408561299,0.8585490622770817,11.552521715596631
146,-0.07691135909466895,-0.2445201465591123,0.09409959156430969,-1.1130953512623962,-1.7861664297180315,-3.2971129049764687
147,0.1927819380689284,-0.1424595459909641,0.15467839990786594,0.3619479527513765,0.41257061770041936,3.1511128364746366
148,0.3020821336308769,0.023441956031360844,0.6223533363429306,0.04744707869823281,-0.0931278376796209,2.999853398733666
149,-0.11343036797908826,0.004036964880411574,0.09409959156430969,0.33501575644947146,-0.03482716013255075,2.0013729568272383
150,0.3473798841684433,-0.08615647407813784,0.2456996640704986,0.019390373043609323,-0.034827160132550744,10.020908149564542
151,0.011938212343596748,-0.17596554096820755,-0.1196560529158062,0.04503222315992783,-0.03482716013255075,-1.7174586202684683
152,-0.4086579665364126,-0.08029528399969,0.09409959156430972,0.019390373043609313,-0.03482716013255076,0.9586125992938735
153,-0.09105961495360985,-0.08029528399969002,1.3503223397243218,-0.4492608574321865,-0.041289198165274224,-9.272230344102008
154,-0.04984805797077228,0.09882697203369603,0.09409959156430969,0.019390373043609316,-0.034827160132550744,3.303673569179092
155,2.213330081256785,0.11792556418714231,0.09409959156430972,0.019390373043609323,1.1889901623787704,1.8154008129724368
156,-0.4287823074427833,-0.08029528399968999,0.0940995915643097,0.24257728453554428,-0.034827160132550744,-3.5300509790032795
157,0.13379583192839456,-0.08029528399968999,0.09409959156430975,0.019390373043609306,-0.03482716013255076,4.460784941930358
158,0.01193821234359675,-0.08029528399968999,0.09409959156430972,-0.5519422792355141,-0.058154368489525286,3.538512768991186
159,0.971487709598318,-0.08029528399969002,0.03868560320032857,0.03782726580366678,-0.1759168714858103,0.5436948474639136
160,0.12280264369177564,-1.7420529301602898,-0.029732653813386745,-1.4588877033931982,-0.4667220888592088,-9.483445452652738
161,0.07225143179151798,-0.08029528399968999,0.09409959156430972,0.007643920007854246,-0.3428283016598765,-6.38980713426564
162,0.6437951963552688,-0.08029528399969,-0.3963705760572624,0.005236126908383432,0.15266849430111465,-5.008833965390412
163,0.09905003866899231,-1.1268880373314614,-2.059449362522468,0.01939037304360931,-0.03482716013255076,-1.8702753293494419
164,0.011938212343596747,0.23078798418776605,0.09409959156430972,-0.005436312165553819,-0.1053612809798623,3.147700146011109
165,0.0588717242015154,0.5584414310540905,0.11648397155689244,-0.010597074294139244,-0.05623548139391482,9.063179187100381
166,-0.9907894977745844,-0.08029528399968999,0.0940995915643097,-0.07601682155441818,-0.03482716013255075,-5.105507976983871
167,0.01193821234359675,-0.08029528399969002,0.09409959156430972,0.019390373043609323,-0.03482716013255076,-1.3084202701292358
168,-0.01171247689144094,0.053561044677017056,0.09409959156430969,0.01939037304360932,-0.03482716013255075,-0.05603412327997925
169,0.12924133678876734,-0.08029528399968999,0.4439010769749432,0.298799168921222,-0.0008947825216157421,-5.2806216617233055
170,0.011938212343596748,-0.24287916397676557,0.09409959156430972,-1.2074604501087691,-0.03482716013255075,-10.277518474886822
171,0.0504606014224382,0.7190943529136861,-0.0876120785279938,0.07007296704292965,-0.04171306588741679,5.190657096730371
172,-0.06650505262310488,-0.08029528399969002,0.5959511795435687,-0.04348224178299076,-0.06948196492947542,3.0393487841317928
173,-0.6479467719397626,-0.08029528399969,0.09409959156430969,0.2843807428722261,-0.034827160132550744,5.769367626674769
174,-0.05180770235304979,-0.16019661219949133,0.10222832632841702,0.5893363291150269,0.014181254716093567,9.093262829256986
175,-0.0524023872041901,-0.08029528399969002,0.09409959156430972,0.019390373043609313,-0.03482716013255075,-12.502794372117355
176,0.011938212343596748,-0.08029528399969,1.5317808145212255,-0.0010815478369545321,1.046389087937962,7.658365963198981
177,0.011938212343596748,-0.11075980506182234,-0.053130217692414,0.027555572006100724,-0.03482716013255076,-4.115220256687357
178,-0.14127636603151117,-0.19071797215168212,-0.8162685891685524,0.019390373043609316,-1.2373787881493292,-3.6644588202048767
179,0.5167912580618294,-0.08029528399969,-0.2472985658827701,0.016314535480587557,-0.03482716013255074,0.2206025566571232
180,-0.18674969981171485,-0.042755034842762205,0.09409959156430972,0.4971689190877253,-0.03482716013255075,-0.5226835821926339
181,0.0017551196241912198,-0.4267289360242973,0.8765441058785033,0.07536746994253687,-0.07191151936315264,-4.786361849855059
182,0.023577318985535743,-0.01999291401364442,0.09409959156430969,-0.3229229057222195,-0.1581948641801838,-13.429102562507829
183,0.011938212343596747,-0.08029528399969,0.09409959156430969,0.019390373043609313,-0.08192697333675396,-7.7135873931165255
184,-0.6272964106643532,-0.7533578454586842,0.09409959156430969,-0.02141640863273525,-0.034827160132550744,0.4707948401608646
185,0.01193821234359675,0.013757180498897877,0.30267411772455705,0.019390373043609313,-0.03482716013255075,2.884702292334889
186,0.2034776786592552,1.1869425282172577,0.7240427456948658,-0.5267554879318099,-0.03482716013255076,10.276041189024742
187,0.4384288377647033,-0.0873315587732424,0.17675606953995124,0.01939037304360932,-0.034827160132550744,6.251156065573259
188,0.011938212343596745,0.18113110991045986,0.09409959156430972,-0.04738512136897652,-0.04883400841765123,3.7279245817098166
189,0.0007511688905174523,0.28156453863374264,-0.126391896431988,0.01939037304360932,-0.06528921929248735,2.913441848972016
190,0.011938212343596748,-0.11406610228166525,-0.3346624105570698,0.028441736425823268,-0.08004809533680264,-2.333554496430786
191,0.011938212343596752,-0.049180297806330424,0.4267549181646002,-0.034175106915065034,0.7486813102454152,-16.257318437984598
192,0.011938212343596755,0.5801982677560124,0.2588211779908962,-0.0028901946186310583,-0.0422205101950582,3.5990526227836512
193,0.9380521946622264,-0.08029528399968999,-0.1102374367932687,0.036660390470596625,-0.07460014865321564,-5.897187389897474
194,0.0444837303110896,-0.08029528399969002,0.09409959156430973,0.019390373043609313,-0.4134392896177048,-2.7904595067034257
195,0.07875226475162453,-0.08029528399969002,-0.5838348239184932,-0.3785216434561928,-0.09926980266878062,0.6989209955330478
196,-0.3933181689682798,-0.08029528399969002,0.025989103581907744,0.01939037304360932,0.36900664797990573,0.6813114080332501
197,0.011938212343596745,-0.08029528399969002,0.09409959156430972,0.019390373043609323,-0.034827160132550744,5.408485300260326
198,0.011938212343596748,-0.08029528399969002,0.0940995915643097,0.01939037304360932,-0.034827160132550744,4.029494516411654
199,0.4126680951309829,-0.08658566396780602,0.18123057473578588,0.01939037304360932,-0.03482716013255075,8.830008209986937
