,x1,x2,x3,x4,x5,y
0,0.06417257657210915,0.06907982644051815,-0.2102659189874108,0.0437012024502902,0.025035654567253394,-2.8125105580718914
1,0.3993040698518546,0.6639084173544122,0.5292971627528131,0.6310857211055292,0.025035654567253394,9.762949076116834
2,-0.028752454859764312,0.06907982644051815,-0.060736200548404076,0.0437012024502902,0.025035654567253394,3.0942351187125485
3,-0.028752454859764312,-0.2326228883597365,-0.060736200548404076,0.0437012024502902,0.025035654567253394,-0.551780371757859
4,0.30817048976330924,-0.5000198866889415,-0.060736200548404076,0.3182325601620262,0.7920380940329014,-0.3277578644387562
5,0.0037356068787071095,0.06907982644051815,-0.7528205114197049,-1.2209864678889968,0.025035654567253394,9.583824207990046
6,0.08840435659386611,0.06907982644051815,-0.060736200548404076,0.0437012024502902,0.025035654567253394,5.787113702061792
7,-0.028752454859764312,0.06907982644051815,-0.060736200548404076,-0.6341265857248413,-0.9350684651354014,-12.428678210626716
8,-0.028752454859764312,0.06907982644051815,-0.060736200548404076,-0.3126027236195921,0.30023538053483056,-1.6139092728867932
9,-0.4404085363860773,-0.068608625594692,-0.23292582236272816,-0.7869031342343121,0.025035654567253394,-0.4630169896695263
10,-0.028752454859764312,-0.11310454014564622,-0.2732210478530151,-0.7202825246087389,0.025035654567253394,-0.053196323394194785
11,-0.028752454859764312,0.1854428803727772,-0.060736200548404076,0.16501018270722007,0.025035654567253394,5.540433045721112
12,-0.028752454859764312,1.1094611745575462,-0.060736200548404076,0.0437012024502902,0.4863625442429057,13.07471094566232
13,-0.028752454859764312,0.06907982644051815,-0.060736200548404076,0.0437012024502902,0.025035654567253394,-0.9415649123493771
14,-0.028752454859764312,0.06907982644051815,-0.060736200548404076,0.0437012024502902,0.025035654567253394,13.109742783686707
15,-0.5899566544232209,0.4973876944660114,-0.060736200548404076,1.0573749425499095,0.0519719293824884,8.461715152368642
16,-0.25890445403667484,0.06907982644051815,-0.060736200548404076,0.7120350090080625,0.025035654567253394,1.2963930379435329
17,-0.028752454859764312,0.06907982644051815,-0.060736200548404076,0.08719023150147875,-1.4094376996374465,-3.744711563981253
18,-0.028752454859764312,0.5036626297624944,0.18535999351449034,-0.6841787905561882,0.025035654567253394,1.7443622450019198
19,-0.028752454859764312,-0.4736159055778146,0.4879019789453602,0.0437012024502902,-0.01996360867365412,-6.448209084721958
20,-0.2748618894210556,0.06907982644051815,0.24082972818064474,-1.0494468864522142,-0.09952389254658513,-7.600286435314128
21,-0.028752454859764312,0.026379327053703442,-0.060736200548404076,0.0437012024502902,0.005203255037918741,-1.6069176409436965
22,-0.028752454859764312,-0.7526020938575619,-0.10051649719130397,0.0437012024502902,0.025035654567253394,-6.331074076468442
23,-0.028752454859764312,-0.20117457032866334,-0.060736200548404076,0.0437012024502902,-0.3074536359950741,1.7486718043137779
24,-0.028752454859764312,0.06907982644051815,-0.060736200548404076,0.0437012024502902,0.025035654567253394,-1.6934853186611694
25,-0.028752454859764312,0.06907982644051815,-0.060736200548404076,0.0437012024502902,0.025035654567253394,-2.7041607562331738
26,-0.028752454859764312,0.06907982644051815,-0.060736200548404076,0.0437012024502902,-0.3533575056930858,-9.389637374178557
27,-0.5078331635416924,0.06907982644051815,-0.8651879300372658,0.2454179705023884,0.025035654567253394,-4.216274900092148
28,-0.028752454859764312,0.06907982644051815,-0.06369757133563958,0.0437012024502902,0.025035654567253394,-2.4088912830017546
29,-0.028752454859764312,0.06907982644051815,-0.060736200548404076,0.0437012024502902,-0.640707038379667,4.377445375414299
30,-0.028752454859764312,0.06907982644051815,-0.060736200548404076,0.921070046488528,0.979224788182294,-4.526890446441403
31,-0.028752454859764312,0.06907982644051815,-0.060736200548404076,0.0437012024502902,0.025035654567253394,10.71105337453207
32,-0.028752454859764312,-0.25059331970597754,-0.060736200548404076,0.0437012024502902,0.025035654567253394,-1.1021541713511809
33,-0.028752454859764312,-0.2275082032820876,0.25317669725991004,-0.3184387118301252,0.05947619769946374,-4.089292831571799
34,-0.028752454859764312,0.7778216671358207,0.8372127252041032,0.0437012024502902,0.35124833902160696,12.477432757206476
35,-0.028752454859764312,-0.03980665709386155,-0.4402611423378413,0.0437012024502902,0.025035654567253394,-1.343728475963599
36,-0.028752454859764312,0.10980384480669587,-0.4867053389198284,0.0437012024502902,0.025035654567253394,0.4990989765436538
37,-0.028752454859764312,0.06907982644051815,-0.3367185303493219,0.0437012024502902,0.025035654567253394,3.815113503612248
38,-0.028752454859764312,0.06907982644051815,-0.060736200548404076,0.5905846891919915,0.025035654567253394,7.548586154347314
39,-1.0595794936748808,0.06907982644051815,-0.060736200548404076,0.0437012024502902,0.025035654567253394,-3.6077224876560217
40,-1.302032451521857,0.221050057320114,-0.8737347011279428,-0.06486336982964508,0.04784656298059042,0.1654094489053337
41,-0.028752454859764312,0.06907982644051815,-0.060736200548404076,0.5498427607978422,0.025035654567253394,9.749222915791144
42,-0.028752454859764312,-1.1607706303941163,-0.7503334646701647,0.0437012024502902,0.025035654567253394,-6.623992069809942
43,0.3449834489121022,-0.1656071524644838,-0.060736200548404076,0.017527484565311918,0.025035654567253394,-2.9031692578071295
44,-0.028752454859764312,-0.4141834850664976,-0.060736200548404076,0.0437012024502902,0.056480491454223763,-2.7817970131212126
45,-0.028752454859764312,0.06907982644051815,-0.3209587518694446,0.0437012024502902,0.025035654567253394,-2.4108522152765257
46,-0.028752454859764312,0.06907982644051815,-0.060736200548404076,0.0437012024502902,0.025035654567253394,2.411910088469486
47,-1.5568035655163983,0.06907982644051815,-0.060736200548404076,-0.4913785161793154,0.03040310140646677,0.6560395164582309
48,-0.028752454859764312,0.039099949280297364,0.6876017417175914,0.0437012024502902,0.025035654567253394,1.5636958168036108
49,-0.5317865197705216,0.6022026385424494,-0.060736200548404076,0.0437012024502902,0.3000082120854788,5.933945159214481
50,-0.4684107946392365,0.06907982644051815,-0.060736200548404076,0.0437012024502902,0.27696230613774164,0.7535938239856701
51,1.2008489836835223,0.06907982644051815,-0.060736200548404076,0.0437012024502902,0.56599291355459,-0.4200193001633328
52,-0.028752454859764312,0.06907982644051815,-0.2476543961694142,0.026758727772322743,0.8843643248907054,3.6077007442368463
53,0.0630389424502299,-0.05003766642192964,-0.060736200548404076,0.0437012024502902,0.025035654567253394,-2.172242255213997
54,-0.028752454859764312,0.06907982644051815,-0.060736200548404076,0.0437012024502902,0.025035654567253394,7.877867700443757
55,-0.028752454859764312,0.06907982644051815,-0.060736200548404076,0.0437012024502902,0.025035654567253394,-2.6244040170767597
56,-0.028752454859764312,-0.824384929746423,-0.060736200548404076,-0.07853758119157739,0.025035654567253394,-7.578841657589148
57,0.15268380393540165,0.06907982644051815,-0.060736200548404076,0.08425531107060052,-0.5964777701589522,0.5864795607623934
58,-0.028752454859764312,-0.952404442934908,-0.060736200548404076,-0.5598343442105309,0.025035654567253394,-11.144706044440492
59,-0.028752454859764312,-0.08089958667426063,-0.060736200548404076,0.0437012024502902,0.025035654567253394,2.3968499212632595
60,-0.028752454859764312,0.06907982644051815,-0.060736200548404076,0.0437012024502902,0.025035654567253394,-1.5752571121661383
61,-0.028752454859764312,0.06907982644051815,-0.060736200548404076,0.0437012024502902,0.025035654567253394,0.5558303867915684
62,-0.028752454859764312,-1.3694671055518095,-0.8555398180086401,-2.64156356599725,0.025035654567253394,-3.800159092435342
63,-0.028752454859764312,0.03339287169751448,-0.060736200548404076,0.002480964788470777,0.025035654567253394,0.7944200456300261
64,-0.028752454859764312,0.3623861493338112,-0.060736200548404076,0.0437012024502902,0.025035654567253394,9.822924221671883
65,-0.028752454859764312,-0.4534316207802434,-0.060736200548404076,0.0437012024502902,0.19054447169517652,-3.4013261546160134
66,-0.028752454859764312,0.2996050845417481,-0.4994764158910562,0.0437012024502902,0.025035654567253394,6.9488864660199425
67,1.0205675931684373,0.06907982644051815,-0.060736200548404076,1.139194191097744,1.272462883850062,14.296811247366845
68,0.9782305987965751,0.06907982644051815,-0.2506006383614059,0.5385055039165352,0.025035654567253394,-3.0554205082021904
69,-0.028752454859764312,0.06907982644051815,-0.060736200548404076,-0.3994083422460039,0.025035654567253394,-4.838317266371896
70,-0.6727023491614268,0.03348191599951797,-0.4907643373938401,0.08768898598139077,-0.1072126287275394,-0.4136556726817682
71,-0.4446785250215928,-0.18271272107198827,0.4162944688342822,0.0437012024502902,0.025035654567253394,0.4543791701676762
72,-0.028752454859764312,0.06907982644051815,-0.060736200548404076,0.4952336305277637,0.2405261266934537,0.22291644113338596
73,-1.2042557636668514,0.06907982644051815,-0.060736200548404076,0.0437012024502902,-0.6758444934361802,0.8399417948459268
74,-0.028752454859764312,0.06907982644051815,-0.060736200548404076,0.0437012024502902,0.025035654567253394,-3.79887672349964
75,-0.028752454859764312,0.4705093690109764,-0.9957271432222036,-0.23976144042282999,-0.9455945354427644,1.3514902429233429
76,-0.028752454859764312,0.06907982644051815,0.24480725950380355,0.0437012024502902,0.025035654567253394,-0.3861086295164276
77,0.0575710316770432,0.06907982644051815,-0.060736200548404076,-0.1776418615956672,0.025035654567253394,3.73898116311962
78,-0.4687322313474352,0.04036898719991218,-0.060736200548404076,0.0437012024502902,0.025035654567253394,-0.02305174868748228
79,-0.028752454859764312,-0.2313696024502113,-0.5488206453050194,-0.5268733977450539,0.025035654567253394,-0.6811279849900063
80,-0.4569161584076732,0.06907982644051815,-0.03481256932028619,0.0437012024502902,0.025035654567253394,-1.3767700305723902
81,-0.028752454859764312,1.1725853910891606,-0.060736200548404076,1.5137923966777105,0.025035654567253394,12.866339340803115
82,-0.028752454859764312,0.3598203796303461,-0.060736200548404076,-0.49581734782581605,0.025035654567253394,0.6748982548578994
83,0.40886327129186206,0.06907982644051815,-0.060736200548404076,0.0437012024502902,0.025035654567253394,-0.8272160560878941
84,-0.028752454859764312,0.06907982644051815,-0.060736200548404076,0.0437012024502902,0.30543743384684585,3.840762248425892
85,-0.028752454859764312,0.09912355818622803,-0.07644560039842946,0.0437012024502902,-0.5424479018913596,-0.33389665698154913
86,-0.028752454859764312,0.06907982644051815,-0.5436556921509856,0.0437012024502902,0.025035654567253394,-6.801350589221416
87,-0.12685434749073454,0.06907982644051815,0.6076593717879233,0.0437012024502902,-0.23230092667362665,-1.8718542771571889
88,-0.028752454859764312,-0.042363402092735765,-0.2347778963329255,0.0437012024502902,0.6337894704222422,1.4503966743802232
89,-0.028752454859764312,0.06907982644051815,-0.060736200548404076,0.0437012024502902,0.025035654567253394,0.7705360184059882
90,-0.028752454859764312,0.06907982644051815,-0.060736200548404076,0.0437012024502902,0.5958543782273624,1.5168671068886042
91,1.3975153352796679,0.06907982644051815,-0.060736200548404076,0.0437012024502902,0.025035654567253394,-1.223232401100412
92,-0.028752454859764312,1.3038181583249684,-0.060736200548404076,1.4856364083498974,0.025035654567253394,10.936330149507194
93,-0.028752454859764312,0.06907982644051815,-0.18407508087085364,0.0437012024502902,0.025035654567253394,-5.357026776654333
94,-0.028752454859764312,0.3593512402370512,0.0020053023956838195,0.0437012024502902,0.025035654567253394,1.894555543169652
95,-0.028752454859764312,0.06907982644051815,-0.060736200548404076,0.0437012024502902,0.025035654567253394,-1.9590058882120185
96,-0.1295243354564105,0.06907982644051815,-0.060736200548404076,0.0437012024502902,-0.1681509197656318,1.6432595260321663
97,-0.028752454859764312,-1.6582062028432554,-1.8966655925141525,0.0437012024502902,0.025035654567253394,-1.9468729558674436
98,-0.028752454859764312,0.06907982644051815,-0.060736200548404076,0.0437012024502902,0.025035654567253394,0.5646075624897253
99,-0.029510402046542636,0.30117280875411634,0.27486548372064945,-0.21129550863357172,-0.2669477482751986,1.4957265529993626
100,0.465634038948512,-1.0312263965505784,-0.060736200548404076,-0.8336720078822478,-2.032085271522545,-12.767501775572315
101,-0.4850096705394004,0.06907982644051815,-0.060736200548404076,0.0437012024502902,0.3148629624581222,-2.622321214416064
102,-0.028752454859764312,0.3557587120043261,-0.060736200548404076,0.0437012024502902,0.025035654567253394,2.1177365377862745
103,-0.028752454859764312,0.06907982644051815,1.2106075801914966,0.0437012024502902,0.4366591314188249,17.728341189504253
104,-0.028752454859764312,0.06907982644051815,-0.060736200548404076,-1.3733741371257775,-0.4992838538623273,-1.9783427228289818
105,-0.028752454859764312,0.9847721978607302,1.2354454902754397,0.0437012024502902,0.710477967034104,10.427273816758149
106,0.19273210836108576,0.06907982644051815,-0.060736200548404076,0.0437012024502902,-1.0968517555157478,-6.362631190322055
107,-0.028752454859764312,0.06907982644051815,-0.060736200548404076,0.6196110463752965,0.3066713203848193,1.4273199200087636
108,-1.9602316705820848,0.06907982644051815,-0.060736200548404076,0.1864386461165776,0.025035654567253394,-8.465444983945204
109,-0.912155060029773,0.06907982644051815,-0.060736200548404076,0.0437012024502902,-0.18182544652259364,-7.013512278832126
110,0.28119898889873474,-0.04400549953856103,-0.060736200548404076,0.0437012024502902,0.025035654567253394,0.536980528528286
111,-0.8607472910304494,0.06907982644051815,-0.060736200548404076,0.0437012024502902,-1.028245748435588,-2.7598746640603946
112,-0.3592597249663184,0.06907982644051815,-0.060736200548404076,0.0437012024502902,-0.15698461090653246,5.9635627147674715
113,-0.028752454859764312,0.35356250203363426,-0.060736200548404076,0.5642024762021786,0.025035654567253394,7.603892503318693
114,-0.028752454859764312,0.4261192304870913,-0.4428568236563084,0.0437012024502902,0.025035654567253394,6.44599724510746
115,-0.028752454859764312,0.06907982644051815,-0.060736200548404076,0.0437012024502902,0.6869309917295621,9.11337960191166
116,-0.028752454859764312,0.06907982644051815,-0.060736200548404076,0.0437012024502902,-0.4783034982185394,1.0115537777983143
117,1.3604622272606357,0.06907982644051815,0.4899649275787522,0.0437012024502902,2.322998062545869,14.210255487976143
118,-0.028752454859764312,0.06907982644051815,-0.060736200548404076,0.0437012024502902,0.025035654567253394,12.985489665286732
119,-0.028752454859764312,0.06907982644051815,-0.060736200548404076,0.0437012024502902,-0.974442961980166,-8.259813542044206
120,-0.028752454859764312,0.06907982644051815,-0.060736200548404076,0.0437012024502902,0.025035654567253394,7.611131537835617
121,-0.028752454859764312,0.06907982644051815,-0.060736200548404076,-0.28141235966952505,0.025035654567253394,-7.170304781266368
122,0.3337667559193331,0.06907982644051815,-0.060736200548404076,0.1416922071848683,0.08570365092224369,-5.024865037829246
123,-0.028752454859764312,0.06907982644051815,1.2588933270026321,0.0437012024502902,0.025035654567253394,18.84140930475829
124,-0.5681955037427863,0.06907982644051815,-1.3728414303580785,-1.249469628840756,-0.5327771890650157,-2.3661600888725096
125,-0.6695546392355163,0.06907982644051815,-1.3841912944116204,0.0437012024502902,0.025035654567253394,-7.537710204089942
126,-0.028752454859764312,1.2212792581270224,-0.060736200548404076,0.0437012024502902,0.7858435114552751,14.818080199378715
127,-0.028752454859764312,0.06907982644051815,-0.060736200548404076,0.0437012024502902,0.025035654567253394,4.255529989436306
128,-0.028752454859764312,0.10206182000203516,0.17661679922004608,0.0437012024502902,-0.11993104963626387,2.318504048454715
129,-0.1274023144544263,-0.2267653068853567,-0.060736200548404076,0.0437012024502902,0.09463862576080008,-1.1819646011329854
130,-0.028752454859764312,0.06907982644051815,1.1297363416351829,0.0437012024502902,0.025035654567253394,5.135107851342081
131,-0.028752454859764312,0.06907982644051815,0.87328543832635,1.7446874836427404,0.025035654567253394,8.730368684801402
132,0.06694201529095092,0.06907982644051815,-0.8170229344003628,-0.8450707123649096,-0.057888447586595025,8.228420966302235
133,-0.028752454859764312,0.06907982644051815,-0.060736200548404076,0.06081427606450699,0.025035654567253394,7.572912136101358
134,1.364751645652227,0.06907982644051815,0.18035693431234048,0.8355739114750799,0.9882234453387679,10.858302309608183
135,0.8285912426367908,0.06907982644051815,-0.060736200548404076,0.6413022130908136,0.025035654567253394,-0.17896457777994446
136,-0.028752454859764312,0.06907982644051815,0.9025574468409148,0.5953095668872477,0.025035654567253394,-2.0794634241548238
137,-0.028752454859764312,-0.5822598120098228,-0.060736200548404076,0.0437012024502902,-0.12126994067404705,-6.570743559662452
138,-0.028752454859764312,0.06907982644051815,-0.060736200548404076,-0.3062288543260291,0.025035654567253394,4.243700924817847
139,-0.028752454859764312,1.2821411316229292,-0.060736200548404076,0.0437012024502902,0.025035654567253394,7.689182994919835
140,-0.028752454859764312,0.06907982644051815,-0.060736200548404076,0.0437012024502902,0.025035654567253394,1.0542300261672937
141,1.4188129488746946,0.06907982644051815,-0.060736200548404076,0.6881336260284069,0.025035654567253394,9.269828840614457
142,-0.028752454859764312,0.06185985793870358,1.304242673849979,1.0512814786530114,0.025035654567253394,5.898909447715687
143,-0.028752454859764312,-0.5019455689728716,-0.060736200548404076,0.0437012024502902,-0.6087392211597613,-1.0088402734947493
144,-0.3384180036157585,0.06907982644051815,-0.060736200548404076,-0.2871017438573389,0.025035654567253394,-1.2537623583494593
145,-0.028752454859764312,0.06907982644051815,-1.100183659292307,0.0437012024502902,0.025035654567253394,-0.88356712971164
146,-0.028752454859764312,-0.6868989424677471,-0.3975960787588059,0.0437012024502902,0.025035654567253394,-3.62810368110708
147,-0.028752454859764312,0.06907982644051815,-0.060736200548404076,0.0437012024502902,0.025035654567253394,-5.881125153426452
148,-0.028752454859764312,0.06907982644051815,-0.060736200548404076,0.0437012024502902,0.025035654567253394,-2.744600480279201
149,-0.028752454859764312,0.06907982644051815,-0.5959721170453283,-0.497827467571126,0.025035654567253394,2.6651906928398903
150,-0.028752454859764312,0.3277739300626044,0.0001274652472722099,0.0437012024502902,0.025035654567253394,-0.6087348273085293
151,-0.028752454859764312,0.06907982644051815,-0.060736200548404076,0.0437012024502902,-0.2495556828961441,-8.268059398740697
152,-0.27949886160623266,0.06907982644051815,-0.060736200548404076,-0.8501353071416249,0.025035654567253394,-1.0967705090402715
153,-0.028752454859764312,1.4639497154900811,-0.15977827527000066,0.2511174228853117,0.025035654567253394,12.985895693436749
154,-0.3157628098086126,0.06907982644051815,1.2366873231337092,0.8759880801257299,0.025035654567253394,4.117502719358195
155,0.06723078474131627,0.06907982644051815,-0.060736200548404076,0.7475925311045555,0.025035654567253394,5.190934006686241
156,-0.9631552299695124,0.06907982644051815,-0.060736200548404076,0.0437012024502902,0.025035654567253394,-2.395442775819022
157,-0.028752454859764312,0.06907982644051815,-0.060736200548404076,0.0437012024502902,0.025035654567253394,4.021812935807782
158,-0.028752454859764312,0.8715280907989374,-0.060736200548404076,0.0437012024502902,0.025035654567253394,7.845035145969782
159,-1.7815361600557011,0.06907982644051815,-0.060736200548404076,0.0437012024502902,0.025035654567253394,-2.671217122025117
160,-0.028752454859764312,0.06907982644051815,-0.060736200548404076,0.28204968978142,0.025035654567253394,8.498142718152549
161,-0.028752454859764312,0.06907982644051815,-0.060736200548404076,-0.6425702755969678,0.025035654567253394,7.442395914859168
162,-0.028752454859764312,0.549647960559869,-0.060736200548404076,0.0437012024502902,0.08194188927029107,5.298041408551604
163,1.1293246924887768,0.06907982644051815,0.9529729260671655,1.2003698909531664,0.025035654567253394,10.694224975805717
164,0.843168578607264,0.06907982644051815,0.2134801281053191,0.0437012024502902,0.025035654567253394,-1.3193884452131333
165,-0.028752454859764312,0.06907982644051815,-0.060736200548404076,0.5407953010280371,0.4266704281265935,3.149459162302749
166,-0.028752454859764312,0.06907982644051815,-0.060736200548404076,0.2345169422123416,0.025035654567253394,-5.732864026924794
167,1.387021872316857,0.06907982644051815,0.09157235070467107,0.0437012024502902,1.5240405450151069,7.6975881505433925
168,-0.028752454859764312,0.06907982644051815,0.06332169333724436,0.5477023220937249,0.4902460202251189,-2.874548047415108
169,-0.028752454859764312,-0.35832611182220364,-0.060736200548404076,0.17456493773966011,1.1267979599063116,-0.7517974222812916
170,-0.8458848201603657,0.06907982644051815,-0.060736200548404076,0.0437012024502902,-0.8165137489242562,-4.300237596117653
171,-0.028752454859764312,0.06907982644051815,0.15673806197086915,0.0437012024502902,0.025035654567253394,5.895283612552157
172,-0.028752454859764312,0.946083708804632,-0.060736200548404076,-0.06348489751220783,0.025035654567253394,8.286623875704235
173,-0.9037421416111128,-0.3511164207203377,-0.060736200548404076,0.0437012024502902,0.025035654567253394,-4.979777683177359
174,0.36176622098550737,-0.2293058724570793,-0.060736200548404076,-0.9959794525894654,0.14866084328323678,-3.7059182367666987
175,-0.028752454859764312,-0.7408528743673649,0.34285803562193706,-0.2224715819017788,0.025035654567253394,-7.487373570248772
176,-0.2471580475848215,0.06907982644051815,-0.060736200548404076,0.0437012024502902,0.025035654567253394,-5.397906986334281
177,-0.028752454859764312,-0.2905932195390501,0.3385808511135749,0.0437012024502902,0.025035654567253394,-1.0528104220345411
178,0.25921412372689423,0.06907982644051815,0.054051316466320665,-0.4467764706726069,0.025035654567253394,-4.649724850172774
179,-0.028752454859764312,0.965190501927419,-0.060736200548404076,1.2859545508836263,1.0041679685430205,13.838966765685775
180,0.034436896991898336,0.06907982644051815,-0.8213116983893761,0.0437012024502902,-0.7903211227954478,-12.119596514827919
181,-0.028752454859764312,0.5481662732009517,-0.060736200548404076,0.0437012024502902,0.025035654567253394,5.381481572119836
182,-0.028752454859764312,-0.39094579584708333,-0.2971179857069716,0.4283868311256745,0.025035654567253394,-4.9701408993915805
183,-0.028752454859764312,0.4090863737870463,0.14503543941804947,0.3194602421374153,1.2761752640964823,3.1929175053266836
184,-0.028752454859764312,-0.014171139851627225,-0.4047968494305326,0.0437012024502902,0.025035654567253394,2.6127878825050384
185,-0.3691415265241253,0.06907982644051815,-0.060736200548404076,0.0437012024502902,0.025035654567253394,2.9649917381624897
186,0.7115064952730406,0.06907982644051815,-0.060736200548404076,0.0437012024502902,-0.16783240743148667,1.319231325015517
187,0.0805309529249784,0.06907982644051815,-0.060736200548404076,0.4898849084168872,0.025035654567253394,-1.5788851824698489
188,-1.3151212888017223,0.06907982644051815,-0.060736200548404076,-0.08841188132992367,0.025035654567253394,0.4372154677420082
189,-0.028752454859764312,0.06907982644051815,-0.060736200548404076,-0.5647731175983488,0.20746213476176525,-8.850614726513669
190,-0.028752454859764312,0.06907982644051815,0.09745139446314502,0.0437012024502902,0.025035654567253394,-2.4139859657115377
191,-0.028752454859764312,0.06907982644051815,-0.060736200548404076,0.0437012024502902,0.025035654567253394,-1.4918609011102013
192,0.06922338879257453,0.5446946564198102,-0.1949694206521438,0.0437012024502902,0.7630548679627782,6.767165588020779
193,-0.028752454859764312,-0.7406456721906544,-0.424950991614675,-0.5823887840636789,0.025035654567253394,-7.486917624586734
194,0.2873848986182589,0.06907982644051815,0.5395261559513144,0.0437012024502902,0.025035654567253394,7.76168970371158
195,-0.028752454859764312,0.118675017613327,-0.060736200548404076,0.0437012024502902,0.00042337762957424247,0.3016686025321498
196,-0.028752454859764312,0.06907982644051815,-0.060736200548404076,0.4632855601425981,0.6204310050230429,7.319669882772744
197,-0.028752454859764312,0.06907982644051815,-0.060736200548404076,0.0437012024502902,0.8877096244603142,13.229402198762019
198,-0.1954537070364523,0.5131032451712583,-0.060736200548404076,0.0437012024502902,0.025035654567253394,5.49218567968742
199,0.4111708885819401,0.06907982644051815,-0.36073022453040143,0.17645814093739748,0.025035654567253394,-5.614531887502072
200,-0.028752454859764312,1.350524559801601,-0.060736200548404076,0.0437012024502902,-0.25087140915673833,11.658877115627199
201,-0.028752454859764312,0.06907982644051815,-0.060736200548404076,0.0437012024502902,-0.1157585807323831,1.29113563859646
202,-0.028752454859764312,0.33871309469432465,-0.060736200548404076,0.5386924207459507,0.025035654567253394,5.565768412940327
203,0.07555878064260224,0.7175232908172602,-0.060736200548404076,1.048154289184508,0.349978977292536,10.911393065825536
204,0.4743132971287474,0.06907982644051815,-0.060736200548404076,-0.2335914082118803,0.025035654567253394,5.1066267786176445
205,-0.028752454859764312,0.06907982644051815,-0.07370746549325027,0.4576451732409725,0.025035654567253394,1.2123016541502962
206,-0.37207619173981177,0.06907982644051815,0.6170623076433552,0.0437012024502902,0.025035654567253394,6.668431217655089
207,-0.028752454859764312,-1.2024462352163432,-0.060736200548404076,0.0437012024502902,0.025035654567253394,-4.397708489816462
208,-0.4516086564428826,0.06907982644051815,-0.33082957298971744,-0.7606517413102307,0.025035654567253394,-9.109840024628662
209,0.5675611724351163,0.9024374960194808,-0.060736200548404076,0.221650096393576,0.20288891212719995,7.978878700495169
210,-0.028752454859764312,0.06907982644051815,-0.060736200548404076,0.7991299752691675,0.7086366867214875,1.4878278705051176
211,-0.028752454859764312,0.3290802623129076,0.3143358928370857,0.0437012024502902,0.025035654567253394,4.439487459184434
212,0.2445478026414264,0.6473652575465548,-0.060736200548404076,0.525339569547869,0.025035654567253394,6.129094838821561
213,-0.8964654781983055,-0.8623299572202963,-0.060736200548404076,0.0437012024502902,0.025035654567253394,-6.750299890712593
214,-0.028752454859764312,0.06907982644051815,0.313177880905004,-1.3422752894861039,0.025035654567253394,-3.6172855093608534
215,-0.2104399033532856,0.06907982644051815,-0.8783794658237984,0.5847948599347352,0.025035654567253394,-2.226487281431852
216,-0.028752454859764312,0.06907982644051815,-0.060736200548404076,0.0437012024502902,0.2401680664790236,5.925660347139957
217,-0.028752454859764312,-0.16287818583660904,-0.6019542304567886,0.0437012024502902,0.025035654567253394,-0.2692686189710032
218,-0.028752454859764312,0.06907982644051815,-0.060736200548404076,0.0437012024502902,0.025035654567253394,-3.4336220501394106
219,-1.332596407331553,-0.09161955802900634,-1.3936863866794784,0.0437012024502902,0.025035654567253394,1.8468474732662457
220,-0.028752454859764312,0.06907982644051815,0.3894395957843273,0.0437012024502902,0.025035654567253394,3.35159117078812
221,0.9228291023526668,0.9104426654778036,0.2409716792715587,0.0437012024502902,0.025035654567253394,5.163800684347252
222,1.0309472214530204,0.06907982644051815,-0.060736200548404076,0.0437012024502902,0.025035654567253394,5.828661629225862
223,-1.6382478650520118,-1.2646906967736449,-0.060736200548404076,0.0437012024502902,-1.0625522375451752,-1.5005312449011012
224,-0.3348722931260698,0.3904624888859977,-0.2761117297616215,0.0437012024502902,-0.6502520843025894,2.520910351490804
225,-0.08077877420117778,-1.0335995071054491,-0.060736200548404076,0.0437012024502902,0.025035654567253394,-9.247198887992386
226,-0.09212098303267456,0.06907982644051815,-0.060736200548404076,0.0437012024502902,-0.6939654445138679,-2.1855830821711666
227,-0.11673872705065935,0.06907982644051815,-0.4027185271044962,0.0437012024502902,0.025035654567253394,-1.6809083478953313
228,-0.028752454859764312,0.06907982644051815,-0.060736200548404076,0.0437012024502902,0.025035654567253394,-5.107545601018886
229,-0.20877626902121696,0.06907982644051815,-0.060736200548404076,0.0437012024502902,-0.4055055197887918,2.7046001474286494
230,-0.4849129657019762,0.06907982644051815,-0.060736200548404076,0.0437012024502902,0.040466332199301215,1.6776282442572297
231,0.4808352357972204,-0.11803886886431478,-0.060736200548404076,0.0437012024502902,0.025035654567253394,-0.10180557546836176
232,0.2257474069346501,-0.19073404934690488,-0.060736200548404076,0.0437012024502902,0.025035654567253394,0.30671971684819765
233,-0.028752454859764312,0.06907982644051815,-0.2401998959914143,0.6906779820542608,0.025035654567253394,-1.4862342698754998
234,-0.028752454859764312,0.7473490874474369,-0.5906810998307256,0.5554131124846238,0.13303789031137853,6.967883956812838
235,-0.028752454859764312,0.06907982644051815,-0.4368705704875044,0.0437012024502902,0.025035654567253394,-1.8713670169904075
236,0.34810550159862136,-0.5027561039828163,-0.060736200548404076,0.0437012024502902,0.025035654567253394,-0.12749572889943372
237,0.5904411763205426,0.931959675074904,0.8866832891901506,1.17861756296148,-0.1068847432603408,11.269125027630588
238,-0.028752454859764312,0.06907982644051815,-0.060736200548404076,1.097849904237568,0.7435359130116735,10.540916496243408
239,-0.028752454859764312,0.06907982644051815,-0.060736200548404076,0.7970107876542489,0.025035654567253394,10.83663031255559
240,-0.028752454859764312,0.06907982644051815,-0.060736200548404076,0.0437012024502902,0.025035654567253394,3.923241363568002
241,-0.028752454859764312,0.06907982644051815,1.0587928124212436,0.6431755888509627,0.1813941052858935,6.865219338529512
242,0.3940658543760512,0.6454413986843672,-0.060736200548404076,0.6847064096693405,-0.072820815440329,5.898744296102429
243,-0.7682461574790721,-0.013408169148683645,-0.060736200548404076,0.0437012024502902,0.025035654567253394,0.7690667594387235
244,-0.028752454859764312,0.06907982644051815,-0.060736200548404076,-1.4184270796854763,0.025035654567253394,-6.56854816840529
245,-0.028752454859764312,0.5396209509873329,-0.060736200548404076,-0.26584918863456497,0.025035654567253394,6.049083593957597
246,-0.3599469925686609,-0.19917300159486595,-0.060736200548404076,0.0437012024502902,0.3978283371405895,-0.6129632510297323
247,-0.028752454859764312,0.06907982644051815,-0.060736200548404076,-0.15713817938028302,0.025035654567253394,0.5914567827826321
248,1.3553145408909857,0.06907982644051815,0.9193048096646372,0.0437012024502902,0.06685804671445103,4.278526289658002
249,-0.028752454859764312,0.053099679607249164,-0.060736200548404076,0.0437012024502902,0.32671427408954723,0.5470150532726793
250,-0.028752454859764312,-0.09401785589445924,0.22026404764190094,-0.2723729743755124,0.20749471640422001,-0.003307139671771986
251,-0.028752454859764312,0.9074607846831678,-0.060736200548404076,1.3295857403972609,0.555453328544868,6.0873563838802385
252,-0.028752454859764312,0.06907982644051815,-0.060736200548404076,-0.986623680671234,0.025035654567253394,1.4827789660943376
253,-0.028752454859764312,-0.3678063552112286,0.3446624558879273,-0.773690418422098,0.025035654567253394,-2.884111135821163
254,-0.028752454859764312,0.06907982644051815,-0.060736200548404076,0.0437012024502902,0.025035654567253394,0.9055881237271596
255,-0.028752454859764312,-0.23639739600635684,-0.060736200548404076,0.0437012024502902,0.025035654567253394,-2.796656280958354
256,-0.028752454859764312,0.06907982644051815,-1.4328652298735722,-0.3459013989811905,-0.8498113805020935,1.5525749287413149
257,-0.028752454859764312,0.06907982644051815,0.8522287647666833,0.0437012024502902,0.025035654567253394,14.686639857096212
258,-0.028752454859764312,0.06907982644051815,0.5959632844840301,0.0437012024502902,0.025035654567253394,4.305816075991881
259,-0.028752454859764312,0.06907982644051815,-0.3251916681967687,0.0437012024502902,0.025035654567253394,4.206958757286951
260,-0.028752454859764312,0.06907982644051815,-0.060736200548404076,0.0437012024502902,0.025035654567253394,9.318944580091092
261,0.5611730556868484,0.06907982644051815,-0.060736200548404076,0.6518524745302859,0.5050853439617643,-2.4665578821542
262,-0.028752454859764312,0.06907982644051815,-0.060736200548404076,-0.14680988605491366,0.8795404411360128,-2.2965361285036145
263,-0.028752454859764312,0.06907982644051815,-0.7174967431456949,0.0437012024502902,-1.3995665250010958,-3.2408268793103527
264,-0.4788910099050705,0.06907982644051815,-0.060736200548404076,0.0437012024502902,0.02123866816270259,-3.9172167484280735
265,-0.028752454859764312,0.06907982644051815,-0.060736200548404076,0.4460407798857314,0.4351115407229712,12.976557080406632
266,-0.2023798694505758,-0.012484987469273678,-0.1276867864955482,0.09129851822019866,0.025035654567253394,1.570555217273312
267,-0.05518646028092111,0.3412534423961847,-0.6524217278575286,0.0437012024502902,0.025035654567253394,7.096349723674956
268,-0.3916129948862177,0.06907982644051815,-0.060736200548404076,-1.1507328447738427,-0.4430891004416919,-0.06554063683258288
269,0.8879712968844342,0.06907982644051815,-0.060736200548404076,0.0437012024502902,0.4068886749874868,1.8339284474354776
270,-0.6465011352306179,0.06907982644051815,-0.2933159275676848,-0.3975820354552253,0.025035654567253394,-5.852723746097169
271,-0.028752454859764312,-0.023182959386727764,0.3379404167888388,-0.6385933619843136,-0.1046230627367044,0.026820551207960674
272,-0.9623355076220343,-1.4872914236928725,-1.6016200519048724,0.0437012024502902,-0.6148974057899226,-5.972785234639553
273,-0.028752454859764312,0.06907982644051815,0.6467642443408832,0.733630317807968,0.025035654567253394,2.0100350129725633
274,0.03398209120837109,-1.001642533148085,-0.060736200548404076,-0.7134967020194782,0.09380962746562832,-6.194795424245384
275,0.4905696728232202,-0.09965995682423663,-0.060736200548404076,0.0437012024502902,0.025035654567253394,-0.7952638266339698
276,1.1743031426199877,0.06907982644051815,-0.060736200548404076,0.2337149851588433,0.17103640606954398,-0.08703892387653345
277,-0.028752454859764312,0.5867831613662984,0.16176629592278322,0.0437012024502902,-0.2064038624835199,4.371086071076523
278,-0.028752454859764312,-0.15241350351756894,-0.9854126104477006,0.0437012024502902,-0.5384450602979092,1.3397039314690675
279,-0.028752454859764312,0.06907982644051815,-0.5988660020534046,-0.3534147954575457,0.025035654567253394,4.986120615558285
280,-0.23671035734320786,-0.2232090584262325,-0.060736200548404076,0.3052660583326821,-0.21278380964037247,-3.0284620857102214
281,-0.028752454859764312,0.06907982644051815,-0.060736200548404076,0.3983486828725582,0.7028992831877163,0.844223434166538
282,-0.028752454859764312,0.06907982644051815,-0.3605503126152345,0.0437012024502902,-1.1926056572663646,-3.617541113266717
283,-0.028752454859764312,-1.1404675913632738,-0.060736200548404076,0.0437012024502902,-1.020208929346056,-10.088867872172
284,1.0392111696469006,0.06907982644051815,-0.060736200548404076,0.6370842974551291,0.6089162683332089,7.8714966205629056
285,-0.028752454859764312,0.06907982644051815,0.9667239760985484,0.06414900061311979,0.5883841552803355,2.2743251207316915
286,0.6129615260340423,0.06907982644051815,0.4712128736529746,0.0437012024502902,0.025035654567253394,5.485269670334475
287,0.5964921089604711,0.06907982644051815,-0.060736200548404076,0.0437012024502902,0.025035654567253394,-2.629237435420325
288,1.0507600542523088,0.06907982644051815,-0.93254149861978,0.0437012024502902,0.8110272313007596,-0.7057094447597354
289,0.1001778711054986,0.06907982644051815,-0.060736200548404076,0.0437012024502902,0.025035654567253394,7.581835871707153
290,-0.028752454859764312,0.06907982644051815,-0.060736200548404076,0.0437012024502902,0.025035654567253394,8.209487352099774
291,-0.028752454859764312,0.06907982644051815,0.5992499364213715,0.0437012024502902,0.025035654567253394,6.478045375810553
292,0.12335771034456955,0.06907982644051815,-0.060736200548404076,0.0437012024502902,0.9002184058952771,16.061870210662793
293,-0.028752454859764312,1.1097237284104775,-0.060736200548404076,0.0437012024502902,0.025035654567253394,8.205499063172867
294,0.2932905765912334,0.06907982644051815,-0.060736200548404076,0.9660418062501182,0.478707865010288,13.724434431967607
295,-0.028752454859764312,0.13796130404989865,-0.8171062632544787,-0.5082979518578974,0.025035654567253394,5.020419214479267
296,-0.028752454859764312,0.06907982644051815,0.33915126903713994,-1.0702919887346671,0.07328870351548149,3.7252602570934656
297,0.7192514898643101,1.6679238901574662,0.7075690791161701,0.0437012024502902,0.025035654567253394,13.826019737249153
298,-0.028752454859764312,-0.16556012552714716,-0.060736200548404076,0.31289591138427963,0.025035654567253394,-2.1596616503099533
299,-0.028752454859764312,0.6319195095647447,-0.8405357675577969,0.0437012024502902,0.025035654567253394,6.652929659070848
300,-0.028752454859764312,0.06907982644051815,-0.4566322993494004,-0.9599613598268892,0.025035654567253394,-2.471693548301085
301,-0.028752454859764312,0.6919378568728627,0.6312200123059817,0.0437012024502902,0.025035654567253394,13.343668290598204
302,-0.028752454859764312,0.06907982644051815,1.2836388527356806,1.2893246565607894,0.2486201060658887,7.055781503350432
303,0.4484084634722427,0.06907982644051815,-0.4614238197440945,0.0437012024502902,0.025035654567253394,-0.2103076408336192
304,-0.028752454859764312,0.06907982644051815,-0.060736200548404076,0.2213454099449668,0.025035654567253394,-10.36778178459218
305,-0.2368218886639996,0.06907982644051815,-0.060736200548404076,-0.2687352744576027,0.025035654567253394,-6.047573300196111
306,-0.028752454859764312,0.5072095132051508,0.3951650245246366,0.0437012024502902,0.17695881276923764,3.4641228888904525
307,-0.14077436402283475,0.06907982644051815,-0.7244826753715644,0.0437012024502902,-0.5358480813138804,-3.8024491260965814
308,-0.028752454859764312,0.10282349126112666,-0.060736200548404076,-0.6260454095649499,0.025035654567253394,-0.7818381945025878
309,-0.18766693794015687,0.06907982644051815,-0.7074525617040014,0.0437012024502902,0.025035654567253394,-6.096296319716044
310,-0.8037638650990534,0.005773271118929002,-0.060736200548404076,-0.38284080052145947,0.025035654567253394,2.1321867427664247
311,-0.19908169341668508,-1.0006767698578714,0.3715006874406725,0.24868378392015075,0.025035654567253394,-11.319828134230333
312,0.5544506173294858,-0.3845741508809356,-0.060736200548404076,0.0437012024502902,0.7129281999910573,-1.4284748847441124
313,-0.028752454859764312,0.4617371493130712,0.3787099403545895,0.0437012024502902,0.025035654567253394,6.820160697896514
314,-0.1971783168710564,0.06907982644051815,-0.060736200548404076,0.0437012024502902,-0.9660372249424184,-1.8802718414111423
315,-0.3805406046559512,-0.8155133357888674,-0.060736200548404076,0.0437012024502902,0.025035654567253394,-5.41105649502512
316,-0.028752454859764312,-1.5533918324016336,-0.060736200548404076,0.0437012024502902,0.025035654567253394,-16.256494553455035
317,-0.6322431248814576,0.06907982644051815,-0.060736200548404076,0.0437012024502902,0.11786075185809225,-2.2370606941532065
318,-0.028752454859764312,0.06907982644051815,-0.060736200548404076,0.0437012024502902,0.025035654567253394,7.041919279330085
319,0.11907843081308815,-0.44691092320980463,-0.20336414789260865,0.0437012024502902,0.025035654567253394,-4.715595088605594
320,-0.028752454859764312,0.3222011698568337,-0.060736200548404076,0.0437012024502902,0.025035654567253394,4.558538540229974
321,-0.028752454859764312,0.06907982644051815,-0.060736200548404076,0.003661786028189229,0.025035654567253394,6.942615281441174
322,-0.028752454859764312,0.06907982644051815,-0.060736200548404076,1.0394344577144952,0.025035654567253394,14.10062926884602
323,-0.028752454859764312,0.06907982644051815,0.4303919325604051,-0.3838716342219064,-0.03730491920757576,-4.738831003386371
324,-0.028752454859764312,0.06907982644051815,0.6862409428203413,0.0437012024502902,0.025035654567253394,-2.6564064725989027
325,-0.028752454859764312,-0.2802101409854495,-0.060736200548404076,1.0429891703504903,0.025035654567253394,-6.043896659861421
326,-0.394356371477236,-0.4889121661117886,-0.060736200548404076,0.0437012024502902,0.9634666545143891,2.393297585152632
327,-0.028752454859764312,-0.1510805616221347,-0.1882232578428884,0.0437012024502902,0.025035654567253394,-2.286057407691767
328,-0.028752454859764312,0.06907982644051815,-0.060736200548404076,-1.829629228013426,0.025035654567253394,7.327744810265268
329,0.5784760884279545,1.4498047942309662,-0.060736200548404076,0.0437012024502902,0.025035654567253394,10.986041326657462
330,-0.028752454859764312,0.06907982644051815,0.4316742307965668,-0.2347249347729777,-0.9106297960240776,-3.86082521595921
331,-0.028752454859764312,-0.4304774505744278,-1.129323044535711,0.0437012024502902,-0.8013522606486939,1.156829510316413
332,-1.063422984102928,-0.517837701157567,-0.2602101222950535,0.0437012024502902,0.025035654567253394,-3.713946995502356
333,-0.028752454859764312,0.06907982644051815,-0.060736200548404076,0.6509930813777705,-0.8314797856997536,10.083953147964172
334,0.1410322265952602,0.06907982644051815,-0.060736200548404076,0.0437012024502902,0.11657897020277855,6.451570255995122
335,-0.028752454859764312,0.5239185381537275,0.8063839241455617,0.0437012024502902,0.025035654567253394,6.165373149714319
336,-0.028752454859764312,0.35011027885799284,-0.060736200548404076,0.8281705542840159,0.025035654567253394,3.8276486623425217
337,-0.028752454859764312,0.06907982644051815,0.08693620107133238,0.3305193729505573,0.025035654567253394,7.879343700575214
338,-0.028752454859764312,0.06907982644051815,-0.060736200548404076,0.0437012024502902,-0.7163519757405898,-3.958616165920048
339,-0.028752454859764312,0.5829853713222948,-0.060736200548404076,0.0437012024502902,0.30640046387132663,4.787857128225056
340,-0.028752454859764312,0.06907982644051815,-0.060736200548404076,0.0437012024502902,0.7853343795609234,8.009199744195664
341,0.028687911331909424,0.06907982644051815,-0.18151455414867096,0.4349364265544317,0.025035654567253394,3.6282488766337995
342,0.1974526558785928,0.06907982644051815,-0.6197217983395162,0.4539214941357012,0.025035654567253394,-5.728038035564804
343,-0.028752454859764312,0.06907982644051815,-0.060736200548404076,0.0437012024502902,-0.3629827605359178,-6.081202337531535
344,-0.028752454859764312,-1.0132619194500667,-1.4649082824633581,0.0437012024502902,0.025035654567253394,-3.86177791507664
345,0.06894213847709582,0.06907982644051815,-0.1903882263414173,0.0437012024502902,0.025035654567253394,1.3093954708680235
346,-0.028752454859764312,0.06907982644051815,-0.060736200548404076,0.0437012024502902,-1.4894364106940052,-2.642642452228129
347,0.42929706633349135,0.8388688656611045,-0.060736200548404076,0.0437012024502902,0.025035654567253394,11.654707079221742
348,-0.028752454859764312,0.06907982644051815,-0.060736200548404076,0.0437012024502902,-1.2753784621345081,-2.3454094568080506
349,-0.028752454859764312,0.06907982644051815,-0.060736200548404076,1.7803053851173396,0.025035654567253394,7.487416668865548
350,-0.028752454859764312,0.06907982644051815,-0.9862173270995378,0.0437012024502902,0.025035654567253394,3.38982767979294
351,0.9722004289792388,0.06907982644051815,-0.060736200548404076,0.0437012024502902,0.025035654567253394,-0.7771035688231802
352,-0.9310185623308164,0.09362196235748728,-0.2990214809954184,0.0437012024502902,0.025035654567253394,0.40969417687981
353,-0.5685645126970731,0.06907982644051815,-0.060736200548404076,0.0437012024502902,-0.6356870154550339,-5.543420322966154
354,-0.7762270677996209,0.06907982644051815,-0.060736200548404076,-0.2539424448888388,-0.5019513549274519,0.02340184556652869
355,-0.028752454859764312,0.06907982644051815,-0.060736200548404076,0.8142164123523933,0.6507384478959161,1.1380371038957755
356,0.6731919255210587,1.36208524164278,-0.13537957168210302,0.0437012024502902,0.025035654567253394,9.358700959361212
357,-0.028752454859764312,0.06907982644051815,-0.060736200548404076,0.0437012024502902,0.025035654567253394,4.784290037512377
358,0.2474835597684236,0.06907982644051815,-0.060736200548404076,0.0437012024502902,0.025035654567253394,11.379855200963545
359,-0.5829789535698646,0.06907982644051815,-0.17026902162610524,0.0437012024502902,0.8035041186338707,9.365584363529305
360,-0.028752454859764312,0.06907982644051815,-0.060736200548404076,0.0437012024502902,0.025035654567253394,-4.939820068492679
361,-0.028752454859764312,0.35967758138373074,-0.060736200548404076,0.0437012024502902,0.4330497585240589,6.3035098851006826
362,-0.028752454859764312,0.06907982644051815,-0.060736200548404076,0.0437012024502902,-0.4802988997847543,1.2230565606593058
363,1.0638290567686308,0.8563499988773992,-0.060736200548404076,0.0437012024502902,1.5414511344600916,10.730991502528855
364,-0.028752454859764312,0.06907982644051815,-0.060736200548404076,-0.4447970684331344,0.025035654567253394,-0.6913458517950932
365,-0.028752454859764312,0.06907982644051815,-0.5907799935552138,0.0437012024502902,0.025035654567253394,4.246484719636022
366,-0.4690165637406135,0.5023488238368253,-0.060736200548404076,0.0437012024502902,0.025035654567253394,4.250605763695708
367,-0.028752454859764312,0.06907982644051815,-0.060736200548404076,0.0437012024502902,0.025035654567253394,4.014993292402892
368,0.02228874021959254,-0.11002692001057876,-0.060736200548404076,-0.47019072574994897,0.025035654567253394,-3.9493793401190116
369,-0.028752454859764312,0.06907982644051815,-0.060736200548404076,0.0437012024502902,0.42289810701243696,4.566199599987769
370,-0.07285793215760578,0.06907982644051815,0.10609261375698442,-0.3955925799101922,0.025035654567253394,-3.8732430949805017
371,-0.028752454859764312,-0.8818051204439498,-0.5989789252057084,-0.5930448760022623,-0.4144448070063269,-6.865272622543073
372,-0.8101852924352753,0.7245578573604068,-0.060736200548404076,-0.5245972966472325,-0.5359287807162938,2.0837507139677847
373,-1.0441498024449525,-0.5055651691418469,-0.7787754554389694,-0.9438648251997872,0.025035654567253394,0.9465973947179204
374,-0.028752454859764312,0.06907982644051815,-0.060736200548404076,0.006662411149521264,0.025035654567253394,5.3569018722079615
375,1.476865160623552,0.06907982644051815,0.260541766300857,0.0437012024502902,0.4516205591678249,3.2671809562468113
376,-0.028752454859764312,0.06907982644051815,-0.04704273146201688,0.0437012024502902,0.13496654332515484,0.12228874276072264
377,-0.028752454859764312,0.3387754584216054,-0.060736200548404076,0.0437012024502902,0.025035654567253394,2.403268251754587
378,-0.028752454859764312,0.06907982644051815,-0.060736200548404076,0.0437012024502902,0.025035654567253394,6.933100005248325
379,-1.6112301596254408,-0.3614385764649569,-1.0914165895826526,-0.2906480565492469,0.025035654567253394,-1.1076855512480437
380,0.2806067181081248,0.06907982644051815,0.9868347533614564,0.0437012024502902,0.025035654567253394,19.957145072320905
381,0.3623942189780601,0.06907982644051815,0.6661450065298777,0.0437012024502902,0.025035654567253394,5.678175838472452
382,-0.028752454859764312,1.4751839636542712,-0.060736200548404076,0.0437012024502902,0.1893890797843717,15.148942327040512
383,0.6890749034809649,0.06907982644051815,-0.060736200548404076,0.0437012024502902,0.025035654567253394,5.785338601155258
384,-0.953838894533052,-0.08580660040380506,-0.060736200548404076,0.0437012024502902,0.29076272460491426,1.9614311131050088
385,-0.6186848165501397,0.06907982644051815,-0.060736200548404076,0.0437012024502902,0.025035654567253394,3.5084811349072704
386,-0.028752454859764312,-0.2358026471746388,-0.060736200548404076,-0.567190116581004,0.025035654567253394,-1.8896700702518203
387,-0.028752454859764312,0.06907982644051815,-0.5901649366771475,0.22477912015330165,0.025035654567253394,-0.3995529051912435
388,-0.028752454859764312,0.06907982644051815,-0.060736200548404076,0.0437012024502902,0.6268331600866147,3.6088596198460223
389,-0.8148486058159867,0.06907982644051815,-0.060736200548404076,0.511338329925084,-0.4987176172980228,-2.4609392143926545
390,-0.028752454859764312,-0.22384883311106515,-0.060736200548404076,0.0437012024502902,0.025035654567253394,-1.4025663070694538
391,-0.028752454859764312,0.06907982644051815,-0.060736200548404076,0.0437012024502902,0.025035654567253394,10.051269780477718
392,-0.028752454859764312,0.7610279005085434,-0.060736200548404076,0.0437012024502902,0.025035654567253394,10.606824884502057
393,-0.028752454859764312,0.06907982644051815,-0.060736200548404076,-0.5018429100998765,-0.5397525513732824,-10.723394711954722
394,-0.028752454859764312,0.06907982644051815,-0.060736200548404076,-1.3188222134241605,0.025035654567253394,-1.8436093780590936
395,-0.028752454859764312,-0.7632514145122129,-0.060736200548404076,0.35683203145500925,0.2972953703554688,-9.300194658472998
396,-0.5241820137755763,-1.030004267363264,-1.1504869943367275,-0.4887667042918639,0.025035654567253394,-6.3191854957148434
397,-0.2844868495130504,0.06907982644051815,-0.060736200548404076,0.0437012024502902,-0.5593589090591516,-0.5945208821830861
398,0.10934522440150574,0.06907982644051815,-0.060736200548404076,-0.06644149106916293,-0.6868623361358304,-12.416671743693387
399,-0.028752454859764312,0.06907982644051815,-0.060736200548404076,0.0437012024502902,0.04245395604519675,-1.6344287910316764
400,0.7699287481098588,0.4935503424568081,-0.060736200548404076,0.9893285990103616,0.4912262282240895,4.942449748585184
401,0.06633163884770021,0.06907982644051815,1.2516898770559963,0.0437012024502902,0.5902056369956828,4.242902433863138
402,-0.028752454859764312,0.06907982644051815,-0.060736200548404076,-0.9939231156473384,-0.7477392618060182,-0.6610203741046708
403,-0.028752454859764312,0.06907982644051815,0.5382249553308414,0.5839461072929808,0.025035654567253394,9.117877525561124
404,-0.6020135794755942,0.06907982644051815,-0.060736200548404076,-0.6826431770918004,0.025035654567253394,-1.1779072874267302
405,-0.028752454859764312,0.06907982644051815,-0.060736200548404076,0.4704736858952194,0.025035654567253394,-7.466186979845497
406,0.3674619582423729,0.06907982644051815,-0.060736200548404076,0.8298196903954732,0.025035654567253394,5.9411585849489565
407,0.6597532344157102,0.06907982644051815,0.16873398510956109,-0.06955822678260137,0.3149980518641429,3.3218688556915583
408,-0.8012195798580928,0.06907982644051815,0.28912687740078225,-0.5457414889545615,0.025035654567253394,-3.881877396569752
409,-0.028752454859764312,0.06907982644051815,-0.060736200548404076,-0.4839772051118579,0.025035654567253394,-13.089775857432814
410,-0.028752454859764312,-0.11068751333392153,0.37435786265830295,-0.3075318615585857,0.025035654567253394,-1.8243039755720332
411,-0.028752454859764312,0.436120691910416,-0.08259544937554475,0.0437012024502902,0.025035654567253394,3.3857920370983217
412,-0.014072669973623109,0.06907982644051815,-0.8830280028650117,0.0437012024502902,0.025035654567253394,-12.613253199568446
413,1.3882166021953208,0.9331729334012304,0.9097383678577384,0.0437012024502902,0.025035654567253394,7.083224106530767
414,-0.028752454859764312,0.06907982644051815,-0.4844207654585698,0.0437012024502902,0.025035654567253394,5.7685960751222565
415,-0.028752454859764312,0.06907982644051815,0.56708215265235,0.5530979983792876,0.025035654567253394,3.9398248258720128
416,0.754352326984068,0.06907982644051815,-0.060736200548404076,0.0437012024502902,1.41445228746923,16.820502919696516
417,0.3177514924659609,0.43133370401556104,-0.060736200548404076,0.0437012024502902,1.3831176817867548,7.0671098688141445
418,0.14793219183527911,0.06907982644051815,0.9986232506082156,0.6231820359625126,-0.15266772513840632,6.735880562692567
419,-0.028752454859764312,0.06907982644051815,-0.060736200548404076,-0.5499555249917804,0.025035654567253394,1.9943820381839903
420,-1.4150482644776154,-0.7959464962462701,0.17102733109242307,0.0437012024502902,0.025035654567253394,-6.646559251347398
421,-0.028752454859764312,0.06907982644051815,-0.12368504967897533,0.0437012024502902,0.4370691855516723,-0.5109147744367222
422,-0.028752454859764312,0.13003854495060624,-0.060736200548404076,-0.16484067274276484,0.025035654567253394,-0.1701295937269175
423,-1.1947332987816792,-0.06008627421007413,-0.060736200548404076,0.0437012024502902,0.025035654567253394,0.4275178139789457
424,0.16443440771751888,0.06907982644051815,-0.060736200548404076,0.0437012024502902,0.4773294315039133,-12.549845867530605
425,-0.028752454859764312,0.06907982644051815,0.8395360977467425,0.0437012024502902,0.21329898226766755,-13.61743280688582
426,-0.028752454859764312,0.06907982644051815,-0.34262297325424995,-0.2673749304241779,0.2258407965564224,0.8306422839354526
427,-0.028752454859764312,0.06907982644051815,-0.4583477210050531,0.0437012024502902,0.025035654567253394,-1.9254234764212503
428,-0.028752454859764312,-0.00553943448869898,0.07265146143211088,-0.11529007065953888,0.30618107551669405,1.5626291223228423
429,-1.0073191880261296,0.40748429235492895,-0.060736200548404076,-0.05483245823624738,0.025035654567253394,1.276864444802779
430,-0.028752454859764312,0.06907982644051815,-0.060736200548404076,0.0437012024502902,-0.08244359629960082,3.8929350180724813
431,-0.028752454859764312,0.06907982644051815,-0.060736200548404076,0.0437012024502902,0.025035654567253394,0.6597927638812735
432,-1.3890569583891743,-0.5335236735472495,-0.060736200548404076,0.0437012024502902,-0.20151567686045346,-3.398616620966433
433,-0.028752454859764312,0.3566472704709486,-0.2605099867891042,0.0437012024502902,0.025035654567253394,0.7967230253185182
434,0.2373589229157241,0.06907982644051815,-0.060736200548404076,0.0437012024502902,0.025035654567253394,-8.830560411907703
435,-0.028752454859764312,0.06907982644051815,0.3920278512347037,-0.4108747259626455,0.2331080217891433,-10.022407948626553
436,-0.028752454859764312,0.06907982644051815,-0.060736200548404076,0.0437012024502902,0.025035654567253394,2.9813441181880376
437,0.3058375721688158,0.06907982644051815,-0.060736200548404076,0.0437012024502902,-0.5265945952624289,-5.262250286811555
438,-0.028752454859764312,0.06907982644051815,-0.060736200548404076,0.0437012024502902,0.3006856318915003,3.896224693526948
439,-0.028752454859764312,0.06907982644051815,-0.2636806734793483,-0.09524961537773814,0.21811895903276646,-1.3044879507599971
440,-0.5296446367436033,0.06907982644051815,-0.060736200548404076,-0.16327700657989327,0.025035654567253394,1.37025892664884
441,-0.028752454859764312,-0.16177361824946918,-0.060736200548404076,0.0437012024502902,-0.3529019214773181,-0.8184935569975131
442,0.3128319598834228,0.06907982644051815,-0.20824770855121424,0.0437012024502902,-1.0235810609544191,-6.470585419697927
443,-0.028752454859764312,0.06907982644051815,-0.6159546714336059,-0.038734517298975424,-0.4470181815903636,-2.877377633454173
444,-0.028752454859764312,0.9460009294286732,-0.060736200548404076,0.0437012024502902,-0.2820176236117887,7.178416606857913
445,-0.028752454859764312,0.06907982644051815,0.4872210836663256,0.0437012024502902,0.025035654567253394,-4.983212265022317
446,-0.3431513942375681,0.06907982644051815,-0.060736200548404076,0.0437012024502902,0.025035654567253394,-1.529348693110325
447,0.02930481727096052,0.06907982644051815,0.3343633327428531,0.7507472394891841,0.917908595127842,-2.7739482150757286
448,-0.028752454859764312,0.806862441648114,-0.060736200548404076,0.7649239729637629,0.9093127960747532,10.158710645562925
449,-0.028752454859764312,0.06907982644051815,-0.060736200548404076,-0.3321116738363918,0.025035654567253394,2.3764680610993416
450,-0.6488549587640324,0.2815437450244705,-0.38512211615641495,0.0437012024502902,-0.05614888340353358,1.7356235576420695
451,-0.028752454859764312,-0.17798036357810482,-0.060736200548404076,0.0437012024502902,0.025035654567253394,0.5981006090550486
452,-0.028752454859764312,0.27293852896179266,-0.060736200548404076,0.0437012024502902,0.025035654567253394,5.94028926032914
453,-0.028752454859764312,0.06907982644051815,-0.060736200548404076,0.0437012024502902,-1.4870034063917008,-5.3990335624805095
454,-0.5342777138736339,0.06907982644051815,-0.060736200548404076,0.0437012024502902,0.025035654567253394,4.124140654997474
455,-0.028752454859764312,0.06907982644051815,-0.060736200548404076,-0.4148585621031293,0.1810823820705288,-3.4885474621397448
456,-0.028752454859764312,0.06907982644051815,-0.752246046643861,-0.32726470986754497,0.025035654567253394,-2.270387463884485
457,-0.028752454859764312,0.06907982644051815,-0.9144170466104378,0.0437012024502902,0.025035654567253394,0.9575629543830282
458,-0.028752454859764312,0.06907982644051815,-0.060736200548404076,0.0437012024502902,0.025035654567253394,0.5545267962724887
459,-0.028752454859764312,1.5916574736553644,-0.060736200548404076,0.9894286979620877,0.025035654567253394,19.197553294665788
460,-0.028752454859764312,-0.21934310485136754,-0.060736200548404076,0.0437012024502902,-1.5141864577215638,0.2408535822994207
461,-0.4310387845676911,-0.6148130907099925,0.19315249458845046,0.0437012024502902,-0.17087005537437733,-4.709881137710963
462,0.8787483729804432,0.8591641825972763,0.2744207584635553,0.0437012024502902,0.025035654567253394,5.759062532664317
463,-0.20999111524037609,0.7713834251498253,-0.060736200548404076,0.0437012024502902,0.2464441108916845,9.559932669683391
464,0.015722800831295236,0.06907982644051815,-0.060736200548404076,0.0437012024502902,-0.01507112751173151,3.27785230540402
465,-0.028752454859764312,-0.06426570091096688,-0.060736200548404076,0.0437012024502902,0.025035654567253394,1.4943772903838035
466,-0.028752454859764312,0.06907982644051815,-0.060736200548404076,0.0437012024502902,0.025035654567253394,-6.109810555827031
467,-0.028752454859764312,-0.8343363273229791,0.03121212074995777,0.0437012024502902,0.025035654567253394,-8.079246803702585
468,-0.1502515455482062,0.06907982644051815,-1.043307248237041,0.0437012024502902,0.025035654567253394,-2.645922473624492
469,-0.028752454859764312,-0.9220347735458184,-0.060736200548404076,0.0437012024502902,1.2936758912286488,-6.894552221149023
470,-0.6062880456218589,0.06907982644051815,-0.060736200548404076,0.0437012024502902,-1.0878672275968668,-5.50117623819371
471,-0.028752454859764312,0.06907982644051815,-0.060736200548404076,-0.6913953908406507,0.025035654567253394,5.517272562274284
472,-0.028752454859764312,0.06907982644051815,1.004090401877231,0.0437012024502902,0.025035654567253394,6.14084191917066
473,-0.028752454859764312,0.06907982644051815,0.15568831816028272,0.0437012024502902,0.025035654567253394,-0.3067643325683711
474,-0.21044248441683489,-1.1000930160524098,-0.8761970884671912,0.0437012024502902,0.025035654567253394,-7.779703662484565
475,2.0156700864605286,1.8316719991764423,-0.060736200548404076,1.495696679481748,0.025035654567253394,10.188937659690259
476,-0.028752454859764312,0.06907982644051815,0.26113817313681625,0.0437012024502902,-0.494586606790723,0.6713526208101821
477,-0.028752454859764312,-1.1750009685377665,-0.060736200548404076,0.0437012024502902,0.025035654567253394,-6.536507843146203
478,-0.028752454859764312,0.06907982644051815,-0.060736200548404076,0.0437012024502902,0.025035654567253394,-5.805054894901915
479,-0.028752454859764312,0.06907982644051815,-0.060736200548404076,0.0437012024502902,-1.053345937351792,-10.369952502185338
480,-0.017459989419931377,0.6330884255705228,-0.060736200548404076,0.0437012024502902,0.025035654567253394,10.215549295803084
481,-0.028752454859764312,0.06907982644051815,-0.060736200548404076,1.0367368409158386,0.025035654567253394,6.092806528733674
482,-0.028752454859764312,0.06907982644051815,-0.060736200548404076,0.0437012024502902,0.1474703264916101,3.1476253817041133
483,-0.028752454859764312,0.06907982644051815,-0.060736200548404076,-0.6086357218308871,0.025035654567253394,0.4104947888997593
484,-0.028752454859764312,-0.4902933754405509,-0.060736200548404076,0.0437012024502902,0.025035654567253394,-1.6606560931343597
485,0.7407881002876818,0.06907982644051815,0.6207895636662445,0.0437012024502902,0.15440370609827064,-3.2141999999703303
486,-0.028752454859764312,0.06907982644051815,-1.2613431073393493,0.0437012024502902,0.3510362412149778,-1.1561619045547658
487,-0.028752454859764312,0.23358311067080603,-0.15369371862193165,0.0437012024502902,0.025035654567253394,4.928689209935585
488,-0.028752454859764312,0.06907982644051815,-0.060736200548404076,-0.9875891840732004,0.025035654567253394,1.2429392340201642
489,0.5496308769418419,0.06907982644051815,0.9887876046847088,0.8586911329943019,0.15834449610860646,5.0512646252521245
490,-0.028752454859764312,0.6687791418370483,-0.060736200548404076,0.0437012024502902,0.025035654567253394,8.101945731373876
491,-0.028752454859764312,-0.3428636886384876,-0.2463610385730277,-0.4553638788664206,0.025035654567253394,-3.387334431617297
492,0.6692370313301894,0.4599932701283316,0.18086984845223267,0.0437012024502902,0.025035654567253394,5.569890208465838
493,-0.028752454859764312,0.06907982644051815,-0.060736200548404076,0.0437012024502902,-0.18937425546643166,0.6933776143055272
494,0.9189753693825244,0.19505993756890427,-0.388280854584052,0.5783306632624461,0.025035654567253394,0.6897605075902242
495,-0.028752454859764312,0.06907982644051815,0.2863943029014687,0.0437012024502902,0.025035654567253394,-10.563310071137971
496,0.5501004328154543,-0.19814114920001696,-0.5412101321120024,0.03437683704163458,0.025035654567253394,-6.193987507523088
497,-0.028752454859764312,0.06907982644051815,-0.060736200548404076,0.0437012024502902,0.025035654567253394,-6.061424904758702
498,-0.028752454859764312,0.06907982644051815,-0.241169409130783,-0.2781075067537473,0.025035654567253394,-2.868723447126324
499,-0.16508669344508187,-0.3719632758615015,-0.060736200548404076,0.0437012024502902,0.025035654567253394,-1.4917514339287314
