,x1,x2,x3,x4,x5,y
0,0.06417257657210915,-0.3312926494573807,-0.2102659189874108,0.4326864405827392,-0.06286892043268429,-2.8125105580718914
1,-0.04689363237408838,0.11323366146355526,0.5292971627528131,-0.020423419921232772,1.0863785806077169,9.762949076116834
2,1.3904421710609942,0.11323366146355526,-0.30894003503274725,1.1240538998658938,0.3369601457024324,3.0942351187125485
3,-0.04689363237408838,0.11323366146355526,-0.030619220328062125,-0.020423419921232772,0.9561920740131329,-0.551780371757859
4,-0.04689363237408838,-0.5000198866889415,0.01505579077801961,-0.020423419921232772,-0.06286892043268429,-0.3277578644387562
5,-0.04689363237408838,0.4410010890801794,-0.030619220328062125,-1.2209864678889968,-0.06286892043268429,9.583824207990046
6,-0.04689363237408838,0.11323366146355526,0.12272009611340205,0.2543299554430006,-0.012720972200381158,5.787113702061792
7,-0.04689363237408838,0.11323366146355526,-0.26650078439164404,-0.020423419921232772,-0.06286892043268429,-12.428678210626716
8,-0.2997381877560096,0.11323366146355526,-0.9546448050410088,-0.3126027236195921,0.30023538053483056,-1.6139092728867932
9,-0.4404085363860773,-0.068608625594692,-0.030619220328062125,-0.7869031342343121,-0.4869003618140672,-0.4630169896695263
10,-0.04689363237408838,-0.11310454014564622,-0.2732210478530151,-0.020423419921232772,0.3318308340715592,-0.053196323394194785
11,-0.04689363237408838,0.11323366146355526,0.4533056393342045,0.16501018270722007,1.325958901335968,5.540433045721112
12,-0.04689363237408838,1.1094611745575462,-0.030619220328062125,1.1410348532320969,0.4863625442429057,13.07471094566232
13,-0.7128005456277522,-0.19651412331368834,-0.6680196546413228,-0.020423419921232772,-0.4863409564933832,-0.9415649123493771
14,-0.04689363237408838,0.11323366146355526,0.7808088514457452,0.4162301445753185,-0.3024528426557821,13.109742783686707
15,-0.5899566544232209,0.11323366146355526,0.7294427144601333,-0.020423419921232772,-0.06286892043268429,8.461715152368642
16,-0.04689363237408838,-0.02625473974569453,-0.030619220328062125,0.7120350090080625,-0.2233859669685472,1.2963930379435329
17,-0.04689363237408838,0.11323366146355526,-0.030619220328062125,0.08719023150147875,-0.06286892043268429,-3.744711563981253
18,-0.2838788559464779,0.5036626297624944,0.18535999351449034,-0.020423419921232772,-0.467743097863867,1.7443622450019198
19,-0.12977419814092184,-0.4736159055778146,0.4879019789453602,0.2577737273129017,-0.06286892043268429,-6.448209084721958
20,-0.04689363237408838,0.11323366146355526,-0.030619220328062125,-0.020423419921232772,-0.09952389254658513,-7.600286435314128
21,-0.04689363237408838,0.026379327053703442,-0.2720222868832167,1.2282256380040142,-0.06286892043268429,-1.6069176409436965
22,-1.0811247195260154,0.11323366146355526,-0.030619220328062125,-0.5413904185735543,-0.06286892043268429,-6.331074076468442
23,-0.04689363237408838,0.11323366146355526,-0.7273691866529659,-0.020423419921232772,-0.06286892043268429,1.7486718043137779
24,0.9906885706126616,-0.3652172882005775,-0.030619220328062125,0.4498777455318358,-0.06286892043268429,-1.6934853186611694
25,-0.1608398432608118,0.11323366146355526,-1.6041562687765345,-0.9065723980364824,-0.06286892043268429,-2.7041607562331738
26,-0.14664931601905384,0.11323366146355526,-0.030619220328062125,-0.020423419921232772,-0.06286892043268429,-9.389637374178557
27,-0.04689363237408838,-0.1380652815929395,-0.030619220328062125,-0.020423419921232772,-0.5865474642394866,-4.216274900092148
28,-0.04689363237408838,-0.21991137182966106,-0.06369757133563958,-1.7454884265106727,-0.06286892043268429,-2.4088912830017546
29,-0.04689363237408838,0.2751359597999724,-0.030619220328062125,-0.32599491788498564,-0.640707038379667,4.377445375414299
30,-0.04689363237408838,0.11323366146355526,-0.3696619305011456,-0.020423419921232772,0.979224788182294,-4.526890446441403
31,-0.03843232121730217,0.8043039435214729,-0.030619220328062125,-0.020423419921232772,0.3983999869443892,10.71105337453207
32,-0.04689363237408838,0.11323366146355526,-0.030619220328062125,-0.020423419921232772,-0.29783898034329115,-1.1021541713511809
33,-0.04689363237408838,-0.2275082032820876,-0.030619220328062125,-0.020423419921232772,-0.06286892043268429,-4.089292831571799
34,0.07254713478734638,0.7778216671358207,0.8372127252041032,1.1778326974378943,-0.06286892043268429,12.477432757206476
35,-0.04689363237408838,-0.03980665709386155,-0.4402611423378413,-0.020423419921232772,-0.2770339252696141,-1.343728475963599
36,-0.0760095536062993,0.11323366146355526,-0.4867053389198284,-0.020423419921232772,-0.2593241262080514,0.4990989765436538
37,-0.04689363237408838,0.3559959286259308,-0.030619220328062125,-0.020423419921232772,-0.06286892043268429,3.815113503612248
38,-0.04689363237408838,0.11323366146355526,-0.030619220328062125,0.5905846891919915,-0.06286892043268429,7.548586154347314
39,-1.0595794936748808,-0.03833207807321076,-0.030619220328062125,-0.020423419921232772,-0.06286892043268429,-3.6077224876560217
40,-0.04689363237408838,0.221050057320114,-0.8737347011279428,-0.06486336982964508,0.04784656298059042,0.1654094489053337
41,0.6449075051172716,0.7594974005010102,-0.030619220328062125,0.5498427607978422,-0.06286892043268429,9.749222915791144
42,-0.04689363237408838,-1.1607706303941163,-0.7503334646701647,-0.020423419921232772,0.433695844268728,-6.623992069809942
43,-0.04689363237408838,-0.1656071524644838,-0.030619220328062125,0.017527484565311918,-0.06286892043268429,-2.9031692578071295
44,-0.04689363237408838,-0.4141834850664976,-0.4171709676963976,-0.5376472164891766,-0.06286892043268429,-2.7817970131212126
45,-0.28528649580405097,0.11323366146355526,-0.030619220328062125,-0.020423419921232772,-0.000998306652567699,-2.4108522152765257
46,0.6337726418767062,0.2361626488911429,-0.5128096220760308,0.11609469841189148,0.5721873999733438,2.411910088469486
47,-1.5568035655163983,0.02511191239392517,0.03258141664315839,-0.020423419921232772,-0.06286892043268429,0.6560395164582309
48,-0.04689363237408838,0.11323366146355526,0.6876017417175914,-0.020423419921232772,-0.06286892043268429,1.5636958168036108
49,-0.5317865197705216,0.11323366146355526,0.003372372718378508,0.17009598062101905,-0.06286892043268429,5.933945159214481
50,-0.4684107946392365,0.11323366146355526,-0.030619220328062125,-0.020423419921232772,0.27696230613774164,0.7535938239856701
51,-0.04689363237408838,0.11323366146355526,-0.030619220328062125,0.2964291059883129,-0.06286892043268429,-0.4200193001633328
52,-0.030271165116298793,0.3696556984509032,-0.030619220328062125,0.026758727772322743,-0.06286892043268429,3.6077007442368463
53,0.0630389424502299,0.11323366146355526,-0.17522436163827645,-0.020423419921232772,-0.06286892043268429,-2.172242255213997
54,-0.04689363237408838,1.0257828643515352,-0.030619220328062125,-0.9029482091438372,-0.6439837589323643,7.877867700443757
55,0.6696198177200199,0.11323366146355526,-0.3862540430923962,-0.020423419921232772,-0.06286892043268429,-2.6244040170767597
56,-0.04689363237408838,0.11323366146355526,-0.030619220328062125,-0.07853758119157739,0.09526679863776437,-7.578841657589148
57,0.15268380393540165,0.11323366146355526,-0.030619220328062125,-0.020423419921232772,-0.5964777701589522,0.5864795607623934
58,0.3477096321285211,0.11323366146355526,-0.030619220328062125,-0.5598343442105309,-0.06286892043268429,-11.144706044440492
59,-0.04689363237408838,0.11323366146355526,0.02611852450756208,-0.020423419921232772,0.4752882806246482,2.3968499212632595
60,0.2496292616254159,0.11323366146355526,-0.030619220328062125,-0.020423419921232772,-0.06286892043268429,-1.5752571121661383
61,-0.04689363237408838,0.11323366146355526,-0.030619220328062125,-0.020423419921232772,-0.06286892043268429,0.5558303867915684
62,-0.04689363237408838,0.11323366146355526,-0.8555398180086401,-0.020423419921232772,-1.2759992360106591,-3.800159092435342
63,-0.04689363237408838,0.03339287169751448,-0.030619220328062125,-0.020423419921232772,-0.06286892043268429,0.7944200456300261
64,0.07554407622965204,0.3623861493338112,-0.030619220328062125,-0.020423419921232772,-0.06286892043268429,9.822924221671883
65,-0.04689363237408838,0.11323366146355526,-0.030619220328062125,-0.020423419921232772,-0.06286892043268429,-3.4013261546160134
66,-0.04689363237408838,0.11323366146355526,-0.4994764158910562,-0.020423419921232772,-0.06286892043268429,6.9488864660199425
67,1.0205675931684373,0.11323366146355526,0.9246895036801764,-0.020423419921232772,-0.06286892043268429,14.296811247366845
68,0.9782305987965751,0.11323366146355526,-0.2506006383614059,0.5385055039165352,-0.06286892043268429,-3.0554205082021904
69,-0.3688053775884176,0.11323366146355526,-0.5485278309657691,-0.3994083422460039,-0.3533662771625868,-4.838317266371896
70,-0.04689363237408838,0.11323366146355526,-0.030619220328062125,-0.020423419921232772,-0.06286892043268429,-0.4136556726817682
71,-0.4446785250215928,0.11323366146355526,-0.030619220328062125,-0.020423419921232772,-0.11534591752256684,0.4543791701676762
72,0.5500983298376817,0.1237662731943406,-0.04633131889157723,-0.020423419921232772,0.2405261266934537,0.22291644113338596
73,-0.04689363237408838,0.11323366146355526,-1.5154593584365434,-0.6664792044936845,-0.06286892043268429,0.8399417948459268
74,-0.04689363237408838,0.11323366146355526,-0.4540369489294328,-0.020423419921232772,-0.06286892043268429,-3.79887672349964
75,-1.046491849996347,0.4705093690109764,-0.030619220328062125,-0.23976144042282999,-0.06286892043268429,1.3514902429233429
76,-0.04689363237408838,-0.05114055439284071,-0.030619220328062125,-0.020423419921232772,-0.34759907177101224,-0.3861086295164276
77,0.0575710316770432,0.11323366146355526,-0.030619220328062125,-0.1776418615956672,-0.06286892043268429,3.73898116311962
78,-0.4687322313474352,0.04036898719991218,-0.5469080638857277,-0.020423419921232772,-0.4254399361087692,-0.02305174868748228
79,-0.04689363237408838,0.11323366146355526,-0.030619220328062125,-0.020423419921232772,-0.6448919298670049,-0.6811279849900063
80,-0.04689363237408838,0.11323366146355526,-0.03481256932028619,-0.854888106449702,0.028319592459201477,-1.3767700305723902
81,0.7800066486679825,1.1725853910891606,0.6393892247290572,-0.020423419921232772,-0.06286892043268429,12.866339340803115
82,-0.3578047118865236,0.11323366146355526,0.8473689714686844,-0.020423419921232772,0.3984272764227504,0.6748982548578994
83,-0.04689363237408838,-0.045269142867153216,-0.030619220328062125,-0.07223940598982381,-0.06286892043268429,-0.8272160560878941
84,-0.04689363237408838,0.11323366146355526,-0.030619220328062125,-0.020423419921232772,-0.06286892043268429,3.840762248425892
85,-0.04689363237408838,0.11323366146355526,-0.07644560039842946,-0.020423419921232772,-0.5424479018913596,-0.33389665698154913
86,0.7221561246334527,0.11323366146355526,-0.5436556921509856,0.7237738134066352,-0.06286892043268429,-6.801350589221416
87,-0.04689363237408838,0.11323366146355526,0.6076593717879233,-0.020423419921232772,-0.06286892043268429,-1.8718542771571889
88,-0.04689363237408838,-0.042363402092735765,-0.030619220328062125,0.3412283520346655,-0.06286892043268429,1.4503966743802232
89,-0.04689363237408838,-0.425757463941658,0.9208403245940742,0.10337244638221,-0.06286892043268429,0.7705360184059882
90,-0.04689363237408838,-0.031983186574105066,-0.030619220328062125,-0.020423419921232772,0.5958543782273624,1.5168671068886042
91,1.3975153352796679,0.3020161351330656,-0.030619220328062125,-0.020423419921232772,-0.06286892043268429,-1.223232401100412
92,1.099429850597955,1.3038181583249684,-0.030619220328062125,1.4856364083498974,0.02374817552098496,10.936330149507194
93,-0.04689363237408838,-0.459638250593012,-0.18407508087085364,0.9001174444663712,-0.06286892043268429,-5.357026776654333
94,1.0593896757200814,0.3593512402370512,0.0020053023956838195,0.3452741869993711,-0.06286892043268429,1.894555543169652
95,-0.5985935157631479,0.11323366146355526,-0.030619220328062125,-0.020423419921232772,0.11956131134046445,-1.9590058882120185
96,-0.04689363237408838,-0.026744167059453483,-0.030619220328062125,0.18101076697115592,-0.1681509197656318,1.6432595260321663
97,-1.2327469383292649,-1.6582062028432554,-0.030619220328062125,-1.1652280980960044,-0.5111636021784597,-1.9468729558674436
98,-0.04689363237408838,-0.4261312204058007,-0.030619220328062125,-0.020423419921232772,-0.06286892043268429,0.5646075624897253
99,-0.04689363237408838,0.11323366146355526,0.27486548372064945,-0.020423419921232772,-0.06286892043268429,1.4957265529993626
100,0.465634038948512,-1.0312263965505784,-0.030619220328062125,-0.8336720078822478,-0.06286892043268429,-12.767501775572315
101,-0.4850096705394004,0.11323366146355526,-1.1766529722950614,-0.6194742294016553,0.3148629624581222,-2.622321214416064
102,-0.04689363237408838,0.3557587120043261,-0.030619220328062125,0.5051994644789802,-0.3336221658730045,2.1177365377862745
103,-0.04689363237408838,0.11323366146355526,-0.030619220328062125,1.5942897541350216,-0.06286892043268429,17.728341189504253
104,-0.6469426824338854,0.11323366146355526,0.005642259665133653,-1.3733741371257775,-0.4992838538623273,-1.9783427228289818
105,-0.04689363237408838,0.9847721978607302,-0.030619220328062125,-0.020423419921232772,-0.06286892043268429,10.427273816758149
106,-0.04689363237408838,0.11323366146355526,-1.3596363052722855,-0.17465783296655135,-0.06286892043268429,-6.362631190322055
107,-0.04689363237408838,0.10732437441352008,-0.030619220328062125,-0.020423419921232772,-0.06286892043268429,1.4273199200087636
108,-0.04689363237408838,0.11323366146355526,-2.099407192878915,-0.020423419921232772,-1.7262190580987975,-8.465444983945204
109,-0.04689363237408838,-1.0671441095988143,-0.5209189875752775,0.12947320970546738,-0.18182544652259364,-7.013512278832126
110,-0.04689363237408838,-0.04400549953856103,-0.030619220328062125,0.4543225329552371,-0.06286892043268429,0.536980528528286
111,-0.8607472910304494,-0.7923964541599086,-0.6418633033111826,-0.020423419921232772,-0.06286892043268429,-2.7598746640603946
112,-0.04689363237408838,0.7436515413166995,-0.030619220328062125,0.16554459117682033,-0.15698461090653246,5.9635627147674715
113,-0.04689363237408838,0.35356250203363426,-0.030619220328062125,-0.020423419921232772,-0.06286892043268429,7.603892503318693
114,-0.4886057134224896,0.11323366146355526,-0.4428568236563084,-0.30544957144349705,-0.06286892043268429,6.44599724510746
115,-0.04689363237408838,0.11323366146355526,-0.3335531889476337,-0.020423419921232772,-0.06286892043268429,9.11337960191166
116,-0.04689363237408838,0.43567591557093205,0.3658894609873772,-0.020423419921232772,-0.4783034982185394,1.0115537777983143
117,1.3604622272606357,1.8026026177210104,0.4899649275787522,1.9090938895505785,-0.06286892043268429,14.210255487976143
118,-0.04689363237408838,1.4656330407004992,1.5557383065858552,-0.020423419921232772,-0.06286892043268429,12.985489665286732
119,-0.04689363237408838,-0.2982100771284737,-0.030619220328062125,-0.020423419921232772,-0.06286892043268429,-8.259813542044206
120,0.7129930596022558,0.9738620968625749,-0.030619220328062125,0.2343688974726452,1.4543348102346998,7.611131537835617
121,-0.04689363237408838,0.11323366146355526,-0.2704860085209897,-0.28141235966952505,-0.06286892043268429,-7.170304781266368
122,-0.04689363237408838,0.11323366146355526,-0.030619220328062125,0.1416922071848683,0.08570365092224369,-5.024865037829246
123,0.6122672865766191,1.5253125934883718,-0.030619220328062125,-0.020423419921232772,-0.06286892043268429,18.84140930475829
124,-0.5681955037427863,0.11323366146355526,-0.030619220328062125,-0.020423419921232772,-0.5327771890650157,-2.3661600888725096
125,-0.04689363237408838,0.11323366146355526,-0.030619220328062125,0.1671498846261663,-0.06286892043268429,-7.537710204089942
126,-0.04689363237408838,1.2212792581270224,0.8693161610725404,-0.020423419921232772,0.7858435114552751,14.818080199378715
127,-0.04689363237408838,0.11323366146355526,0.8606422854297177,-0.020423419921232772,-0.06286892043268429,4.255529989436306
128,-0.04689363237408838,0.11323366146355526,0.17661679922004608,0.3726929583220083,-0.06286892043268429,2.318504048454715
129,-0.1274023144544263,0.11323366146355526,-0.030619220328062125,-0.020423419921232772,-0.06286892043268429,-1.1819646011329854
130,-0.04689363237408838,0.11323366146355526,-0.030619220328062125,-0.020423419921232772,-0.06286892043268429,5.135107851342081
131,0.11028435068303592,0.11323366146355526,0.87328543832635,-0.020423419921232772,-0.06286892043268429,8.730368684801402
132,0.06694201529095092,0.11323366146355526,-0.8170229344003628,-0.8450707123649096,-0.057888447586595025,8.228420966302235
133,-0.04689363237408838,0.11323366146355526,-0.030619220328062125,-0.020423419921232772,-0.6192200722796628,7.572912136101358
134,1.364751645652227,1.9013357803483302,0.18035693431234048,0.8355739114750799,0.9882234453387679,10.858302309608183
135,-0.04689363237408838,-0.2399488722228373,-0.030619220328062125,-0.020423419921232772,-0.0179992130965197,-0.17896457777994446
136,-0.02734924723378393,0.11323366146355526,-0.030619220328062125,-0.020423419921232772,-0.1835368706342727,-2.0794634241548238
137,0.07179448548471079,-0.5822598120098228,-0.030619220328062125,-0.020423419921232772,-0.12126994067404705,-6.570743559662452
138,0.6572902736479178,0.11323366146355526,-0.030619220328062125,-0.020423419921232772,0.1107108719518138,4.243700924817847
139,0.6670056230458172,0.11323366146355526,0.6734098648793121,-0.045383114661137536,-0.06286892043268429,7.689182994919835
140,-0.04689363237408838,0.11323366146355526,0.1800822151023386,-0.29327652602304616,-0.06286892043268429,1.0542300261672937
141,-0.04689363237408838,0.7429036964124816,0.6661695972053903,-0.020423419921232772,-0.06286892043268429,9.269828840614457
142,0.4623400676940922,0.11323366146355526,1.304242673849979,1.0512814786530114,-0.06286892043268429,5.898909447715687
143,-0.9034896914030176,-0.5019455689728716,-0.9270025098209348,-0.020423419921232772,-0.06286892043268429,-1.0088402734947493
144,-0.04689363237408838,0.11323366146355526,-0.5917743162296558,-0.020423419921232772,0.4410693633344611,-1.2537623583494593
145,-0.04689363237408838,0.11323366146355526,-0.030619220328062125,-0.430073512398482,-0.06286892043268429,-0.88356712971164
146,-0.5990638090133793,0.11323366146355526,-0.030619220328062125,-1.5573360833198198,-1.222222905848888,-3.62810368110708
147,0.06758466317585121,0.11323366146355526,-0.1989214582854106,0.9109515585929618,-0.7839855653215085,-5.881125153426452
148,-0.04689363237408838,0.11323366146355526,0.4256187418628925,0.18905930242922886,-0.7363854018860646,-2.744600480279201
149,-0.6699233904802635,0.11323366146355526,-0.030619220328062125,-0.497827467571126,-0.06286892043268429,2.6651906928398903
150,-0.04689363237408838,0.3277739300626044,-0.030619220328062125,-0.020423419921232772,-0.06286892043268429,-0.6087348273085293
151,-0.7709595419887032,0.11323366146355526,0.5993012326781658,-0.020423419921232772,-0.06286892043268429,-8.268059398740697
152,-0.04689363237408838,0.11323366146355526,-0.030619220328062125,-0.020423419921232772,-0.2141011337630207,-1.0967705090402715
153,-0.04689363237408838,1.4639497154900811,-0.030619220328062125,-0.020423419921232772,-0.06286892043268429,12.985895693436749
154,-0.04689363237408838,0.11323366146355526,-0.030619220328062125,0.8759880801257299,0.5994165889907014,4.117502719358195
155,-0.04689363237408838,0.32355255127131144,-0.030619220328062125,0.7475925311045555,0.9817248060623556,5.190934006686241
156,-0.04689363237408838,-0.7772085246839509,-0.9969184527578199,-0.020423419921232772,-0.8873861623054663,-2.395442775819022
157,-0.04689363237408838,0.5751345331052959,0.501378353580213,-0.020423419921232772,0.6899418769236625,4.021812935807782
158,-0.04689363237408838,0.8715280907989374,0.4836641442614895,-0.020423419921232772,0.3533700458032893,7.845035145969782
159,-0.04689363237408838,0.11323366146355526,-0.9881039345790668,-0.8972867507144076,-1.0315712656293472,-2.671217122025117
160,-0.04689363237408838,0.11323366146355526,-0.030619220328062125,0.28204968978142,0.6748197760048068,8.498142718152549
161,-0.04689363237408838,0.11323366146355526,0.1714491457320966,-0.6425702755969678,-0.06286892043268429,7.442395914859168
162,-0.04689363237408838,0.549647960559869,-0.030619220328062125,-0.020423419921232772,-0.06286892043268429,5.298041408551604
163,1.1293246924887768,1.09161399988968,-0.030619220328062125,-0.020423419921232772,-0.06286892043268429,10.694224975805717
164,-0.04689363237408838,-0.6239570308085076,-0.030619220328062125,-0.020423419921232772,0.9111064366701668,-1.3193884452131333
165,-0.22709725443551934,0.04770998914755084,0.5188720775205367,-0.020423419921232772,0.4266704281265935,3.149459162302749
166,-0.05229156752665148,-0.2603151616264935,-0.7316689360714284,-0.020423419921232772,-0.06286892043268429,-5.732864026924794
167,-0.04689363237408838,0.11323366146355526,-0.030619220328062125,-0.020423419921232772,1.5240405450151069,7.6975881505433925
168,-0.7976927520612449,0.11323366146355526,-0.030619220328062125,0.5477023220937249,0.4902460202251189,-2.874548047415108
169,-0.2918746837806724,0.11323366146355526,-0.7111869308865567,-0.020423419921232772,1.1267979599063116,-0.7517974222812916
170,-0.8458848201603657,0.11323366146355526,-0.030619220328062125,-0.6129742415352711,-0.06286892043268429,-4.300237596117653
171,-0.04689363237408838,0.11323366146355526,-0.030619220328062125,-0.15676307363815295,1.0599993969970845,5.895283612552157
172,-0.7559592591807525,0.11323366146355526,-0.030619220328062125,-0.06348489751220783,0.2363204753498821,8.286623875704235
173,-0.04689363237408838,0.11323366146355526,-1.0159153718657592,-0.020423419921232772,-0.06286892043268429,-4.979777683177359
174,0.36176622098550737,-0.2293058724570793,0.08646467853822767,-0.9959794525894654,-0.06286892043268429,-3.7059182367666987
175,-0.04689363237408838,-0.7408528743673649,-0.030619220328062125,-0.020423419921232772,0.19275157910327148,-7.487373570248772
176,-0.2471580475848215,0.11323366146355526,-1.18668122359984,-0.020423419921232772,-0.06286892043268429,-5.397906986334281
177,0.5822724858298438,0.11323366146355526,0.3385808511135749,-0.020423419921232772,0.5024548793408309,-1.0528104220345411
178,0.25921412372689423,0.11323366146355526,0.054051316466320665,-0.4467764706726069,-1.4071249293729748,-4.649724850172774
179,-0.19487730574512066,0.11323366146355526,0.6510439043529246,1.2859545508836263,-0.06286892043268429,13.838966765685775
180,0.034436896991898336,0.11323366146355526,-0.8213116983893761,-0.020423419921232772,-0.06286892043268429,-12.119596514827919
181,-0.04689363237408838,0.5481662732009517,-0.030619220328062125,-0.020423419921232772,-0.06286892043268429,5.381481572119836
182,-0.04689363237408838,-0.39094579584708333,-0.2971179857069716,0.4283868311256745,-0.1953538264642357,-4.9701408993915805
183,-0.04689363237408838,0.11323366146355526,0.14503543941804947,-0.020423419921232772,-0.06286892043268429,3.1929175053266836
184,-0.04689363237408838,-0.014171139851627225,-0.030619220328062125,-1.0039787186539468,0.03826406700772926,2.6127878825050384
185,-0.04689363237408838,0.024114373138022168,-0.030619220328062125,-0.020423419921232772,-0.06286892043268429,2.9649917381624897
186,-0.04689363237408838,0.11323366146355526,-0.9100825852761107,-0.020423419921232772,-0.16783240743148667,1.319231325015517
187,0.0805309529249784,-0.04817151953453397,-0.030619220328062125,0.4898849084168872,0.6581402706434429,-1.5788851824698489
188,-0.04689363237408838,0.07301083752012771,-0.3781069654846713,-0.020423419921232772,-0.06286892043268429,0.4372154677420082
189,-0.04689363237408838,0.11323366146355526,0.3722274448346423,-0.020423419921232772,-0.06286892043268429,-8.850614726513669
190,0.09600696088113653,-0.15287827519664882,-0.030619220328062125,0.3041984046899481,-0.3492521799884491,-2.4139859657115377
191,-0.04689363237408838,0.11323366146355526,-0.9264941310168148,-0.020423419921232772,0.16333058477819473,-1.4918609011102013
192,0.06922338879257453,0.5446946564198102,-0.030619220328062125,-0.020423419921232772,0.7630548679627782,6.767165588020779
193,-0.04689363237408838,-0.7406456721906544,-0.030619220328062125,-0.020423419921232772,-0.9316214720449818,-7.486917624586734
194,0.2873848986182589,0.5702323622897322,0.5395261559513144,-0.020423419921232772,-0.06286892043268429,7.76168970371158
195,0.291657495535914,0.118675017613327,-0.030619220328062125,-0.020423419921232772,-0.06286892043268429,0.3016686025321498
196,-0.04689363237408838,0.11323366146355526,-0.030619220328062125,-0.020423419921232772,0.6204310050230429,7.319669882772744
197,-0.04689363237408838,0.11323366146355526,-0.030619220328062125,0.8183548224108663,-0.06286892043268429,13.229402198762019
198,-0.1954537070364523,0.11323366146355526,-0.044220007999377975,-0.020423419921232772,0.2109741794199886,5.49218567968742
199,0.4111708885819401,0.11323366146355526,-0.36073022453040143,0.17645814093739748,-0.06286892043268429,-5.614531887502072
200,-0.04689363237408838,1.350524559801601,-0.030619220328062125,-0.020423419921232772,-0.25087140915673833,11.658877115627199
201,-0.04689363237408838,0.11323366146355526,-0.030619220328062125,-0.020423419921232772,-0.06286892043268429,1.29113563859646
202,-0.39192850892767694,0.11323366146355526,-0.030619220328062125,-0.020423419921232772,-0.06286892043268429,5.565768412940327
203,0.07555878064260224,0.7175232908172602,-0.030619220328062125,-0.020423419921232772,-0.06286892043268429,10.911393065825536
204,-0.04689363237408838,0.11323366146355526,-0.5554673571741393,-0.020423419921232772,0.029254302242812582,5.1066267786176445
205,-0.6653112147626917,0.11389551234177707,-0.030619220328062125,0.4576451732409725,-0.06286892043268429,1.2123016541502962
206,-0.04689363237408838,0.4461469222747214,0.6170623076433552,-0.020423419921232772,-0.06286892043268429,6.668431217655089
207,-0.04689363237408838,0.11323366146355526,-1.2558972889023867,-1.9838586698154823,-0.8781258429165236,-4.397708489816462
208,-0.04689363237408838,0.11323366146355526,-0.030619220328062125,-0.7606517413102307,-1.319371667777261,-9.109840024628662
209,0.5675611724351163,0.11323366146355526,-0.030619220328062125,-0.020423419921232772,-0.06286892043268429,7.978878700495169
210,0.8769480718508984,-0.17678209840331033,-0.030619220328062125,0.7991299752691675,0.7086366867214875,1.4878278705051176
211,-0.4648030853540008,0.11323366146355526,0.3143358928370857,0.13875645814868107,-0.06286892043268429,4.439487459184434
212,0.2445478026414264,0.6473652575465548,0.19043399904930516,-0.020423419921232772,-0.04924587334722341,6.129094838821561
213,-0.04689363237408838,-0.8623299572202963,-0.3956317206112376,-0.020423419921232772,-0.06286892043268429,-6.750299890712593
214,-0.04689363237408838,-0.27158968835444164,-0.030619220328062125,-0.020423419921232772,-0.06286892043268429,-3.6172855093608534
215,-0.04689363237408838,0.3565258727373633,-0.030619220328062125,0.5847948599347352,-0.06286892043268429,-2.226487281431852
216,-0.487685583729896,0.11323366146355526,-0.030619220328062125,-0.21033428383470149,0.2401680664790236,5.925660347139957
217,-0.04689363237408838,0.11323366146355526,-0.030619220328062125,-0.020423419921232772,-0.06286892043268429,-0.2692686189710032
218,-0.04689363237408838,-0.2758419212543802,-0.030619220328062125,0.5319556104305639,-0.048572387564550464,-3.4336220501394106
219,-0.04689363237408838,-0.09161955802900634,-0.030619220328062125,-1.6288114206914908,-0.06286892043268429,1.8468474732662457
220,-0.04689363237408838,0.31776345055628197,-0.030619220328062125,-0.020423419921232772,-0.06286892043268429,3.35159117078812
221,-0.04689363237408838,0.11323366146355526,0.2409716792715587,-0.020423419921232772,-0.06286892043268429,5.163800684347252
222,-0.04689363237408838,0.11323366146355526,0.3978054313062086,1.0271780446305434,-0.06286892043268429,5.828661629225862
223,-1.6382478650520118,-1.2646906967736449,-0.030619220328062125,-1.2106130042268468,-1.0625522375451752,-1.5005312449011012
224,-0.04689363237408838,0.3904624888859977,-0.030619220328062125,-0.020423419921232772,-0.6502520843025894,2.520910351490804
225,-0.04689363237408838,0.11323366146355526,-0.030619220328062125,-0.020423419921232772,-0.06286892043268429,-9.247198887992386
226,-0.09212098303267456,-0.2339773655826453,-0.030619220328062125,-0.020423419921232772,-0.6939654445138679,-2.1855830821711666
227,-0.11673872705065935,0.11323366146355526,-0.030619220328062125,-0.020423419921232772,-0.06286892043268429,-1.6809083478953313
228,-0.04689363237408838,0.11323366146355526,-0.5959423167087456,-1.588552800033033,-0.06286892043268429,-5.107545601018886
229,-0.20877626902121696,0.11323366146355526,-0.030619220328062125,-0.020423419921232772,-0.4055055197887918,2.7046001474286494
230,-0.04689363237408838,0.11323366146355526,-0.030619220328062125,-0.020423419921232772,-0.06286892043268429,1.6776282442572297
231,0.4808352357972204,0.11323366146355526,-0.030619220328062125,-0.3714577148010904,0.5821817287995521,-0.10180557546836176
232,-0.04689363237408838,0.11323366146355526,-0.030619220328062125,-0.1693558295666538,0.2339247037946671,0.30671971684819765
233,-0.04689363237408838,0.11323366146355526,-0.2401998959914143,-0.020423419921232772,-0.06286892043268429,-1.4862342698754998
234,-0.04689363237408838,0.7473490874474369,-0.030619220328062125,-0.020423419921232772,0.13303789031137853,6.967883956812838
235,-0.4206153569025832,0.11323366146355526,-0.4368705704875044,0.4275176123136129,-0.06286892043268429,-1.8713670169904075
236,0.34810550159862136,0.11323366146355526,-1.414905915912397,-1.0447125165513649,-0.06286892043268429,-0.12749572889943372
237,-0.04689363237408838,0.11323366146355526,0.8866832891901506,1.17861756296148,-0.1068847432603408,11.269125027630588
238,1.0189672794384743,0.9713038477264968,-0.030619220328062125,-0.020423419921232772,-0.06286892043268429,10.540916496243408
239,1.2132981611119331,0.11323366146355526,1.515738109434977,-0.020423419921232772,-0.06286892043268429,10.83663031255559
240,-0.9750823511027424,0.3683382365621765,-0.030619220328062125,-0.7257136363607755,-0.9979277298774332,3.923241363568002
241,0.9658292816468558,0.11323366146355526,1.0587928124212436,-0.020423419921232772,-0.06286892043268429,6.865219338529512
242,-0.04689363237408838,0.11323366146355526,-0.04510485676136403,-0.020423419921232772,-0.072820815440329,5.898744296102429
243,-0.04689363237408838,0.11323366146355526,-0.030619220328062125,-0.0039304252960352115,-0.06286892043268429,0.7690667594387235
244,-0.7399610867457864,-1.3056747918893912,-0.030619220328062125,-1.4184270796854763,-0.06286892043268429,-6.56854816840529
245,-0.04689363237408838,0.5396209509873329,-0.030619220328062125,-0.26584918863456497,0.4975434582119727,6.049083593957597
246,-0.3599469925686609,0.11323366146355526,-0.030619220328062125,-0.020423419921232772,0.3978283371405895,-0.6129632510297323
247,-0.04689363237408838,0.11323366146355526,-0.030619220328062125,-0.15713817938028302,0.4183514827342729,0.5914567827826321
248,1.3553145408909857,0.11323366146355526,-0.030619220328062125,-0.020423419921232772,-0.06286892043268429,4.278526289658002
249,-0.04689363237408838,0.11323366146355526,0.5383443593433517,0.10905741426295977,-0.06286892043268429,0.5470150532726793
250,-0.04689363237408838,0.11323366146355526,-0.030619220328062125,-0.2723729743755124,-0.06286892043268429,-0.003307139671771986
251,-0.04689363237408838,0.9074607846831678,-0.030619220328062125,1.3295857403972609,-0.06286892043268429,6.0873563838802385
252,-0.04689363237408838,0.11323366146355526,0.20151454351266726,-0.020423419921232772,-0.06286892043268429,1.4827789660943376
253,-0.04689363237408838,0.11323366146355526,-0.030619220328062125,-0.020423419921232772,-0.06286892043268429,-2.884111135821163
254,-0.04689363237408838,0.11323366146355526,-0.030619220328062125,-1.096334455562447,-0.06286892043268429,0.9055881237271596
255,-0.04689363237408838,0.11323366146355526,-0.11015757300791697,0.1890350320133512,-0.06286892043268429,-2.796656280958354
256,-0.04689363237408838,-0.006427685895207924,-0.030619220328062125,-0.3459013989811905,-0.06286892043268429,1.5525749287413149
257,-0.04689363237408838,1.414779200109326,0.8522287647666833,0.5987290911518871,0.8987786962065029,14.686639857096212
258,-0.04689363237408838,0.11323366146355526,-0.030619220328062125,0.17393401446571513,-0.06286892043268429,4.305816075991881
259,-0.04689363237408838,0.11323366146355526,-0.030619220328062125,-0.020423419921232772,-0.06286892043268429,4.206958757286951
260,-0.04689363237408838,0.11323366146355526,-0.030619220328062125,-0.020423419921232772,0.07610910100550827,9.318944580091092
261,-0.04689363237408838,0.11323366146355526,-0.18564717171804807,-0.020423419921232772,0.5050853439617643,-2.4665578821542
262,-0.8309459055649816,-0.5013826785882622,-0.030619220328062125,-0.14680988605491366,-0.06286892043268429,-2.2965361285036145
263,-1.070893925972744,-0.7222924533851752,-0.030619220328062125,-0.8282944161216458,-0.06286892043268429,-3.2408268793103527
264,-0.04689363237408838,-0.9752604377376486,-1.3629947084825802,-0.020423419921232772,0.02123866816270259,-3.9172167484280735
265,0.1522683543223649,0.11323366146355526,-0.030619220328062125,0.4460407798857314,0.4351115407229712,12.976557080406632
266,-0.04689363237408838,-0.012484987469273678,-0.030619220328062125,0.09129851822019866,0.6847855434701553,1.570555217273312
267,-0.04689363237408838,0.3412534423961847,-0.6524217278575286,-1.0637003780303087,-0.06286892043268429,7.096349723674956
268,-0.3916129948862177,0.11323366146355526,-0.030619220328062125,-0.020423419921232772,-0.4430891004416919,-0.06554063683258288
269,0.8879712968844342,0.2249423246225014,-0.030619220328062125,-0.020423419921232772,-0.06286892043268429,1.8339284474354776
270,-0.04689363237408838,-0.4605127729632342,-0.2933159275676848,-0.3975820354552253,-0.06286892043268429,-5.852723746097169
271,0.1304385220217651,0.11323366146355526,0.3379404167888388,-0.6385933619843136,-0.1046230627367044,0.026820551207960674
272,-0.9623355076220343,0.11323366146355526,-1.6016200519048724,-0.020423419921232772,-0.6148974057899226,-5.972785234639553
273,-0.04689363237408838,0.11323366146355526,-0.030619220328062125,0.733630317807968,-0.06286892043268429,2.0100350129725633
274,-0.04689363237408838,0.11323366146355526,-0.9821602366890528,-0.020423419921232772,-0.06286892043268429,-6.194795424245384
275,0.4905696728232202,0.11323366146355526,-0.030619220328062125,-0.018705405051898938,-0.06286892043268429,-0.7952638266339698
276,-0.04689363237408838,-0.12694019675337634,-0.030619220328062125,0.2337149851588433,0.17103640606954398,-0.08703892387653345
277,-0.04689363237408838,0.5867831613662984,0.16176629592278322,-0.020423419921232772,-0.2064038624835199,4.371086071076523
278,-0.38707079591254895,-0.15241350351756894,-0.030619220328062125,-0.5056150832008355,-0.5384450602979092,1.3397039314690675
279,-0.362351602752079,0.28682910838802833,-0.030619220328062125,-0.3534147954575457,0.05218724689117915,4.986120615558285
280,-0.23671035734320786,-0.2232090584262325,-0.030619220328062125,-0.020423419921232772,-0.06286892043268429,-3.0284620857102214
281,-0.04689363237408838,0.11323366146355526,-0.030619220328062125,-0.020423419921232772,0.7028992831877163,0.844223434166538
282,-0.04689363237408838,0.11323366146355526,-0.030619220328062125,-0.020423419921232772,-0.06286892043268429,-3.617541113266717
283,-0.35854348603248953,-1.1404675913632738,0.05981608341793788,-0.020423419921232772,-0.06286892043268429,-10.088867872172
284,-0.04689363237408838,0.21964028269065305,-0.030619220328062125,-0.020423419921232772,0.6089162683332089,7.8714966205629056
285,-0.04689363237408838,0.11323366146355526,0.9667239760985484,0.06414900061311979,-0.06286892043268429,2.2743251207316915
286,0.6129615260340423,0.4945066816927823,0.4712128736529746,0.6709624550773589,-0.24107299045136826,5.485269670334475
287,-0.04689363237408838,0.11323366146355526,-0.030619220328062125,-0.5833779705209361,-0.06286892043268429,-2.629237435420325
288,1.0507600542523088,-0.34471094350944914,-0.93254149861978,0.06793840296763012,-0.06286892043268429,-0.7057094447597354
289,0.1001778711054986,0.11323366146355526,-0.030619220328062125,-0.020423419921232772,-0.4371536010878337,7.581835871707153
290,0.33662043485123955,0.7107618090857282,1.0325791748551256,-0.020423419921232772,-0.06286892043268429,8.209487352099774
291,0.7241903190494932,0.624631253815777,-0.030619220328062125,-0.020423419921232772,-0.06286892043268429,6.478045375810553
292,0.12335771034456955,0.11323366146355526,-0.030619220328062125,0.7271103175267337,-0.06286892043268429,16.061870210662793
293,-0.04689363237408838,1.1097237284104775,0.4114377354555043,-0.020423419921232772,-0.2924367145479062,8.205499063172867
294,0.2932905765912334,0.11323366146355526,1.868820987474891,0.9660418062501182,-0.06286892043268429,13.724434431967607
295,-0.04689363237408838,0.11323366146355526,-0.8171062632544787,-0.020423419921232772,-0.06286892043268429,5.020419214479267
296,-0.04689363237408838,0.11323366146355526,-0.030619220328062125,-1.0702919887346671,0.07328870351548149,3.7252602570934656
297,-0.04689363237408838,1.6679238901574662,0.7075690791161701,-0.020423419921232772,-0.06286892043268429,13.826019737249153
298,-0.7909740731401727,-0.16556012552714716,-0.5223613029726812,-0.020423419921232772,-0.06286892043268429,-2.1596616503099533
299,0.7996247597890267,0.11323366146355526,-0.030619220328062125,-0.2633569033513518,-0.06286892043268429,6.652929659070848
300,-0.04689363237408838,-0.4477909262247485,-0.4566322993494004,-0.020423419921232772,-0.06286892043268429,-2.471693548301085
301,-0.0056208218996736115,0.11323366146355526,-0.030619220328062125,1.5201387541225608,-0.06286892043268429,13.343668290598204
302,-0.04689363237408838,0.11323366146355526,1.2836388527356806,1.2893246565607894,-0.06286892043268429,7.055781503350432
303,-0.04689363237408838,0.11323366146355526,-0.030619220328062125,-0.020423419921232772,-0.7619916428885718,-0.2103076408336192
304,-0.04689363237408838,-0.792389883382328,0.7979729285795949,0.2213454099449668,-1.0001304669992743,-10.36778178459218
305,-0.2368218886639996,0.11323366146355526,-0.44013582943750734,-0.020423419921232772,-0.5260676656643105,-6.047573300196111
306,-0.04689363237408838,0.5072095132051508,-0.030619220328062125,-0.6450801891331726,0.17695881276923764,3.4641228888904525
307,-0.14077436402283475,0.11323366146355526,-0.7244826753715644,-0.020423419921232772,-0.06286892043268429,-3.8024491260965814
308,-0.04689363237408838,0.11323366146355526,0.9029035808483872,-0.020423419921232772,0.5615646223544636,-0.7818381945025878
309,-0.18766693794015687,0.11323366146355526,-0.7074525617040014,-0.020423419921232772,-0.2941898163371852,-6.096296319716044
310,-0.8037638650990534,0.11323366146355526,-1.207760347704491,-0.020423419921232772,-0.06286892043268429,2.1321867427664247
311,-0.04689363237408838,0.11323366146355526,-0.030619220328062125,0.24868378392015075,-0.2657596143168329,-11.319828134230333
312,-0.04689363237408838,0.11323366146355526,0.098987991936418,-0.020423419921232772,-0.06286892043268429,-1.4284748847441124
313,-0.04689363237408838,0.4617371493130712,0.3787099403545895,-0.020423419921232772,-0.06286892043268429,6.820160697896514
314,-0.04689363237408838,0.11323366146355526,-0.030619220328062125,-0.7083037159779516,-0.9660372249424184,-1.8802718414111423
315,-0.3805406046559512,-0.8155133357888674,-0.5029233509869431,-0.7680561543049047,-0.06286892043268429,-5.41105649502512
316,-0.04689363237408838,0.11323366146355526,-0.030619220328062125,-0.020423419921232772,-1.4943396175948735,-16.256494553455035
317,-0.04689363237408838,0.06604984928176931,-0.4242947609224729,0.8386955265090845,-0.06286892043268429,-2.2370606941532065
318,-0.04689363237408838,0.11323366146355526,-0.030619220328062125,0.3132965890205661,-0.06286892043268429,7.041919279330085
319,-0.04689363237408838,-0.44691092320980463,-0.030619220328062125,-0.020423419921232772,-0.9680538491279111,-4.715595088605594
320,-0.04689363237408838,0.11323366146355526,-0.030619220328062125,0.15584330164538027,-0.1205216003989162,4.558538540229974
321,0.5432398953849783,0.11323366146355526,-0.030619220328062125,0.003661786028189229,1.079443502030443,6.942615281441174
322,0.7927367920960735,1.0288807399465614,1.070624302743152,-0.020423419921232772,-0.06286892043268429,14.10062926884602
323,-1.0464306226353115,-0.5074579822491042,0.4303919325604051,-0.020423419921232772,-0.03730491920757576,-4.738831003386371
324,-0.04689363237408838,-0.29601781803404714,0.6862409428203413,-0.020423419921232772,-0.06286892043268429,-2.6564064725989027
325,-0.04689363237408838,0.11323366146355526,-0.030619220328062125,-0.020423419921232772,-0.3678078518825096,-6.043896659861421
326,-0.394356371477236,-0.4889121661117886,0.6422140201666175,1.2561440214459902,0.9634666545143891,2.393297585152632
327,-0.04689363237408838,0.11323366146355526,-0.030619220328062125,0.3732990323221371,-0.06286892043268429,-2.286057407691767
328,-1.9443847778143877,0.6492606516729469,-0.030619220328062125,-0.020423419921232772,-0.5872319816321873,7.327744810265268
329,-0.04689363237408838,0.11323366146355526,-0.030619220328062125,0.3706711341471143,0.4441959600275239,10.986041326657462
330,-1.0244339720722442,0.11323366146355526,-0.030619220328062125,-0.020423419921232772,-0.06286892043268429,-3.86082521595921
331,-1.0665108716671563,0.11323366146355526,-1.129323044535711,-0.6906727694576218,-0.06286892043268429,1.156829510316413
332,-0.04689363237408838,0.11323366146355526,-0.2602101222950535,-0.21077440277291765,-0.68554268299953,-3.713946995502356
333,-0.4978018110255932,0.11323366146355526,-0.030619220328062125,-0.020423419921232772,-0.06286892043268429,10.083953147964172
334,-0.04689363237408838,0.5690521488423117,-0.030619220328062125,-0.020423419921232772,-0.06286892043268429,6.451570255995122
335,-0.04689363237408838,0.11323366146355526,-0.030619220328062125,-0.020423419921232772,0.08666809067070796,6.165373149714319
336,0.7994982264319513,0.35011027885799284,-0.030619220328062125,0.8281705542840159,0.2941877815683467,3.8276486623425217
337,-0.04689363237408838,0.11323366146355526,-0.030619220328062125,-0.020423419921232772,-0.06286892043268429,7.879343700575214
338,-0.04689363237408838,0.11323366146355526,-0.5272766656694468,-0.3943620542747584,-0.06286892043268429,-3.958616165920048
339,-0.04689363237408838,0.11323366146355526,0.6432307957887743,-0.020423419921232772,-0.06286892043268429,4.787857128225056
340,0.32718279150105056,0.4932143057829372,-0.030619220328062125,-0.020423419921232772,0.7853343795609234,8.009199744195664
341,-0.04689363237408838,0.11323366146355526,-0.18151455414867096,0.4349364265544317,-0.651556154634785,3.6282488766337995
342,0.1974526558785928,0.11323366146355526,-0.030619220328062125,0.4539214941357012,-0.010920609470788295,-5.728038035564804
343,0.056142449750080335,0.11323366146355526,-0.030619220328062125,0.07969517215567687,-0.06286892043268429,-6.081202337531535
344,-0.04689363237408838,-1.0132619194500667,-0.030619220328062125,-0.020423419921232772,-0.89212298204465,-3.86177791507664
345,0.06894213847709582,0.11323366146355526,-0.030619220328062125,-0.5141255798452465,-0.06286892043268429,1.3093954708680235
346,-0.2944104187476666,0.11323366146355526,-0.9240251037380068,-0.020423419921232772,-1.4894364106940052,-2.642642452228129
347,-0.04689363237408838,0.11323366146355526,-0.030619220328062125,-0.020423419921232772,-0.06286892043268429,11.654707079221742
348,-0.04689363237408838,-0.5110056499357821,-0.030619220328062125,-0.020423419921232772,-0.06286892043268429,-2.3454094568080506
349,-0.04689363237408838,0.5114713155043091,0.8801608137628634,-0.020423419921232772,-0.06286892043268429,7.487416668865548
350,-0.6856468244344471,0.11323366146355526,-0.030619220328062125,-0.020423419921232772,-0.06286892043268429,3.38982767979294
351,-0.04689363237408838,0.11323366146355526,0.9574148989013168,-0.020423419921232772,0.9336889556592458,-0.7771035688231802
352,-0.9310185623308164,0.11323366146355526,-0.030619220328062125,-0.020423419921232772,-0.01988756555749147,0.40969417687981
353,-0.04689363237408838,0.11323366146355526,-0.030619220328062125,-0.2623105456730505,-0.6356870154550339,-5.543420322966154
354,-0.04689363237408838,0.2107988971997652,-0.27411571204856944,-0.2539424448888388,-0.06286892043268429,0.02340184556652869
355,-0.13549229485963027,-0.42369069800495146,1.1475652033361674,-0.020423419921232772,-0.06286892043268429,1.1380371038957755
356,0.6731919255210587,1.36208524164278,-0.13537957168210302,-0.020423419921232772,0.6218475146836638,9.358700959361212
357,-0.04689363237408838,0.11323366146355526,-0.030619220328062125,0.15410387834357092,-0.06286892043268429,4.784290037512377
358,0.2474835597684236,0.11323366146355526,1.0719833529699092,-0.2016404703021918,-0.06286892043268429,11.379855200963545
359,-0.04689363237408838,0.11323366146355526,-0.17026902162610524,-0.020423419921232772,0.8035041186338707,9.365584363529305
360,-0.6287215317017186,-0.2380650892269931,-0.030619220328062125,-0.020423419921232772,-0.06286892043268429,-4.939820068492679
361,-0.04689363237408838,0.11323366146355526,-0.030619220328062125,-0.7284809387130462,-0.06286892043268429,6.3035098851006826
362,-0.04689363237408838,-0.25059422990822977,-0.9507246297892064,-1.4529771736117856,-0.4802988997847543,1.2230565606593058
363,-0.04689363237408838,0.11323366146355526,1.3555492019924156,-0.020423419921232772,-0.06286892043268429,10.730991502528855
364,-0.7109790467404948,0.19151798938854656,-0.030619220328062125,-0.4447970684331344,-0.06286892043268429,-0.6913458517950932
365,-1.3526122166907482,0.3968085228883188,-0.030619220328062125,-0.020423419921232772,-0.04870060336240828,4.246484719636022
366,-0.04689363237408838,0.11323366146355526,-0.2027431735890093,-0.020423419921232772,-0.06286892043268429,4.250605763695708
367,-0.04689363237408838,0.11323366146355526,0.7844836596700357,0.6000298545741625,0.04943049206229416,4.014993292402892
368,-0.04689363237408838,0.11323366146355526,-0.1990242491870888,-0.020423419921232772,-0.06286892043268429,-3.9493793401190116
369,-0.04689363237408838,0.20775910811228626,-0.030619220328062125,0.19070735436785813,-0.06286892043268429,4.566199599987769
370,-0.07285793215760578,0.11323366146355526,0.10609261375698442,-0.020423419921232772,-0.06286892043268429,-3.8732430949805017
371,-0.04689363237408838,-0.8818051204439498,-0.030619220328062125,-0.020423419921232772,-0.06286892043268429,-6.865272622543073
372,-0.04689363237408838,0.11323366146355526,-0.030619220328062125,-0.020423419921232772,-0.5359287807162938,2.0837507139677847
373,-1.0441498024449525,-0.5055651691418469,-0.7787754554389694,-0.020423419921232772,-0.09270097850465464,0.9465973947179204
374,0.851353703882677,0.6402065025674402,-0.030619220328062125,-0.020423419921232772,0.4001038328010657,5.3569018722079615
375,-0.04689363237408838,0.11323366146355526,-0.030619220328062125,-0.020423419921232772,0.4516205591678249,3.2671809562468113
376,-0.04689363237408838,0.026817796833634226,-0.030619220328062125,-0.020423419921232772,-0.06286892043268429,0.12228874276072264
377,1.5566458379123222,0.11323366146355526,0.5148782312802016,-0.020423419921232772,-0.06286892043268429,2.403268251754587
378,-0.04689363237408838,0.5042236195132632,-0.030619220328062125,-0.020423419921232772,-0.06286892043268429,6.933100005248325
379,-1.6112301596254408,0.11323366146355526,-1.0914165895826526,-0.2906480565492469,-0.06286892043268429,-1.1076855512480437
380,-0.04689363237408838,1.3259200932505748,-0.030619220328062125,-0.020423419921232772,0.8414698364562867,19.957145072320905
381,-0.04689363237408838,0.3918928466287297,0.6661450065298777,0.6207669342781051,-0.06286892043268429,5.678175838472452
382,-0.04689363237408838,0.11323366146355526,-0.030619220328062125,-0.020423419921232772,-0.06286892043268429,15.148942327040512
383,0.6890749034809649,0.11323366146355526,0.2985979244281517,1.4443311356383468,-0.06286892043268429,5.785338601155258
384,-0.04689363237408838,-0.08580660040380506,0.6875077750103128,-0.020423419921232772,-0.06286892043268429,1.9614311131050088
385,-0.04689363237408838,0.47498441292878,0.4667481063413344,-0.020423419921232772,0.16050711455624272,3.5084811349072704
386,-0.04689363237408838,-0.2358026471746388,-0.03276307751306029,-0.567190116581004,0.5536279502236812,-1.8896700702518203
387,-0.41889557966794105,0.11323366146355526,-0.030619220328062125,-0.020423419921232772,-0.06286892043268429,-0.3995529051912435
388,0.6011824517738702,0.5173576371412161,0.04112741672028528,-0.020423419921232772,-0.06286892043268429,3.6088596198460223
389,-0.8148486058159867,0.11323366146355526,0.09032426438371294,-0.020423419921232772,-0.4987176172980228,-2.4609392143926545
390,-0.3355824459483173,0.11323366146355526,-0.030619220328062125,-0.020423419921232772,-0.3756911988322632,-1.4025663070694538
391,-0.04689363237408838,1.366883389089748,0.9606204753090491,-0.020423419921232772,-0.06286892043268429,10.051269780477718
392,-0.3770775553937341,0.7610279005085434,-0.030619220328062125,-0.020423419921232772,0.3612305758541,10.606824884502057
393,-0.04689363237408838,0.11323366146355526,-0.4041094004577989,-0.020423419921232772,-0.5397525513732824,-10.723394711954722
394,-0.04689363237408838,0.11323366146355526,-0.7766552246628062,-0.020423419921232772,-0.06286892043268429,-1.8436093780590936
395,-0.04689363237408838,0.11323366146355526,0.011211035378735829,0.35683203145500925,-0.06286892043268429,-9.300194658472998
396,-0.5241820137755763,-1.030004267363264,-1.1504869943367275,-0.4887667042918639,0.04786937752751752,-6.3191854957148434
397,-0.04689363237408838,0.11323366146355526,-0.030619220328062125,-0.9042031328902564,-0.06286892043268429,-0.5945208821830861
398,0.10934522440150574,0.11323366146355526,-0.030619220328062125,-0.020423419921232772,-0.6868623361358304,-12.416671743693387
399,-0.04689363237408838,-0.2651956330671246,-0.030619220328062125,-0.020423419921232772,0.04245395604519675,-1.6344287910316764
400,0.7699287481098588,0.4935503424568081,0.3665837687250469,0.9893285990103616,0.4912262282240895,4.942449748585184
401,-0.04689363237408838,0.6638443003967516,-0.030619220328062125,-0.020423419921232772,-0.06286892043268429,4.242902433863138
402,-0.8345551954264869,-0.3543696679354905,-0.030619220328062125,-0.020423419921232772,-0.7477392618060182,-0.6610203741046708
403,0.6511359924337892,0.11323366146355526,0.5382249553308414,0.5839461072929808,-0.06286892043268429,9.117877525561124
404,-0.6020135794755942,0.11323366146355526,-0.030619220328062125,-0.020423419921232772,-0.6295748124156818,-1.1779072874267302
405,-1.1805335653844362,0.11323366146355526,-0.8115849493456302,-0.020423419921232772,-0.06286892043268429,-7.466186979845497
406,0.3674619582423729,0.11323366146355526,-0.030619220328062125,-0.020423419921232772,0.28969275061939714,5.9411585849489565
407,0.6597532344157102,0.2398188525184581,-0.030619220328062125,-0.020423419921232772,-0.06286892043268429,3.3218688556915583
408,-0.8012195798580928,-0.26891112582427296,-0.030619220328062125,-0.5457414889545615,-0.06286892043268429,-3.881877396569752
409,-0.04689363237408838,0.11323366146355526,-0.030619220328062125,-0.4839772051118579,-1.1491854950938327,-13.089775857432814
410,0.4317796227170404,-0.11068751333392153,-0.030619220328062125,-0.3075318615585857,-0.06286892043268429,-1.8243039755720332
411,-0.2829373935657643,0.436120691910416,-0.08259544937554475,0.3043565330193168,-0.06286892043268429,3.3857920370983217
412,-0.014072669973623109,-1.2476026898461114,-0.8830280028650117,-0.5127705864979035,-0.06286892043268429,-12.613253199568446
413,-0.04689363237408838,0.9331729334012304,-0.030619220328062125,-0.020423419921232772,-0.06286892043268429,7.083224106530767
414,0.6347128612707921,0.11323366146355526,-0.030619220328062125,-0.020423419921232772,-0.06286892043268429,5.7685960751222565
415,-0.9650269826527924,0.7110007347238345,-0.030619220328062125,-0.020423419921232772,-0.06286892043268429,3.9398248258720128
416,-0.04689363237408838,0.11323366146355526,1.5409899206510083,-0.020423419921232772,-0.06286892043268429,16.820502919696516
417,0.3177514924659609,0.11323366146355526,-0.030619220328062125,-0.020423419921232772,-0.06286892043268429,7.0671098688141445
418,-0.04689363237408838,0.11323366146355526,-0.030619220328062125,-0.020423419921232772,-0.06286892043268429,6.735880562692567
419,-0.04689363237408838,-0.3904311479069648,-1.198769240439229,-0.020423419921232772,-0.2920215851103384,1.9943820381839903
420,-1.4150482644776154,0.11323366146355526,-0.030619220328062125,-0.020423419921232772,-0.06286892043268429,-6.646559251347398
421,-0.04689363237408838,-0.20558673518183684,-0.12368504967897533,-0.6585459154091761,-0.06286892043268429,-0.5109147744367222
422,-0.2617675201091955,0.13003854495060624,-0.030619220328062125,-0.020423419921232772,-0.06286892043268429,-0.1701295937269175
423,-1.1947332987816792,-0.06008627421007413,-0.030619220328062125,-0.7462784088235059,-0.06286892043268429,0.4275178139789457
424,0.16443440771751888,0.11323366146355526,-0.030619220328062125,0.24657290717935276,-0.06286892043268429,-12.549845867530605
425,-0.04689363237408838,0.11323366146355526,0.8395360977467425,-1.2404273092345142,-0.06286892043268429,-13.61743280688582
426,-0.04689363237408838,-0.3464085037387518,-0.34262297325424995,-0.020423419921232772,-0.06286892043268429,0.8306422839354526
427,-0.04689363237408838,-0.030425841980757318,-0.030619220328062125,-0.2604173264511944,-1.1391967852808271,-1.9254234764212503
428,-0.5801586177038905,-0.00553943448869898,-0.030619220328062125,-0.020423419921232772,0.30618107551669405,1.5626291223228423
429,-1.0073191880261296,0.11323366146355526,0.06408646150268371,-0.05483245823624738,-0.06286892043268429,1.276864444802779
430,-0.30857145163981736,0.11323366146355526,0.5702668110917453,0.5466867188041132,-0.06286892043268429,3.8929350180724813
431,-0.04689363237408838,0.11323366146355526,-0.030619220328062125,-0.020423419921232772,-0.13276685679015887,0.6597927638812735
432,-1.3890569583891743,0.11323366146355526,-0.030619220328062125,-0.020423419921232772,-0.06286892043268429,-3.398616620966433
433,-0.513745255749253,0.11323366146355526,-0.2605099867891042,-0.020423419921232772,-0.06286892043268429,0.7967230253185182
434,0.2373589229157241,0.11323366146355526,-0.030619220328062125,-0.020423419921232772,-0.06286892043268429,-8.830560411907703
435,-0.04689363237408838,0.11323366146355526,-0.030619220328062125,-0.4108747259626455,-0.06286892043268429,-10.022407948626553
436,-0.04689363237408838,0.11323366146355526,2.1075922479150977,-0.020423419921232772,-0.06286892043268429,2.9813441181880376
437,0.3058375721688158,-0.7547563793952919,-0.030619220328062125,-0.66640591006217,-0.06286892043268429,-5.262250286811555
438,1.523920182898855,0.9890802673280314,-0.030619220328062125,1.0625585870896188,0.3006856318915003,3.896224693526948
439,-0.04689363237408838,-0.2835654157855645,-0.030619220328062125,-0.09524961537773814,-0.06286892043268429,-1.3044879507599971
440,-0.5296446367436033,0.11323366146355526,-0.030619220328062125,-0.020423419921232772,0.4801130788150722,1.37025892664884
441,0.04988583607117916,0.11323366146355526,-0.030619220328062125,-0.06472529579668307,-0.06286892043268429,-0.8184935569975131
442,0.3128319598834228,-0.38666876448896,-0.20824770855121424,-0.020423419921232772,-1.0235810609544191,-6.470585419697927
443,-0.04689363237408838,-0.3319448553227613,-0.030619220328062125,-0.038734517298975424,-0.06286892043268429,-2.877377633454173
444,-0.04689363237408838,0.9460009294286732,0.9082138957619952,0.3287135971659836,-0.2820176236117887,7.178416606857913
445,0.7904314204041081,-0.5670123002066187,-0.030619220328062125,-0.7209930953534833,0.4928996427018006,-4.983212265022317
446,-0.04689363237408838,0.11323366146355526,-0.030619220328062125,-0.2767982256832405,-0.06286892043268429,-1.529348693110325
447,0.02930481727096052,-0.3471617226583253,0.3343633327428531,-0.020423419921232772,0.917908595127842,-2.7739482150757286
448,-0.04689363237408838,0.806862441648114,0.2386375855065164,-0.020423419921232772,-0.06286892043268429,10.158710645562925
449,-0.04689363237408838,0.11323366146355526,-0.030619220328062125,-0.3321116738363918,-0.6631396841040886,2.3764680610993416
450,-0.6488549587640324,0.2815437450244705,-0.030619220328062125,0.362894672960916,-0.06286892043268429,1.7356235576420695
451,-1.5279721811988636,0.11323366146355526,-0.030619220328062125,-0.20734809198867712,0.17770113681944874,0.5981006090550486
452,0.4274204001113779,0.27293852896179266,-0.030619220328062125,-0.020423419921232772,1.1364196029559923,5.94028926032914
453,-0.04689363237408838,0.11323366146355526,-0.1804242300610206,0.5494031960682892,-1.4870034063917008,-5.3990335624805095
454,-0.04689363237408838,0.7790200857351087,-0.030619220328062125,-0.3289855805979929,-0.378626969115904,4.124140654997474
455,-0.0036168763155028476,0.11323366146355526,-0.030619220328062125,-0.4148585621031293,0.1810823820705288,-3.4885474621397448
456,-0.04689363237408838,0.11323366146355526,-0.030619220328062125,-0.020423419921232772,-1.661307020210396,-2.270387463884485
457,-0.04689363237408838,-0.18299695975919691,-0.9144170466104378,-0.020423419921232772,-1.0957106793678941,0.9575629543830282
458,-0.04689363237408838,0.11323366146355526,-0.030619220328062125,-1.943244883969588,-0.06286892043268429,0.5545267962724887
459,0.7121520787043549,0.11323366146355526,1.8086434539907479,0.9894286979620877,1.7641438650800727,19.197553294665788
460,-0.04689363237408838,0.11323366146355526,-0.9380030520585162,-1.0521001900308826,-1.5141864577215638,0.2408535822994207
461,-0.4310387845676911,0.11323366146355526,-0.030619220328062125,-0.020423419921232772,-0.06286892043268429,-4.709881137710963
462,0.8787483729804432,0.11323366146355526,0.2744207584635553,0.6813464254030073,0.4724210808218619,5.759062532664317
463,-0.20999111524037609,0.7713834251498253,-0.030619220328062125,0.4569820390844282,-0.06286892043268429,9.559932669683391
464,-0.04689363237408838,0.14308341485951875,-0.030619220328062125,-0.020423419921232772,-0.01507112751173151,3.27785230540402
465,-0.04689363237408838,0.11323366146355526,-0.030619220328062125,-0.020423419921232772,0.4226189159750284,1.4943772903838035
466,-0.04689363237408838,0.11323366146355526,-0.030619220328062125,-1.2315931177888055,-1.6229444702749614,-6.109810555827031
467,-0.04689363237408838,-0.8343363273229791,-0.030619220328062125,-0.2255096898599665,-0.06286892043268429,-8.079246803702585
468,-0.04689363237408838,-0.4934187539931599,-0.030619220328062125,-0.020423419921232772,-0.06286892043268429,-2.645922473624492
469,-0.17036077150784856,0.11323366146355526,-0.030619220328062125,-0.10542327074424476,1.2936758912286488,-6.894552221149023
470,-0.04689363237408838,-0.3478201593937168,-0.030619220328062125,-0.4790781331323834,-0.06286892043268429,-5.50117623819371
471,0.8577104867944706,0.11323366146355526,0.002650854603549524,-0.020423419921232772,-0.06286892043268429,5.517272562274284
472,-0.04689363237408838,0.11323366146355526,-0.030619220328062125,-0.17660427287862468,0.17045293177944848,6.14084191917066
473,-0.8620707032964289,0.11323366146355526,-0.030619220328062125,-0.020423419921232772,-0.06286892043268429,-0.3067643325683711
474,-0.04689363237408838,0.11323366146355526,-0.030619220328062125,-0.020423419921232772,-0.8264818917711249,-7.779703662484565
475,2.0156700864605286,1.8316719991764423,-0.030619220328062125,1.495696679481748,-0.06286892043268429,10.188937659690259
476,0.4496936199284055,0.07128023954987077,0.26113817313681625,-0.020423419921232772,-0.494586606790723,0.6713526208101821
477,-0.04689363237408838,-1.1750009685377665,-0.030619220328062125,-0.020423419921232772,-0.9868436438207692,-6.536507843146203
478,-0.04689363237408838,0.11323366146355526,-0.030619220328062125,-0.020423419921232772,-0.06286892043268429,-5.805054894901915
479,-0.5675250336447293,-1.4132780101826723,-0.9116833501906764,-0.020423419921232772,-1.053345937351792,-10.369952502185338
480,-0.04689363237408838,0.6330884255705228,-0.5328807357129717,-0.020423419921232772,-0.06286892043268429,10.215549295803084
481,0.3049412177553349,0.7575221211373382,-0.030619220328062125,-0.020423419921232772,-0.5261752008978242,6.092806528733674
482,0.6470026755801659,0.21969147532600855,-0.030619220328062125,-0.020423419921232772,-0.06286892043268429,3.1476253817041133
483,-0.04689363237408838,0.11323366146355526,-0.030619220328062125,-0.020423419921232772,-0.06286892043268429,0.4104947888997593
484,-0.04689363237408838,-0.4902933754405509,-0.030619220328062125,-0.020423419921232772,-0.7893661422618722,-1.6606560931343597
485,0.7407881002876818,0.11323366146355526,0.6207895636662445,-0.05066360525899813,0.15440370609827064,-3.2141999999703303
486,-1.668609570588924,0.11323366146355526,-1.2613431073393493,-0.020423419921232772,0.3510362412149778,-1.1561619045547658
487,-0.04689363237408838,0.11323366146355526,-0.15369371862193165,0.6574297263630433,-0.06286892043268429,4.928689209935585
488,-0.04689363237408838,0.11323366146355526,-0.3455909894537897,-0.020423419921232772,-0.06286892043268429,1.2429392340201642
489,0.5496308769418419,0.11323366146355526,0.9887876046847088,-0.020423419921232772,-0.06286892043268429,5.0512646252521245
490,-0.04689363237408838,0.6687791418370483,-0.030619220328062125,-0.020423419921232772,-0.41255772710865296,8.101945731373876
491,-0.04689363237408838,-0.3428636886384876,-0.030619220328062125,-0.020423419921232772,-0.4175638483322186,-3.387334431617297
492,0.6692370313301894,0.11323366146355526,-0.030619220328062125,-0.3991256515932569,-0.06286892043268429,5.569890208465838
493,-0.04689363237408838,0.11323366146355526,-0.3077238911195297,-0.020423419921232772,-0.18937425546643166,0.6933776143055272
494,0.9189753693825244,0.11323366146355526,-0.030619220328062125,-0.020423419921232772,-0.06286892043268429,0.6897605075902242
495,-0.04689363237408838,0.11323366146355526,-0.030619220328062125,0.09018241270140834,-0.06286892043268429,-10.563310071137971
496,-0.04689363237408838,-0.19814114920001696,-0.5412101321120024,-0.020423419921232772,-0.06286892043268429,-6.193987507523088
497,-0.04689363237408838,-0.8150381584546134,-0.030619220328062125,0.4478252491228344,-0.06286892043268429,-6.061424904758702
498,-0.8188012812273033,0.11323366146355526,-0.241169409130783,-0.2781075067537473,-0.06286892043268429,-2.868723447126324
499,-0.04689363237408838,0.11323366146355526,-0.030619220328062125,0.4555438871936646,-0.011558482770416184,-1.4917514339287314
