,x1,x2,x3,x4,x5,y
0,-0.13007444037113114,0.048597102109159296,0.017616778558177955,0.09543942584895981,0.06729409556572655,9.328029743758144
1,0.3773105206100507,0.04859710210915929,0.017616778558177955,0.09543942584895981,0.06729409556572653,4.194410412608852
2,0.4740896254182029,0.04859710210915928,1.8153626507127725,0.0954394258489598,-0.5332126610708048,-11.906397704517758
3,-0.13007444037113114,-0.7095987368538235,0.017616778558177944,0.09543942584895979,0.13013687213909478,-7.03138200279667
4,-0.13007444037113114,0.048597102109159296,-0.2232537597465383,0.0954394258489598,1.2410769104260602,3.121125250054352
5,-0.11471928155114497,0.6048270462181252,0.418608363801084,0.1667486766032057,0.08808402609139881,9.82388761682944
6,-0.1300744403711311,0.04859710210915929,0.017616778558177955,0.09543942584895981,0.06729409556572652,1.5651810599855935
7,-1.2709897727902817,0.04859710210915928,-0.3535679180079379,0.09543942584895979,-1.5694069425338024,-5.745203858767053
8,-0.13007444037113114,1.00290767309503,0.05652355637271527,0.07689141455015944,0.06729409556572652,8.384392602737398
9,-0.13007444037113114,0.04859710210915928,0.017616778558177948,0.09543942584895979,0.06729409556572653,9.560045045172169
10,0.09896027210209962,0.01858866600869338,0.01761677855817795,1.3488176509112668,0.06729409556572653,9.357024034696167
11,-0.13007444037113114,0.048597102109159296,0.5807417394946955,0.6286574060272331,-0.18173874736440265,10.706031921191528
12,-0.13007444037113117,0.120333760777199,1.3034221640446708,0.09543942584895981,1.1751526781506985,12.553082655224314
13,-0.13007444037113114,0.8848477952233336,0.054200186134223304,0.011927997596589024,0.1617301099108806,10.920210427634084
14,-0.13007444037113114,0.04859710210915928,0.017616778558177955,0.09543942584895979,0.06729409556572653,4.122491039583618
15,-0.4761567472441413,0.04859710210915928,-1.2681245301534672,0.1024158801573257,-0.6328201516725825,-4.356628397728817
16,-0.13007444037113114,0.0003955147256583802,0.01761677855817794,0.09543942584895976,0.06729409556572653,0.18407645835494654
17,-0.13007444037113114,0.04859710210915928,0.01761677855817796,0.09543942584895979,-0.7079508456467758,-6.9448001746213865
18,-0.13007444037113114,0.048597102109159296,0.01761677855817795,0.0954394258489598,0.06729409556572652,3.093934758290237
19,-0.15873843279325953,0.481661828359816,0.017616778558177962,0.7047368077307616,0.06729409556572653,5.3555702324614725
20,-0.13007444037113114,0.048597102109159296,0.017616778558177948,0.0954394258489598,0.06729409556572655,6.131055557223891
21,-0.13007444037113114,-0.09537006603003663,0.017616778558177962,0.09543942584895981,0.06729409556572652,0.18671415140430914
22,-0.13007444037113117,0.04859710210915929,0.01761677855817796,0.09543942584895979,0.4874704101082421,6.351966206665902
23,-0.13007444037113114,0.04859710210915928,0.01761677855817794,0.09543942584895977,0.06729409556572653,3.678783962594632
24,-0.13007444037113114,0.04859710210915929,0.017616778558177948,0.09543942584895979,0.06729409556572655,-3.699988822463313
25,-0.13007444037113114,0.048597102109159296,-0.2275481318184846,0.09543942584895981,1.205656724341836,8.182698879559515
26,-0.13007444037113114,0.04859710210915929,0.017616778558177955,0.0954394258489598,0.06729409556572653,-0.9549560587717976
27,-0.13007444037113114,1.2536602239941126,0.4635653561206101,0.09543942584895979,0.06729409556572652,6.742768041914013
28,-0.488204251811325,0.04859710210915928,0.01761677855817796,-0.9581872123469714,0.06729409556572652,0.9257202971802256
29,0.04441485121755195,0.048597102109159296,-1.9662584001380128,-0.11285025076677735,-0.19974954424963695,-9.983877055504141
30,0.4057028615827562,0.04859710210915929,0.017616778558177955,0.0954394258489598,0.06729409556572653,-14.095093549044677
31,0.1949181312364416,0.04859710210915929,0.017616778558177948,0.09543942584895979,0.061643170725950394,-7.869487785113307
32,-0.13007444037113114,0.04859710210915928,0.017616778558177955,0.09543942584895981,0.06729409556572655,-7.554528791074761
33,-0.13007444037113117,0.08062390730233128,0.019861828432245876,-0.12905203890160366,0.06729409556572652,-3.492875854340354
34,-0.13007444037113114,-0.2414459767119124,-0.014617144627750297,0.09543942584895979,0.06729409556572652,-1.5297134037359963
35,-0.13007444037113114,-0.3672083007354159,0.01761677855817797,0.8050759901755108,-0.3464402799552869,-1.7650061401741286
36,-0.13007444037113114,0.04859710210915929,0.01761677855817795,0.09543942584895979,0.06729409556572653,-2.5983034787563155
37,-0.4447621427023807,0.4284216154018272,0.017616778558177965,0.09543942584895981,0.1287612369192401,1.0793530620610767
38,-0.13007444037113114,0.9025138784361949,0.16180152523392086,0.07613117484500087,0.1615632806674111,8.178645979229827
39,0.07116558045927461,0.03825353427657674,0.01761677855817795,0.09543942584895979,0.050826397559186214,2.8662952641714496
40,-0.13007444037113114,0.048597102109159296,0.017616778558177955,0.0954394258489598,0.06729409556572652,-3.45458816164246
41,-0.14070547164467656,0.04859710210915928,0.01761677855817796,0.09543942584895979,-0.13287477247998253,-14.481980987742787
42,-0.13007444037113117,0.04859710210915928,0.017616778558177955,0.09543942584895979,-0.5538982379975959,-0.3815112295290976
43,-0.13007444037113117,-0.041128500737153066,-0.9085101177251548,0.08442648854671844,0.06729409556572652,-8.334626895328164
44,0.10411867333090706,0.021276752921748188,0.017616778558177948,1.2804653467043106,0.06729409556572652,8.710337598526252
45,-0.13007444037113117,1.0209972896222472,0.06507664429084709,0.4699772509496483,0.06729409556572653,3.5334428011975305
46,-0.13007444037113114,0.048597102109159296,0.017616778558177948,0.0954394258489598,0.06729409556572652,-1.0018176549842477
47,0.0007030251061890258,0.03336010028164092,0.017616778558177944,0.09543942584895979,0.06729409556572655,-0.34523641498606633
48,-0.13007444037113114,0.04859710210915929,-0.3069602989515691,0.09543942584895979,1.2124943253637142,-4.007706549740089
49,-0.18655855319722814,-0.5398673166072516,0.01761677855817796,0.09543942584895979,-0.3324101021781304,0.3726875240632874
50,-0.13836407653631988,0.04859710210915929,0.017616778558177955,0.09543942584895979,-0.11378360365094413,-12.697463225451633
51,-0.13007444037113114,0.04859710210915929,0.01761677855817796,0.0954394258489598,0.06729409556572653,-1.2182452657541585
52,-0.1300744403711311,0.04859710210915929,0.017616778558177955,0.09543942584895979,0.06729409556572653,-7.713854972416586
53,-0.17396367205023552,-0.5411117723701259,0.017616778558177955,0.09543942584895979,0.19135565682247566,-0.06955244225453883
54,0.03943572799224922,-0.01375829079692343,0.017616778558177962,1.0139958579321953,0.06729409556572653,-3.6795011932717614
55,-0.13007444037113114,0.04859710210915928,0.01761677855817795,0.09543942584895979,0.06729409556572653,9.636771292824816
56,-0.13007444037113117,0.048597102109159296,0.11596993503218105,0.09543942584895981,0.06729409556572655,-2.8205855039425183
57,-0.13007444037113117,0.07842062028566682,0.02030740427452011,-0.12153204991755362,0.06729409556572653,4.047583025746946
58,-0.13007444037113114,-0.17182628436457795,0.006273677905078412,0.09543942584895979,0.06729409556572653,-2.2165056521299538
59,-0.13007444037113114,0.04859710210915929,0.017616778558177948,0.0954394258489598,0.01833605622616441,-0.7977827638057302
60,0.4544155960977477,0.04859710210915929,0.7738920925775631,-0.7579593552561681,-0.09264709061777045,-5.120649489057887
61,-1.141334165830117,-0.10312044516105046,-0.0381836210903928,0.0773954528169374,0.04611501653810697,1.5789099889001816
62,-1.0101249693149257,-0.8919282577936489,-0.6669324426637809,0.09543942584895981,0.06729409556572655,-2.442055166320458
63,-0.1583109631321611,0.04859710210915929,0.017616778558177962,0.6585816924126419,0.2597586344283023,-3.848661904204611
64,-0.5773602520716022,0.048597102109159296,0.01761677855817796,0.0954394258489598,0.010236829379443396,-6.193625323181088
65,-0.027058227032905,0.048597102109159296,0.017616778558177948,0.09543942584895979,0.2066121334741155,-2.0716103272069466
66,-0.13007444037113114,0.04859710210915928,0.01761677855817795,0.09543942584895979,0.06729409556572653,13.219655834683227
67,-0.13007444037113114,0.048597102109159296,0.017616778558177955,0.0954394258489598,0.06729409556572652,-1.8631666046207795
68,-0.13007444037113114,0.13551333406056126,-0.2262057120818821,0.4474846316803868,0.06729409556572653,0.8599136625690176
69,-0.13007444037113114,-0.4196361684334592,0.017616778558177955,0.09543942584895979,-0.4842165163108195,0.10026504749637988
70,-0.13007444037113114,-0.5075586673041189,0.01761677855817796,-0.8249483303017099,0.06729409556572653,-4.327923812060175
71,-0.13007444037113114,0.04859710210915928,0.017616778558177948,0.09543942584895979,0.06729409556572652,1.8604028117099911
72,-0.13007444037113114,0.04859710210915929,0.017616778558177962,0.09543942584895981,0.06729409556572653,2.690215556046242
73,-0.13404729266217857,0.04859710210915928,0.017616778558177948,0.09543942584895981,-0.06474434764221998,1.6884045141847228
74,-0.15124205843982724,0.04859710210915929,0.01761677855817796,0.09543942584895979,0.06729409556572652,-4.965030652548112
75,-0.13007444037113114,0.04859710210915929,0.01761677855817796,0.09543942584895979,0.06729409556572653,7.109634708600549
76,-0.21325094364761038,-0.8986924230801643,0.01761677855817795,0.09166331129049471,0.06729409556572652,-4.391129899481268
77,-0.13007444037113114,-0.35055151910615673,0.007937782493124771,-0.013133441581357902,0.06729409556572652,-4.4983032105133285
78,-0.13007444037113114,0.04859710210915929,0.017616778558177962,0.09543942584895981,0.8291208165841125,9.748348377244811
79,-0.13007444037113114,0.04859710210915929,0.0808920528694229,-0.8115913146780687,-0.2941546675555138,-6.296910764795985
80,-0.6920276761577271,0.04859710210915929,0.01761677855817796,0.0954394258489598,0.009609598949136575,-2.5039858037920566
81,-0.22785299088290073,0.048597102109159296,0.01761677855817796,-0.8218555077955203,0.06729409556572652,-1.683019292890933
82,-0.1300744403711311,0.04859710210915928,1.1420952895402752,1.319967232042158,-0.005240859469467403,9.802134082371495
83,-0.13007444037113114,0.6498414204052261,0.10715169679703852,0.09543942584895979,1.2182306692713571,8.070036320817513
84,-0.30281450311636704,-0.5773639817023819,0.017616778558177948,0.08759723195924729,0.12368173377390516,-6.2815471533314815
85,-0.13007444037113114,0.048597102109159296,0.017616778558177962,0.09543942584895981,0.06729409556572653,-6.1211144941092055
86,-0.13007444037113114,0.048597102109159296,0.017616778558177962,0.8174427617950614,0.06729409556572653,18.363067762893067
87,-0.13007444037113114,0.04859710210915929,0.017616778558177962,0.09543942584895981,0.06729409556572653,-0.08277730780901171
88,-0.13007444037113114,0.04859710210915928,0.017616778558177962,0.0954394258489598,0.7460490984294933,10.265187613523509
89,-0.13007444037113114,0.048597102109159296,0.6496086805257585,0.15430396137854507,0.06729409556572655,1.5595925741851993
90,-0.13007444037113114,1.3337060258405908,0.23368145040322053,0.09543942584895979,0.06729409556572652,18.392945100284212
91,-0.13007444037113117,0.8738211280300929,-0.8601784158673229,-0.014936760863234918,0.06729409556572653,8.849718745644056
92,-0.10019391364666068,0.04859710210915928,0.3680593733980812,0.09543942584895979,0.06729409556572653,12.653637418071543
93,-0.13007444037113117,0.04859710210915928,0.01761677855817796,0.09543942584895979,0.06729409556572653,-3.8026697402147205
94,0.21103877235282187,0.027001625033751572,0.017616778558177948,1.3283802516485146,0.06729409556572652,8.952489215610969
95,-0.1300744403711311,0.04859710210915928,0.017616778558177955,0.0954394258489598,0.06729409556572652,-2.6353272399255903
96,-0.1300744403711311,0.04859710210915929,0.017616778558177955,0.09543942584895981,0.06729409556572652,-5.8704033178901875
97,-0.1300744403711311,0.048597102109159296,0.01761677855817796,0.09543942584895981,0.06729409556572653,7.5092660714855795
98,-0.13007444037113114,0.0232382606694056,0.01761677855817794,0.09543942584895979,0.06729409556572653,4.264061014253602
99,-0.13007444037113114,0.048597102109159296,1.047128659836048,0.11185521691772957,0.06729409556572653,10.88245896329355
100,0.4576346534024026,0.04859710210915929,0.017616778558177955,-0.2942090362956503,0.06729409556572655,6.062705691095682
101,-0.1300744403711311,0.04859710210915928,0.017616778558177955,0.0954394258489598,0.06729409556572652,1.363756781026176
102,-0.13007444037113114,0.04859710210915929,0.021065451285821758,-0.06574076165368342,0.06729409556572653,7.819770587610412
103,-0.13007444037113114,0.048597102109159296,0.017616778558177955,0.09543942584895979,0.06729409556572653,1.7721975271870798
104,-0.13007444037113114,0.048597102109159296,0.017616778558177962,0.0954394258489598,0.06729409556572653,-2.658900654128216
105,-0.13007444037113114,0.022221594052510785,0.017616778558177965,-0.6202401636987553,0.8650333407608181,2.80412574887489
106,-0.15199307815821747,0.04859710210915928,0.017616778558177944,0.0954394258489598,-0.07861558132111733,2.0536728635072747
107,0.2653564931143293,0.04859710210915929,0.01761677855817795,0.09543942584895979,0.05563054974774883,5.419113296549021
108,-0.13007444037113114,0.011360038403626746,-0.4531840661955074,0.2567693327827929,0.06729409556572652,-8.149834544556358
109,-0.13007444037113117,0.04859710210915929,0.017616778558177955,0.09543942584895979,-0.86468044094085,-8.071404320665156
110,-0.13007444037113114,0.04859710210915929,0.01761677855817796,0.09543942584895979,0.06729409556572653,-6.497084742166558
111,-0.13007444037113117,0.048597102109159296,0.017616778558177955,0.0954394258489598,0.06729409556572655,2.284611512790152
112,0.31663099200868017,0.04859710210915928,0.017616778558177955,0.39368693448017456,0.06729409556572655,-0.08585506274015088
113,-0.21239696328198843,0.048597102109159296,0.01761677855817796,-0.8744211301681823,0.06729409556572652,-5.201538155827952
114,-0.13007444037113117,0.04859710210915929,0.01761677855817796,0.0954394258489598,0.06729409556572655,18.202426705569
115,-0.13007444037113114,0.048597102109159296,0.017616778558177962,0.09543942584895981,0.06729409556572653,-1.7783507666488192
116,-0.3842273358672833,0.048597102109159296,0.01761677855817796,0.09543942584895981,-8.074589273531288e-05,-3.3144716478206875
117,-0.4516693550439456,0.07623662900663665,-0.36392213047670746,0.3794236115086465,0.06729409556572655,-6.4015908760589735
118,-0.13007444037113117,-0.023651629802915436,-0.7077663159171992,0.08072667134728212,-0.3803818070963089,-5.77385064233536
119,-0.13007444037113114,-0.017109275267037014,-0.3210250291002548,0.19716644183157822,0.06729409556572655,0.029837910010100468
120,-0.13007444037113114,-0.8306318076748832,0.017616778558177948,-0.34997711550450084,-0.3269098097022345,-7.394449856195243
121,-0.13007444037113114,0.04859710210915928,0.2387189098988732,0.0954394258489598,0.06729409556572653,-0.09606906559370088
122,0.12713241828642444,0.5856866043637878,0.017616778558177962,0.0954394258489598,0.09749799131971772,2.8475164080292736
123,-0.13007444037113114,0.04859710210915929,0.017616778558177962,0.0954394258489598,0.06729409556572653,-3.2308154112348446
124,-0.13007444037113117,0.04859710210915929,0.017616778558177948,0.09543942584895981,-0.3140377480509698,-4.257593028949861
125,-1.1999396530136697,-1.0332260061323861,-0.6865104319646853,0.09543942584895979,0.06729409556572652,-3.806343745013407
126,-0.4590443584459424,-0.4684276512951356,0.017616778558177948,0.4097290838908022,0.34266054426465553,-6.0675488609000565
127,-0.13007444037113114,0.04859710210915928,0.017616778558177948,0.09543942584895979,0.5890911319163802,6.697757214477607
128,-0.13007444037113114,-0.02893035993106742,-0.7374901642327836,0.14423174039085077,0.06729409556572655,-14.244399555677187
129,-0.2695932991345912,-0.5407838394047375,0.017616778558177948,0.09455690224377888,0.11939169997599855,-2.3728442980995204
130,-0.13007444037113114,0.04859710210915929,0.017616778558177948,0.0954394258489598,-0.2608838717703135,-1.0899052145001449
131,-0.13007444037113114,-0.7812424594394296,-0.4238263445047128,0.09543942584895979,0.06729409556572653,-3.47396422114247
132,-0.13007444037113114,0.048597102109159296,0.017616778558177962,0.0954394258489598,0.06729409556572655,-2.195292935065076
133,-0.13007444037113114,0.048597102109159296,0.01761677855817795,0.09543942584895979,0.06729409556572655,5.080429273043171
134,0.17716917434564733,0.04859710210915929,0.017616778558177948,0.09543942584895979,0.033136024528776266,1.0157025782604303
135,-1.1719455030522374,0.016775398985936125,-0.036806843030179434,0.011423997373535943,-0.03131885381424071,-0.932410005858739
136,-0.13007444037113114,0.04859710210915929,0.017616778558177962,0.0954394258489598,0.06729409556572653,-8.308475575830858
137,0.5801673271916628,0.1202583610441038,0.017616778558177955,0.09543942584895979,0.06729409556572652,1.8117363530628805
138,-0.21547278503909376,0.04859710210915928,0.017616778558177962,0.6764808356549082,0.06729409556572652,-4.130734608994118
139,-1.0577452037274693,0.006184930561820026,-0.1812339004111434,0.07198367240704268,0.03976294957492346,-6.463902092792214
140,-0.03248263638624213,0.5981294390100903,0.017616778558177955,0.06547423196098985,0.24638920793770866,3.2283223050173886
141,-0.3238881595562018,0.04859710210915929,-1.299826886582684,0.11445661900232362,0.06729409556572653,-4.347412013641467
142,-0.1300744403711312,0.048597102109159296,0.017616778558177962,0.09543942584895981,0.06729409556572655,-7.992144578723397
143,0.6764517152870171,0.4545004565707581,0.4159539446817498,0.09543942584895979,0.06729409556572653,5.892469072498626
144,-0.13007444037113114,0.28861364142280155,0.6317835530488386,0.09543942584895979,1.8280554698509373,9.755274039272534
145,-0.13007444037113114,0.04859710210915929,0.4732163717463101,0.09543942584895979,0.06729409556572655,11.552521715596631
146,-0.13007444037113114,-0.6948648690225272,0.017616778558177944,0.09543942584895979,0.12619474435454742,-3.2971129049764687
147,-0.13007444037113114,0.04859710210915928,0.01761677855817796,0.09543942584895981,0.06729409556572652,3.1511128364746366
148,-0.13007444037113114,0.048597102109159296,0.017616778558177962,0.09543942584895981,0.06729409556572653,2.999853398733666
149,-0.13007444037113114,0.048597102109159296,0.017616778558177965,0.0954394258489598,0.06729409556572655,2.0013729568272383
150,-0.13007444037113117,0.04859710210915928,0.017616778558177955,0.09543942584895979,0.06729409556572653,10.020908149564542
151,-0.4201438103661359,0.04859710210915929,0.017616778558177955,0.09543942584895981,-0.0023449888627291512,-1.7174586202684683
152,-0.13007444037113114,-0.23666650062263614,0.013216760682116122,0.09543942584895979,0.06729409556572652,0.9586125992938735
153,-0.13007444037113114,0.04859710210915929,0.01761677855817795,0.09543942584895979,0.04267156261432742,-9.272230344102008
154,-0.13007444037113114,0.09882697203369603,0.02042517715646696,-0.13713642072874954,0.06729409556572653,3.303673569179092
155,-0.13007444037113114,0.04859710210915928,0.017616778558177962,0.8390865774891735,0.06729409556572653,1.8154008129724368
156,-0.1300744403711311,-0.15005003346318874,-0.4915689669698631,0.05498686065107866,0.06729409556572652,-3.5300509790032795
157,-0.15198295355719776,0.048597102109159296,0.017616778558177962,0.6807183671006459,0.06729409556572653,4.460784941930358
158,-0.13007444037113114,0.048597102109159296,0.017616778558177962,0.09543942584895983,0.06729409556572655,3.538512768991186
159,-0.13007444037113117,0.04859710210915929,0.017616778558177955,0.09543942584895981,-0.1759168714858103,0.5436948474639136
160,-0.13007444037113117,0.048597102109159296,0.017616778558177962,0.09543942584895981,0.06729409556572655,-9.483445452652738
161,-0.13007444037113114,-0.7373678372037089,-0.32746271690040096,0.0954394258489598,0.06729409556572653,-6.38980713426564
162,0.6437951963552688,0.06457071511975493,0.01761677855817796,0.0954394258489598,0.06729409556572653,-5.008833965390412
163,-0.13007444037113114,0.06570547987726465,0.02025485651537076,-0.3591989985851971,0.06729409556572652,-1.8702753293494419
164,-0.13007444037113114,0.04859710210915929,0.017616778558177962,0.0954394258489598,0.06729409556572653,3.147700146011109
165,-0.08459850048310863,0.5584414310540905,0.01761677855817795,0.06249545028421641,-0.05623548139391482,9.063179187100381
166,-0.9907894977745844,0.048597102109159296,-1.4600658401823392,0.0954394258489598,-0.9691957991328416,-5.105507976983871
167,-0.0976710389716014,0.04859710210915929,0.3476570529808464,0.09543942584895979,0.06729409556572653,-1.3084202701292358
168,-0.13007444037113114,0.04859710210915929,-0.046698305611039936,0.27423467731919193,0.06729409556572652,-0.05603412327997925
169,-0.13007444037113114,0.04859710210915929,0.01761677855817796,0.09543942584895981,0.06729409556572653,-5.2806216617233055
170,-0.13007444037113114,0.04859710210915929,0.08765615242425273,-1.2074604501087691,-1.392433848477451,-10.277518474886822
171,-0.13007444037113114,0.04859710210915928,0.01761677855817795,0.09543942584895979,0.5983523841004007,5.190657096730371
172,-0.13007444037113114,0.048597102109159296,0.017616778558177965,0.7917788107261947,0.06729409556572653,3.0393487841317928
173,-0.13007444037113114,0.04859710210915929,0.017616778558177962,0.0954394258489598,0.06729409556572653,5.769367626674769
174,-0.13007444037113114,0.04859710210915929,0.4926456496656432,0.09543942584895981,0.06729409556572655,9.093262829256986
175,-0.0524023872041901,0.048597102109159296,0.3566675160961618,0.09543942584895981,0.06729409556572655,-12.502794372117355
176,0.10923602922968349,0.0485971021091593,1.5317808145212255,0.1184009085419907,-0.17056770732286136,7.658365963198981
177,-0.24889204643468946,0.048597102109159296,0.017616778558177955,-1.1234150514251866,0.06729409556572653,-4.115220256687357
178,-0.13007444037113114,0.04859710210915928,0.017616778558177962,0.09543942584895981,0.06729409556572653,-3.6644588202048767
179,0.5167912580618294,0.07277449403497757,0.017616778558177955,0.09543942584895979,-0.18591854069090671,0.2206025566571232
180,-0.13007444037113114,0.048597102109159296,0.017616778558177955,0.0954394258489598,0.06729409556572652,-0.5226835821926339
181,-0.1300744403711312,0.0485971021091593,0.017616778558177962,0.09543942584895981,0.06729409556572655,-4.786361849855059
182,-0.13007444037113114,0.04859710210915929,0.017616778558177955,0.0954394258489598,0.06729409556572652,-13.429102562507829
183,-0.4994855349849655,0.048597102109159296,0.017616778558177962,0.09543942584895979,-0.08192697333675396,-7.7135873931165255
184,-0.6272964106643532,0.048597102109159296,-0.9475168178992672,0.1024740785149631,0.06729409556572653,0.4707948401608646
185,-0.13007444037113114,0.04859710210915929,0.017616778558177955,0.0954394258489598,0.06729409556572652,2.884702292334889
186,-0.13007444037113114,1.1869425282172577,0.7240427456948658,0.1256611035957906,0.06729409556572653,10.276041189024742
187,-0.13007444037113114,0.04859710210915928,-0.10951131986965383,0.09543942584895979,1.1362365800257053,6.251156065573259
188,-0.13007444037113114,0.18113110991045986,0.017616778558177948,0.0954394258489598,0.06729409556572653,3.7279245817098166
189,-0.2247106843555705,0.048597102109159296,0.01761677855817796,-0.804679414801842,0.06729409556572652,2.913441848972016
190,0.5477941305877093,0.06638858103226902,0.01761677855817796,0.09543942584895979,0.06729409556572652,-2.333554496430786
191,-0.13007444037113114,0.04859710210915929,0.017616778558177962,0.09543942584895981,0.06729409556572653,-16.257318437984598
192,-0.13007444037113117,0.04859710210915929,0.2588211779908962,0.0954394258489598,0.06729409556572655,3.5990526227836512
193,-0.13007444037113117,0.04859710210915928,0.017616778558177962,0.09543942584895979,0.06729409556572653,-5.897187389897474
194,-0.1300744403711311,0.04859710210915928,0.2537611885431861,-0.8036977977125521,-0.4134392896177048,-2.7904595067034257
195,0.07875226475162453,8.262865391406303e-06,0.017616778558177948,0.09543942584895979,0.05196022533821768,0.6989209955330478
196,-0.13007444037113117,0.07429326310112067,0.025989103581907744,-0.14874255998672073,0.06729409556572653,0.6813114080332501
197,1.290053096752656,0.1792552886318172,1.3113575893788132,-0.21502721410485043,-0.121448174734254,5.408485300260326
198,-0.13007444037113114,0.04859710210915928,0.01761677855817795,0.09543942584895979,0.5710607557999626,4.029494516411654
199,0.4126680951309829,0.6410408821404753,0.17207079752480722,0.09543942584895981,0.018825280174041996,8.830008209986937
