,x1,x2,x3,x4,x5,y
0,-0.060085904411483725,0.9877308513722436,-0.18113819610222698,1.1717862983972869,0.4942083526944388,9.351713524471897
1,0.027849638538366583,-0.7573253458165979,-0.3607087962219356,-0.22165482656860153,-0.3135162368656971,-5.3259758288074455
2,-0.3029124895239506,-0.4501942695355924,-1.1910593249304424,-0.8177970884506434,-0.16122917486947075,-2.1588826502005105
3,-0.8890060225073289,-0.455495613597641,0.3533279505621065,-1.3448658313163373,-1.6157387768511111,-5.167850195719266
4,-0.05190832994632918,1.0592902289300423,0.4168554375954344,0.4108037515464379,0.4612120532476555,13.322010624357047
5,-1.1934003198098475,-1.0843156042841575,0.00284463555637543,-0.2251820504081645,-0.4764647338790526,-6.6135611750616565
6,0.12126298388135072,0.3964916732148207,0.3714473579050704,-0.1066847305751657,0.34557638692247816,2.502958880567878
7,-0.3676742337559202,-0.7502109930282502,0.4110285516363439,0.11437702873368967,-0.5159774520526373,-8.556795847037566
8,0.16276135903728814,-0.042746427711570736,0.2213442441707176,0.4422851744919524,0.1289733415254482,1.2164624404116025
9,-0.46711816477606155,-0.7013961299700151,-0.2653196533352645,-0.6041906910100003,-0.5385055764675235,-4.872352807962394
10,-0.7917664893660096,-1.0651712799961814,-0.4010420671486087,-0.21971678250121435,-0.4054961236118133,-7.353555576162876
11,-0.12995828691262626,-1.123937972989344,0.03587331051336429,0.06443712969913808,0.052594869667660006,-12.347820599350975
12,-0.5740531093797006,-1.0745020923018933,-0.5902654663813003,-0.4100885569389941,-0.3237718249323909,-4.578425885569528
13,-0.13275369284133587,-0.06775430179649422,-0.19326210441744426,-0.2433702847379093,-0.1829550606376517,-3.1366685923318145
14,-0.13940749974757072,-0.5474629618363821,-0.39577420128501295,-0.7909663230707968,-0.7593071824953566,-6.931394649484596
15,0.7366650929364692,1.6077873856482665,0.5383209485393535,0.6017962051439893,0.194645271682624,16.59456690130702
16,0.3233543214386292,0.5377274725874512,0.6666717254544794,0.5269278654846596,0.12687176709731404,8.799595486728757
17,-0.316535033753669,-0.40583975190701477,-0.5240643391670043,-0.41440044369672424,-0.23095163217153875,-0.15301853031711765
18,-0.01798965067971403,0.26097760681339377,0.12105648278048237,0.1703518700063354,0.13487648715284944,5.552031737255106
19,0.6127152059169212,1.1608645108404565,1.080798853891778,0.8640684937527761,0.340690833563177,14.39185837843663
20,0.21777569013290896,1.1299697817624523,-0.028920842305440262,0.1602020387771101,0.5243803308360525,11.769029630323221
21,-0.02057437525368377,0.29002895240629833,0.43022181070879656,0.4284561229505763,0.21986590616976606,-3.3884414946761434
22,0.41672968447973513,0.6879853744134325,0.4622681076694012,0.6923281841312224,0.45334400532468033,11.138250930782792
23,0.42704146855056024,0.5905889728001723,1.1637142547188368,0.8332581791918415,-0.21737368767552012,-1.1277056649181303
24,-0.1436768287336894,0.17190601415152917,0.5143304727061344,0.9641082473247168,0.44751334039965307,-1.7305352996361272
25,-0.9630993901829924,0.02567487990019629,0.027359856303165956,-0.31908653609001897,-0.36145185993203555,-0.1150341050891684
26,-0.2655139419607787,-0.32859593649286334,-0.2971230329541394,-0.35149868591523703,-0.3616940310977051,-1.6990497557238802
27,0.2058105397042057,1.5624811622261103,0.6873558121803048,0.02233062706400091,0.06832335876519549,13.888763581606307
28,0.5832574377174989,0.9092031148723425,0.4201622022878402,0.982831889080476,1.1651875618536545,4.277974774575732
29,0.4851691797857514,1.2540541840468131,0.2504452398788981,0.38942203764017547,0.5515877664939364,13.651329776943664
30,1.2106285260660634,1.3480824335831043,0.8999353701061199,1.1591431713688753,0.9067372063891233,0.7256090880461327
31,0.4499555133981899,0.3676254200226797,0.04807405552543298,0.2060369212656517,0.1939810315737536,3.4430873580134964
32,0.006817294745512571,-0.2133959002343256,-0.5003020669947758,0.282513394493761,-0.237142253906048,-3.9106824438976657
33,0.2945247738068493,0.6816136687180698,0.33548885318735977,0.4772094740196107,0.4706510938852828,8.446700583379828
34,0.19157244066096998,0.050464452261252235,0.6447981740404213,0.6853850515167192,-0.1979800062937626,1.6983981374041757
35,-0.26716147645397237,-0.3234997858543152,-0.11281134496274983,-0.3726531138811294,-0.5817610495745112,-5.1428478325062255
36,0.3041281897115764,0.0904829260248604,1.5404602302409411,1.0323826938054161,-0.18148808985634032,7.585122606639785
37,-0.4260001468177708,-1.1425467444976718,0.031008024365163426,0.3892333347577828,0.12081285571813505,-9.31949043566328
38,-0.02716486060075224,-0.03026945312821241,0.026068351223984012,0.09125837542237504,-0.03313449319391025,-0.7759768189325125
39,0.09426721188760097,0.4705906053859493,0.2358685038864567,0.5448766971687728,0.641188540104477,6.8400387838551975
40,0.0984757586740431,-0.20026965400269636,-0.626936996766526,-1.3006546021078118,-0.8253742433973091,5.060569782060268
41,-0.9283189850551803,-0.8136114508009586,-1.5154306081824376,-2.0086667916236083,-1.6464153452146209,-3.1591850862974047
42,0.5823535524768108,0.5316833004024748,-0.17162802620753892,-0.7860724260231824,-0.41184428712886945,3.776333940805887
43,-0.7951106849474942,-1.0407036734229351,-1.1948228603032045,-1.0287877410507493,-0.5647023085907633,-8.2655126135632
44,-0.2958958123503162,0.2320054146937629,0.24893861715787094,0.24174707870966503,0.4377288202215025,5.097359489184568
45,-0.03873547296582537,-0.4548279919567252,0.2217258618474004,0.6763943021706248,0.1693621120840207,1.1713538480899202
46,-0.199121393032516,0.925440202615672,0.6407589972686674,1.1985167085877375,1.024843498737268,15.903351643956993
47,0.4207633760855142,-0.6063751590211696,0.0321803071243144,0.5187431614540851,-0.1221172021974814,-4.052432653469953
48,-0.2919619672383849,-0.2999707156927727,0.10816324298569527,-0.21810680027620538,-0.5713140177694199,-3.727863350650369
49,1.0781724478245671,0.3914763817952277,0.603971197807636,0.8878762596359021,0.42813787796405933,0.2963436226169832
50,0.45807219331282956,0.8436418812361766,0.5118961041633994,0.6033148887197181,0.4533654075575013,4.323613970004757
51,-0.6988481069227577,-0.5689138790684221,-0.41326386366527673,-0.3647214898623361,-0.24901920928504875,2.1655393167556434
52,1.135545726256606,2.497379571950425,0.953575598930376,0.7297072849045688,0.5927266025689902,20.8073811152104
53,0.3888849780353042,0.5543024976007349,0.441380515447,0.7304430928921879,0.5501865804430722,7.693487433373987
54,0.16018003095446218,-0.5740773445695253,-0.6693137924106889,-0.4236718928840672,0.17269668715099984,-5.332207719462801
55,-0.10392231513658777,0.21505126574110134,0.675003186161343,1.135043527004319,0.43029781919822746,-0.5761047645005708
56,-0.4110729298592361,-1.0206454050520744,-0.8519468788684985,-0.017285143039652215,0.5734279168256777,-7.646949131581851
57,0.4303114457219385,-0.20358937461606702,1.0078956083977246,1.071575674644214,-1.1933039392610203,12.751221941520829
58,-0.7425985821653691,-0.9728346360421174,-0.9236119667248132,-0.3362013865872149,-0.2751088188147954,-2.4083513256712075
59,-0.09865272407521472,0.29992554617449163,0.0019518617542796171,0.6099372736336137,0.9402472451370414,4.494674373088344
60,-0.683386902849711,-0.9102376530766996,-1.0400899652086797,-1.3553355375811296,-0.8794331762099149,-2.0054175854032823
61,0.8247818916600147,0.7438055269267849,0.6098646138621917,0.7376140443140037,0.7056669506957117,9.781232370880387
62,-0.06880783137088894,-0.2549714732580012,-0.1012185483156931,0.2615032126783173,0.298427439944024,-2.6540960469011083
63,-0.31879237519452874,-0.41835099599789977,-0.5381956689593529,-0.3965372245360969,-0.2197197003940919,-9.552473129502175
64,0.8548231128855636,0.6376030675917966,0.5903317580672474,0.16525944500780526,-0.0825632167205187,5.560812914774868
65,-0.12285659976479296,-0.2625174221763321,0.6153630309164295,-0.1983882228394266,0.6327358484867707,-3.829118717938149
66,0.3055378703342789,0.5507742390022046,0.6732807056525922,1.036201425525605,0.5503684958438124,11.678129732681418
67,-0.6773329612504858,-0.9239099213232365,-0.34884114911133407,-1.0254662708129696,-1.462816555801861,-2.4626287415216708
68,-0.09535009433988247,-0.06088616007130415,-0.051720251462402556,-0.12217618450737505,-0.17138494055552825,-1.3880662398262509
69,-1.2699037225867775,-1.214508649995531,-1.2031972346046615,-0.6671281475293579,-0.1357135625424113,2.4597127210279397
70,-0.1612984775870948,-0.3802808316740104,-0.07563642331814519,0.0907799329737028,0.046227142887230094,-3.612803431650317
71,-0.08630016885674738,-0.38397042251016106,-1.2103720002950948,-0.8472150068802448,-0.2175649679181509,-3.93585908833815
72,-0.3670497434342044,0.5430632722220261,1.7643188088127826,-0.02873322173291865,-1.070027870164302,4.644917796206179
73,-1.042514104281462,-0.5413202189005801,-0.3788662327244858,-1.0933998828795766,-1.2820795234785392,-0.18053007896247286
74,-0.4778177437297258,-0.9922527589625592,-0.7205877958372624,-0.3884954206165355,-0.8247444941657922,7.108332724900239
75,0.15307552472570998,1.1455409382803918,0.5415283619248936,0.43315697866736963,0.3490313325674057,12.0704735952627
76,0.3429353099556245,0.5970719613681779,0.3828521904686128,0.38218553868910915,0.2127590680672398,4.529613751337995
77,0.41040698599592584,0.7420238094516103,0.7304178489422141,0.555924851377037,0.14636026933208218,7.90054232194105
78,0.08299005184981678,-0.029211753803155632,-0.1830406560302611,-1.0196333994703526,-0.8248569790407153,-6.547767295141068
79,0.4429957504903856,0.05464713416508954,-0.10417399773104027,-0.3193216832441474,-0.5584827114232427,5.383287150921001
80,0.1526292984925246,0.07222442420048625,0.16946331312329244,-0.0905221630652669,-0.4026891938804723,-0.8789013940165302
81,0.014367980501903882,0.3294943160793017,-0.01907960370361092,-0.3890571701688236,0.4062605815378739,3.9872743136701674
82,-0.10256808148561866,-0.09738961942682992,-0.4824480846637446,-0.06403722419960448,0.31830865401153663,9.709090505477228
83,-0.18919619749611252,-0.1699360328954722,-0.14770702109847625,-0.2559455238523629,-0.2622125670562232,5.002266847349433
84,0.09957265800256095,0.28490400821670225,0.22330536914329224,0.07050718037491432,0.06431653229515423,3.896949804433773
85,-0.41778327780595403,-0.7852674641998415,-0.6952083097112592,-0.19828093150413567,-0.1417990076433977,-6.189645278873504
86,-1.750263950093636,-0.9496612643019064,-1.4586967839873788,-1.5156812206740413,-0.7649483381597902,-1.862196268722692
87,1.0860517825153688,1.2275541828479548,1.0599199262568633,0.6382853571359983,0.2266587491031324,12.212539643141694
88,-0.16011241086942113,0.09378079338551182,0.14521484467764753,-0.4649337257444522,-0.8674204119056056,-0.6527486263587636
89,0.7340779448827225,0.9245311186974092,0.8511520325054673,1.1542363605199095,0.6768943639112451,-1.431057827895503
90,0.5974191069850355,1.1392276551909917,0.029119806940374308,0.7754167232705131,0.9181058562639168,10.10677533651568
91,-0.22201343114789912,-0.42284315375814285,0.4838046004823501,-0.04486833922742967,-1.2280990142655623,-0.011021743877286385
92,0.7990831638936021,0.6861524967468967,0.3262951366498,0.13145252119841838,0.4836805630073053,7.3503231499819055
93,0.3029412586102263,0.2633869628039537,0.07759902782960676,0.2328794645755529,0.3180574056569718,4.5105169989452545
94,1.5459950523458716,1.5577993703092403,0.9088623911781746,1.2355266622450263,1.004451817596777,8.109807503619871
95,-0.21273586466056993,-0.644604692996097,-0.13558389459843007,0.3622190373217573,-0.21409084711653806,-7.151255298076233
96,-0.3851835543866462,-0.26603399944505435,0.19909507117783423,-0.8874306599760744,-1.7692690955298132,-1.9817283761768685
97,0.6970735041088439,-0.8957291299197824,-0.3513700306237837,-0.1559430077593532,-0.3013253069551135,-2.222369631131212
98,-0.10186384446371609,-0.1572239413695367,0.414379981012317,-0.05739736168759513,-0.4608274955349856,-3.1740729281114834
99,-0.15771528536194934,0.16831917860225748,-0.9256546198020508,-0.7140290956953309,0.6816778579727436,3.4195299155164434
