,x1,x2,x3,x4,x5,y
0,-0.060085904411483725,0.9877308513722436,0.23086585282985383,1.1717862983972869,0.4942083526944388,9.351713524471897
1,0.19242246695665788,0.06032208252958557,-0.3607087962219356,-0.6469801193835354,0.1888121780501762,-5.3259758288074455
2,-0.3029124895239506,-0.039273990491931254,0.055371813174783145,-0.3555170893611284,0.1841194903015001,-2.1588826502005105
3,0.031335770293215603,0.060322082529585555,0.3533279505621065,-0.027136209360106668,0.14331323205249952,-5.167850195719266
4,0.2164709649181779,0.03127421048271675,0.13771853271008067,0.4481729084379193,0.4612120532476555,13.322010624357047
5,0.05901519735506296,-1.0843156042841575,0.00284463555637543,0.18295730151605016,0.1256684563056296,-6.6135611750616565
6,1.0631822021482171,0.060322082529585555,0.3714473579050704,-0.010210596741279478,0.34557638692247816,2.502958880567878
7,-0.3676742337559202,-0.7502109930282502,0.4110285516363439,-0.7274138986076542,0.12566845630562962,-8.556795847037566
8,0.16276135903728814,-0.042746427711570736,0.2213442441707176,0.4422851744919524,0.2720838647428139,1.2164624404116025
9,0.9321713035095952,0.06032208252958557,-0.2653196533352645,-0.007395982937561892,0.2599407719133001,-4.872352807962394
10,0.057902759283934416,-1.0651712799961814,-0.4760957755030535,-0.21971678250121435,0.1256684563056296,-7.353555576162876
11,0.06212961254216648,-1.123937972989344,0.038764303237762684,0.06443712969913808,0.12566845630562962,-12.347820599350975
12,1.2248727589521404,0.060322082529585555,0.07666433072608289,-0.014059938496536287,-0.3237718249323909,-4.578425885569528
13,0.04330064138000924,0.06032208252958557,0.05537181317478315,-0.2433702847379093,0.12566845630562962,-3.1366685923318145
14,-0.13940749974757072,-0.5474629618363821,-0.39577420128501295,-0.7909663230707968,-0.7593071824953566,-6.931394649484596
15,0.3421513668789569,1.6077873856482665,0.5383209485393535,0.6017962051439893,0.194645271682624,16.59456690130702
16,0.06983999149494158,0.7739909022940724,0.14936018283897756,0.04490989692004236,0.12566845630562962,8.799595486728757
17,-0.21146288670697128,-0.18813779747750145,0.05537181317478314,-0.3835020313745069,0.14314023042905474,-0.15301853031711765
18,0.04330064138000924,0.060322082529585555,0.05537181317478314,-0.027136209360106675,0.13487648715284944,5.552031737255106
19,0.14165887970185345,0.06032208252958557,1.080798853891778,0.170486497277776,0.181045965992657,14.39185837843663
20,0.21777569013290896,1.1299697817624523,0.05537181317478316,0.057907963774742575,0.12566845630562962,11.769029630323221
21,-0.02057437525368377,0.06032208252958557,0.43022181070879656,0.08115204505884001,0.21986590616976606,-3.3884414946761434
22,0.043300641380009226,0.06032208252958556,0.18689656922170117,0.6923281841312224,1.6696099533871096,11.138250930782792
23,0.15505736728589972,-0.7060423434527745,1.1637142547188368,0.14345418396900458,0.13387098759459254,-1.1277056649181303
24,0.3205717575119996,0.19341191792969334,0.17517839033436494,0.9641082473247168,0.14166342588453973,-1.7305352996361272
25,0.04330064138000923,0.02567487990019629,0.05537181317478314,-0.027136209360106668,0.12566845630562962,-0.1150341050891684
26,-1.3663509639528573,-0.19795335358661806,0.11281622911455508,-0.02713620936010667,-0.3616940310977051,-1.6990497557238802
27,0.24475720668871415,1.5624811622261103,0.05537181317478315,0.02233062706400091,0.8755313696575404,13.888763581606307
28,0.04330064138000922,0.060322082529585555,0.5717435593911024,0.8106080141689458,1.1651875618536545,4.277974774575732
29,0.4851691797857514,1.2540541840468131,0.05537181317478315,-0.009856066178387404,0.12566845630562962,13.651329776943664
30,1.2106285260660634,0.06032208252958555,0.034854013745314605,0.025869225121437,0.29750288999790653,0.7256090880461327
31,-0.017571164088228956,0.34373664392237113,0.04807405552543298,0.10743956690541956,0.04408588622882903,3.4430873580134964
32,0.04330064138000923,0.06032208252958556,0.05537181317478314,-0.027136209360106675,0.12566845630562964,-3.9106824438976657
33,0.2945247738068493,0.0323033672431465,0.3121088447256407,0.4772094740196107,0.16547083273418725,8.446700583379828
34,0.04330064138000924,0.06032208252958557,0.05537181317478314,-0.027136209360106675,0.12566845630562962,1.6983981374041757
35,-0.4480383304022792,0.060322082529585576,0.11694642774479053,-0.23482536687850608,0.10317312443293469,-5.1428478325062255
36,0.07598188009605064,0.0904829260248604,0.05537181317478314,-0.02713620936010668,0.4234404378795182,7.585122606639785
37,0.060651672833108364,-1.1425467444976718,0.031008024365163426,0.3892333347577828,0.12566845630562962,-9.31949043566328
38,0.04330064138000925,0.060322082529585555,0.026068351223984012,0.09125837542237504,0.12566845630562962,-0.7759768189325125
39,0.09426721188760097,0.4705906053859493,0.2358685038864567,0.03169321899251937,0.10122477194306215,6.8400387838551975
40,0.2273480142083995,0.2128986537806496,-0.17525025453799056,-1.3006546021078118,0.37096483797639557,5.060569782060268
41,-1.1490168815728254,0.060322082529585555,-1.5154306081824376,-0.6883544888434775,-1.6464153452146209,-3.1591850862974047
42,0.5823535524768108,0.09731819902847283,-0.2237612884152576,-0.7860724260231824,0.3012550089039285,3.776333940805887
43,-0.7951106849474942,-1.2083336751011422,0.1419858677434626,-0.40255669919448295,0.12566845630562962,-8.2655126135632
44,0.06397924026662122,0.3656568147847881,0.09876065924852015,0.24174707870966503,0.10817379818936806,5.097359489184568
45,0.4532754712337244,0.019865085147847062,0.2022577275731819,0.6763943021706248,0.18314020768662523,1.1713538480899202
46,0.1115828834106848,0.925440202615672,0.05537181317478315,0.0693342936436811,0.12566845630562962,15.903351643956993
47,0.05633548692403761,-0.6063751590211696,0.032939088804828674,-0.027136209360106675,-0.1221172021974814,-4.052432653469953
48,0.04330064138000923,-0.2999707156927727,0.039302011659449465,-0.053860624849750655,0.20243255813533326,-3.727863350650369
49,0.2113767741646878,0.08214289989825682,0.05537181317478314,0.8878762596359021,0.23752873469450525,0.2963436226169832
50,1.1399030603590778,0.06032208252958554,0.0015415481577866208,-0.012049978696990794,0.4533654075575013,4.323613970004757
51,-0.6988481069227577,0.060322082529585576,0.10345314694917422,-0.027136209360106675,-0.24901920928504875,2.1655393167556434
52,0.30482197162272096,2.497379571950425,0.953575598930376,0.17550700088862362,0.5927266025689902,20.8073811152104
53,0.3888849780353042,0.5543024976007349,0.4453321730817261,-0.007317912133191118,0.5501865804430722,7.693487433373987
54,0.054725589524218486,-0.5740773445695253,0.036660021038179995,-0.06444418667685042,0.12566845630562962,-5.332207719462801
55,0.04330064138000923,-0.3934158712423522,-0.003177410965650607,-0.05366300471887085,0.12566845630562962,-0.5761047645005708
56,-0.4110729298592361,0.144249896429933,0.12244260071575304,-0.02713620936010667,0.10116518275315414,-7.646949131581851
57,0.14540625192580384,0.06032208252958557,1.0078956083977246,0.17477437960005862,0.1798684068805117,12.751221941520829
58,0.04330064138000922,-0.5372679136959597,-0.9236119667248132,-0.1373546724880885,0.04486657352485734,-2.4083513256712075
59,-0.09865272407521472,0.21487882100451308,0.031584690005971985,-0.02713620936010668,0.12566845630562962,4.494674373088344
60,-0.006896290004704927,-0.10665977159255997,-1.0400899652086797,-1.3553355375811296,-1.2568436008708943,-2.0054175854032823
61,0.8247818916600147,0.23954849624094662,0.6098646138621917,-0.027136209360106675,0.7056669506957117,9.781232370880387
62,0.043300641380009226,-0.2549714732580012,0.03413763656982236,-0.06083692924514948,0.298427439944024,-2.6540960469011083
63,0.0008906143720852425,-0.8898787795033338,-0.08653678723163166,-0.3965372245360969,-0.6485230310652297,-9.552473129502175
64,0.8548231128855636,0.6376030675917966,0.345961374656843,-0.027136209360106675,1.1452871051678608,5.560812914774868
65,0.3921121217949883,-0.2625174221763321,0.035346686214077425,-0.0594331872617153,0.12566845630562964,-3.829118717938149
66,0.3055378703342789,0.06032208252958557,1.1669479839198358,0.2816493715473386,1.5442365854625597,11.678129732681418
67,-1.1758632961862074,-0.02586783077200198,-0.3583337549956928,-0.027136209360106675,-1.462816555801861,-2.4626287415216708
68,0.04330064138000923,-0.3610492295381653,0.04035326952568521,-0.12217618450737505,0.21103752901439596,-1.3880662398262509
69,0.04330064138000923,0.06032208252958556,0.055371813174783124,-0.02713620936010667,0.12566845630562962,2.4597127210279397
70,0.04330064138000923,0.06032208252958556,0.05537181317478314,-0.027136209360106675,0.046227142887230094,-3.612803431650317
71,0.04330064138000924,0.06032208252958557,0.055371813174783145,-0.027136209360106675,0.12566845630562964,-3.93585908833815
72,0.04330064138000925,0.06032208252958557,0.055371813174783145,-0.02873322173291865,0.12566845630562962,4.644917796206179
73,0.2565753867369007,0.06032208252958557,-0.984295515161958,-0.8828645598768301,0.10748669125072793,-0.18053007896247286
74,-0.4778177437297258,-0.03868152469255252,0.05537181317478316,-0.3884954206165355,0.13764623835368342,7.108332724900239
75,0.15307552472570998,-0.06169890094818889,0.10484358221869804,0.07209320529987838,0.6458692120735471,12.0704735952627
76,0.3429353099556245,0.5970719613681779,0.36267355913804383,-0.012005997775801993,0.2785761760204887,4.529613751337995
77,0.3252196241219295,0.023592710264257,0.7304178489422141,0.40319735457577305,0.14636026933208218,7.90054232194105
78,0.08299005184981678,-0.7404649661709126,0.03254674408002725,-0.027136209360106675,0.03816343726682263,-6.547767295141068
79,0.4429957504903856,0.06032208252958557,-0.10417399773104027,-0.027136209360106668,-0.5584827114232427,5.383287150921001
80,0.04330064138000923,0.07901186985369157,-0.08917906310879857,-0.027136209360106675,0.12566845630562962,-0.8789013940165302
81,-0.0011810809136969282,0.3294943160793017,-0.01907960370361092,0.009606518379426717,0.10339426815821065,3.9872743136701674
82,-0.10951181866299443,-0.031239750972621397,0.05537181317478315,-0.442745656439822,0.14290456503997848,9.709090505477228
83,0.04330064138000923,0.060322082529585555,0.05537181317478313,-0.02713620936010667,0.12566845630562962,5.002266847349433
84,-0.5948019417600449,0.06032208252958557,0.22330536914329224,-0.027136209360106668,0.06431653229515423,3.896949804433773
85,0.043300641380009226,-0.14474506358074773,-0.6952083097112592,-0.19828093150413567,-0.1417990076433977,-6.189645278873504
86,-1.750263950093636,-0.062428876349755615,-1.4586967839873788,-0.027136209360106675,-1.2322647771652993,-1.862196268722692
87,1.0860517825153688,0.29478650487268676,1.0599199262568633,-0.02713620936010667,1.6622220379474948,12.212539643141694
88,0.18601415733895799,0.04115595697325983,-0.0015949675335688966,-0.02713620936010667,-0.8674204119056056,-0.6527486263587636
89,0.04330064138000923,0.060322082529585555,0.05537181317478314,-0.027136209360106675,-0.28230531267104336,-1.431057827895503
90,0.043300641380009226,0.06032208252958557,0.029119806940374308,0.7754167232705131,0.9181058562639168,10.10677533651568
91,0.19425496985477944,-0.016778949830464546,-0.00488444264945407,-0.027136209360106675,-1.2280990142655623,-0.011021743877286385
92,0.0633068232187084,0.6861524967468967,0.12622314925052125,0.13145252119841838,0.12566845630562962,7.3503231499819055
93,0.08129048656087612,0.027545142763348174,0.18500510198153552,0.2328794645755529,0.3180574056569718,4.5105169989452545
94,0.04330064138000923,0.06032208252958557,0.05537181317478314,-0.02713620936010667,0.12566845630562962,8.109807503619871
95,0.3576548066062809,0.02493172855840437,0.19117215053657088,0.3622190373217573,0.17594271678832277,-7.151255298076233
96,-2.3311771616938266,-0.016594794024984757,-0.8174807678282539,-0.8874306599760744,-0.6056875910875472,-1.9817283761768685
97,0.6970735041088439,-0.06870530943475492,-0.3513700306237837,-0.027136209360106668,0.26795094210256987,-2.222369631131212
98,0.04330064138000925,0.06032208252958557,0.05537181317478314,-0.05739736168759513,0.12566845630562964,-3.1740729281114834
99,0.03290114518224102,0.16831917860225748,-0.08742049697296227,-0.7140290956953309,0.6816778579727436,3.4195299155164434
