,x1,x2,x3,x4,x5,y
0,0.12837806960027967,1.062062334714912,0.052099298886173304,-0.3412820914839483,0.015256966077697748,9.328029743758144
1,0.3773105206100507,0.0005172297587434926,-0.033929269807371404,-0.006291346929216957,0.015217571356517412,4.194410412608852
2,-0.2372444008247463,0.005726216233588363,0.01855679063075013,-0.05418866968009989,0.015230775300650978,-11.906397704517758
3,-0.15889634495213315,0.004907002467363211,0.12117887047600183,-0.05219012369024297,-0.3791554330489504,-7.03138200279667
4,-0.23724440082474646,0.005726216233588391,0.01855679063075013,-0.05418866968009992,0.015230775300650978,3.121125250054352
5,-0.20972959936816432,0.005719093523277166,-0.1426640332764053,-0.045863579203989244,0.5890777319275751,9.82388761682944
6,-0.23724440082474635,0.0057262162335883215,0.01855679063075011,-0.05418866968009991,0.015230775300650923,1.5651810599855935
7,-1.2709897727902817,0.008972599961271324,-0.5876748239588352,-0.8976172983962745,0.015268909230954447,-5.745203858767053
8,0.08829936191602067,0.010061382258022458,0.8841809440105025,0.9524960618273351,0.015109107715263831,8.384392602737398
9,-0.2272631805121681,0.005654774107242258,0.019360978112524865,-0.051591077287585836,0.015230583643851464,9.560045045172169
10,0.14780335451751708,0.8394434109640625,-0.058093280761789774,-0.37806209708157457,0.015223576049432003,9.357024034696167
11,0.35592667943860545,0.10620354150705548,0.5807417394946955,0.6286574060272331,0.015904078878661562,10.706031921191528
12,-0.36853887296222626,-0.0006887602740785898,1.3034221640446708,1.3410183314693953,0.015251082066115751,12.553082655224314
13,-0.3953045822748173,0.007858487750126888,-0.08800090270355496,0.011927997596589024,0.6831734607031371,10.920210427634084
14,-0.23724440082474624,0.005726216233588363,0.018556790630750164,-0.05418866968009987,0.015230775300650895,4.122491039583618
15,-0.23724440082474635,0.005726216233588363,0.01855679063075011,-0.0541886696800999,0.015230775300651006,-4.356628397728817
16,-0.08837147185161082,0.0023389410818903805,0.2565903839196265,0.2344367065499676,0.015528479278733742,0.18407645835494654
17,-0.7608986164974672,-1.1431136198868437,-0.08089656437934327,-0.060974386487400986,-0.7079508456467758,-6.9448001746213865
18,-0.3579599108985921,0.007503597467116652,0.12388622776033781,0.04075888171597958,0.015186629603018226,3.093934758290237
19,-0.3205982451075588,0.001799854010314586,0.8343211119252559,0.8315792247623168,0.015243668331900356,5.3555702324614725
20,-0.23724440082474624,0.005726216233588391,0.018556790630750143,-0.0541886696800999,0.015230775300650867,6.131055557223891
21,-0.2372444008247463,0.005726216233588419,0.018556790630750164,-0.05418866968009986,0.015230775300651006,0.18671415140430914
22,-0.23724440082474624,0.005726216233588377,0.018556790630750136,-0.05418866968009988,0.01523077530065095,6.351966206665902
23,-0.1306097924975404,0.4100490160376997,0.7649779026346615,0.638197936783935,0.015239796375071418,3.678783962594632
24,-0.6278808269125797,0.005956515634231177,-0.3359797262992706,-0.5107073842228831,0.015233518889646941,-3.699988822463313
25,0.8284636354595571,-0.0028066803696324832,-0.39921861449401685,0.04478644629993149,1.205656724341836,8.182698879559515
26,-0.282244171720111,-0.09989586394321064,-0.009293370640605078,-0.05388540351022242,0.015230892216954076,-0.9549560587717976
27,-0.2372444008247464,0.005726216233588335,0.01855679063075013,-0.05418866968009991,0.015230775300650923,6.742768041914013
28,-0.23724440082474635,0.005726216233588335,0.01855679063075013,-0.054188669680099895,0.01523077530065095,0.9257202971802256
29,-0.23724440082474635,0.005726216233588335,0.018556790630750164,-0.054188669680099874,0.015230775300650895,-9.983877055504141
30,-0.5890460101008994,0.006179101717814564,-0.26981660582842915,-0.4313652875383596,0.015226772703084285,-14.095093549044677
31,-0.2595191908764701,0.00573036333330805,0.14907172488509085,-0.060929136753245704,-0.44932679618368493,-7.869487785113307
32,-0.23253389488735837,0.005724255246251933,-0.009045173569127901,-0.052763805056562564,0.11347463878774795,-7.554528791074761
33,-0.5642596577406722,0.008518501629355149,0.049065587800812036,-0.07684167869786007,0.015237836845544056,-3.492875854340354
34,-0.2372444008247463,0.005726216233588391,0.018556790630750164,-0.05418866968009989,0.015230775300650895,-1.5297134037359963
35,-0.23724440082474635,0.005726216233588335,0.018556790630750143,-0.054188669680099874,0.01523077530065095,-1.7650061401741286
36,-0.5071226213156044,-0.5035612500811575,0.40401450953552653,0.5107418877663638,0.015240344427438407,-2.5983034787563155
37,-0.4447621427023807,0.007503036051039247,0.038532459763020055,-0.06788792301897154,0.015235264891126449,1.0793530620610767
38,-0.2618769297744205,0.005730897004476668,0.16288659510401554,-0.0616425519466054,-0.4984994580507284,8.178645979229827
39,-0.23724440082474635,0.005726216233588335,0.018556790630750136,-0.05418866968009988,0.01523077530065095,2.8662952641714496
40,-0.23724440082474635,0.005726216233588363,0.018556790630750157,-0.05418866968009988,0.015230775300650923,-3.45458816164246
41,-0.9524994143832928,-1.6747898717658125,-0.42411139902523753,-0.04874978289109559,0.01523517256281412,-14.481980987742787
42,-0.2645331996085189,0.005731498247738734,0.1784506692499726,-0.06244629796740349,-0.5538982379975959,-0.3815112295290976
43,-0.1424864651047752,0.011045697040938954,-0.9085101177251548,-1.0611182670955541,0.01521612439981597,-8.334626895328164
44,-0.2372444008247463,0.0057262162335883215,0.018556790630750122,-0.054188669680099916,0.015230775300650867,8.710337598526252
45,-0.2191583952228206,0.00572122771909768,-0.08741720710492965,-0.048716586474491175,0.3924321276253471,3.5334428011975305
46,-0.2358664429240404,0.009077557714988305,0.019409602190613655,-0.05424075831405355,0.015230596042143607,-1.0018176549842477
47,0.0007030251061890258,0.00371756365771507,-0.0007331404245704276,-0.034509937922503814,0.015225677109272681,-0.34523641498606633
48,-0.2372444008247463,0.005726216233588391,0.018556790630750143,-0.05418866968009989,0.01523077530065095,-4.007706549740089
49,-0.2372444008247464,0.005726216233588335,0.018556790630750136,-0.0541886696800999,0.015230775300650923,0.3726875240632874
50,-0.2372444008247464,0.005726216233588335,0.01855679063075017,-0.05418866968009987,0.015230775300650923,-12.697463225451633
51,-0.2372444008247464,0.005726216233588363,0.018556790630750136,-0.054188669680099916,0.015230775300650923,-1.2182452657541585
52,-0.2372444008247463,0.005726216233588363,0.018556790630750136,-0.0541886696800999,0.015230775300650895,-7.713854972416586
53,-0.2372444008247464,0.005726216233588335,0.018556790630750136,-0.0541886696800999,0.015230775300650923,-0.06955244225453883
54,-0.23724440082474635,0.005726216233588363,0.01855679063075017,-0.05418866968009987,0.015230775300650923,-3.6795011932717614
55,-0.23724440082474635,0.005726216233588363,0.018556790630750164,-0.05418866968009989,0.015230775300650895,9.636771292824816
56,-0.24561240841552773,0.005468115841638296,0.11596993503218105,0.07760750735527089,0.09702987502235194,-2.8205855039425183
57,-0.07933676671740142,0.3768742318965115,0.11628513189139722,-0.05544011787361168,0.01522959642123975,4.047583025746946
58,-0.23724440082474646,0.005726216233588335,0.018556790630750164,-0.05418866968009989,0.015230775300650895,-2.2165056521299538
59,-0.35342341314534736,-0.2671452245846107,-0.053345890800851184,-0.05334001489309681,0.01523134677777202,-0.7977827638057302
60,-0.3119030377304252,0.0018878123576469147,0.7738920925775631,0.8078445657832334,0.14626950947953388,-5.120649489057887
61,-0.23724440082474635,0.005726216233588363,0.018556790630750157,-0.05418866968009988,0.015230775300650923,1.5789099889001816
62,-0.16717493119494548,0.0097641103759072,-0.6669324426637809,-0.7987672993720567,0.015219942324903618,-2.442055166320458
63,-0.26779922217763347,-0.0659546680678065,-0.0003534547579371605,-0.05399608340646286,0.01523079996943992,-3.848661904204611
64,-0.23724440082474635,0.005726216233588335,0.01855679063075013,-0.054188669680099916,0.015230775300650895,-6.193625323181088
65,-0.027058227032905,0.003953473132059904,0.0017138796927667344,-0.036590043679630424,0.015226274616886581,-2.0716103272069466
66,-0.21372091615133132,0.005719996952700104,-0.11927742188784297,-0.04707128970878607,0.5058354056659508,13.219655834683227
67,-0.8425752023637716,-0.09718959849225124,0.03960507043918632,-0.09566126341764844,0.015243141594763393,-1.8631666046207795
68,-0.2372444008247464,0.005726216233588308,0.01855679063075013,-0.05418866968009991,0.015230775300650895,0.8599136625690176
69,-0.09249054835984988,0.013641002070109667,-1.3977222577458617,-1.5923978165154615,0.015208392827344555,0.10026504749637988
70,0.5728935536715873,-0.0011447950767767834,-0.05116896829479792,0.008363373651439722,0.015213361807509429,-4.327923812060175
71,-0.12949262021071845,0.2590233773325164,0.08524389426470154,-0.055055814374027345,0.01522991672369492,1.8604028117099911
72,-0.2372444008247464,0.005726216233588335,0.018556790630750143,-0.054188669680099916,0.015230775300650867,2.690215556046242
73,-0.4897396533506026,0.006748287176604598,-0.10062774427020728,-0.22847583921475995,0.015209521708628077,1.6884045141847228
74,-0.23724440082474635,0.005726216233588363,0.018556790630750143,-0.054188669680099895,0.015230775300650923,-4.965030652548112
75,-0.17857789377272953,0.005712042374762541,-0.3251934771741731,-0.03643755663203797,1.238773203787246,7.109634708600549
76,4.276036518546347,-0.0547152729988699,-0.7144308323728179,-0.07709349436788887,0.01505136607400856,-4.391129899481268
77,-0.22667896951260966,0.005649809600990083,0.01930948273826992,-0.051547303301546936,0.015230571069832138,-4.4983032105133285
78,0.8259736551953273,0.025062429139270273,0.5136442540925239,0.6635737193739483,0.015216045306100906,9.748348377244811
79,-0.647924791080069,0.0019521563474940856,0.2723648244284727,0.15734793391548707,0.015242588781024607,-6.296910764795985
80,-0.3909855748853566,-0.3554047706198679,-0.07659294786666997,-0.05305220660745853,0.015231586655110235,-2.5039858037920566
81,-0.22724470277120296,0.006645868118877421,-0.07914721105567674,-0.16043834663754014,0.015229231759373463,-1.683019292890933
82,-0.23724440082474635,0.005726216233588363,0.018556790630750143,-0.054188669680099895,0.015230775300650923,9.802134082371495
83,0.03683466340058239,0.6498414204052261,0.1881831201931191,-0.056330245028002504,0.015228854533868769,8.070036320817513
84,-0.23724440082474624,0.005726216233588391,0.018556790630750164,-0.05418866968009987,0.015230775300650923,-6.2815471533314815
85,-0.2372444008247464,0.005726216233588349,0.018556790630750122,-0.05418866968009992,0.015230775300650923,-6.1211144941092055
86,-0.23724440082474635,0.0057262162335883215,0.01855679063075015,-0.05418866968009989,0.015230775300650895,18.363067762893067
87,-0.23724440082474646,0.005726216233588335,0.018556790630750157,-0.054188669680099874,0.01523077530065095,-0.08277730780901171
88,-0.2372444008247464,0.005726216233588335,0.018556790630750143,-0.054188669680099916,0.015230775300650867,10.265187613523509
89,-0.039832804667135735,0.00406202889458708,0.002839896930923947,-0.03754722213644805,0.01522654956512609,1.5595925741851993
90,-0.23724440082474635,0.0057262162335883215,0.01855679063075015,-0.05418866968009989,0.015230775300650895,18.392945100284212
91,-0.385220724100602,0.0073473490760051635,0.07744180968147582,-0.014936760863234918,0.015191365212628788,8.849718745644056
92,0.5946064430658831,0.9647810924939464,1.2757424183219557,1.120565853243336,0.01513008061684748,12.653637418071543
93,-0.23724440082474635,0.005726216233588363,0.01855679063075017,-0.05418866968009987,0.015230775300650923,-3.8026697402147205
94,-0.2372444008247464,0.005726216233588363,0.018556790630750192,-0.05418866968009986,0.015230775300650895,8.952489215610969
95,-0.23724440082474635,0.005726216233588363,0.018556790630750143,-0.054188669680099895,0.015230775300650923,-2.6353272399255903
96,-0.23724440082474635,0.005726216233588363,0.018556790630750143,-0.054188669680099895,0.015230775300650923,-5.8704033178901875
97,0.0654926067650668,0.7171787874385879,0.20591939558095318,-0.056549827532511796,0.015228671520142817,7.5092660714855795
98,-0.23724440082474635,0.005726216233588363,0.018556790630750143,-0.054188669680099895,0.015230775300650923,4.264061014253602
99,-0.23724440082474635,0.0057262162335883215,0.01855679063075015,-0.05418866968009989,0.015230775300650895,10.88245896329355
100,-0.3086574918963711,0.0024197025675323364,0.717480341473802,0.704691302731813,0.015241821765123842,6.062705691095682
101,-0.23724440082474646,0.005726216233588335,0.018556790630750157,-0.05418866968009988,0.015230775300650923,1.363756781026176
102,-0.23724440082474624,0.005726216233588391,0.018556790630750164,-0.05418866968009987,0.015230775300650923,7.819770587610412
103,-0.5564997286154263,0.006365644359851,-0.214367302353058,-0.3648710840285471,0.015221118928845895,1.7721975271870798
104,-0.2372444008247464,0.005726216233588308,0.018556790630750136,-0.054188669680099916,0.015230775300650867,-2.658900654128216
105,-0.2372444008247463,0.005726216233588391,0.018556790630750143,-0.05418866968009989,0.01523077530065095,2.80412574887489
106,-0.2372444008247463,0.005726216233588391,0.018556790630750143,-0.05418866968009989,0.01523077530065095,2.0536728635072747
107,-0.23724440082474646,0.005726216233588335,0.018556790630750157,-0.05418866968009988,0.015230775300650923,5.419113296549021
108,-0.23724440082474635,0.005726216233588363,0.018556790630750143,-0.054188669680099895,0.015230775300650923,-8.149834544556358
109,-0.3247129414556097,0.006109817853219859,0.2685614903540341,-0.07165881123542728,-0.86468044094085,-8.071404320665156
110,-0.7254750719404577,0.005158804692321453,-0.4420127531791616,-0.7293832321983447,-0.2561529321320101,-6.497084742166558
111,-0.33659073979782683,-0.016343848499848698,-0.22861105495375356,-0.33511712649067305,0.01522934622507624,2.284611512790152
112,-0.22470468855347014,0.005722483115462987,-0.054919409055447954,-0.05039480874598778,0.2767594351145225,-0.08585506274015088
113,-0.5521807557614892,0.002642613422167997,-0.6789529795000583,-0.8744211301681823,0.015263050313298526,-5.201538155827952
114,-0.2372444008247464,0.005726216233588391,0.018556790630750136,-0.05418866968009991,0.01523077530065095,18.202426705569
115,-1.3446558605824883,0.01496633758990025,0.2307868266716721,-0.14131188292585634,-0.3977657611829075,-1.7783507666488192
116,-0.2372444008247463,0.005726216233588349,0.018556790630750136,-0.05418866968009988,0.015230775300650923,-3.3144716478206875
117,-0.2372444008247463,0.005726216233588363,0.018556790630750143,-0.054188669680099874,0.01523077530065095,-6.4015908760589735
118,-0.8633194258707341,0.01040284124296438,0.11822594856378671,-0.17681849131739938,-0.3803818070963089,-5.77385064233536
119,-0.2025255630276776,0.007929047063679265,-0.3210250291002548,-0.42311526667463206,0.015225409090787193,0.029837910010100468
120,-0.23724440082474635,0.0057262162335883215,0.018556790630750122,-0.05418866968009991,0.015230775300650895,-7.394449856195243
121,-0.23724440082474646,0.005726216233588363,0.018556790630750164,-0.05418866968009988,0.015230775300650923,-0.09606906559370088
122,-0.23724440082474646,0.005726216233588335,0.018556790630750157,-0.05418866968009988,0.015230775300650923,2.8475164080292736
123,-0.35961209843378955,0.007494127769999484,0.12107138551550946,0.03738335341635418,0.015186916612621115,-3.2308154112348446
124,-0.23724440082474624,0.005726216233588363,0.018556790630750164,-0.05418866968009987,0.015230775300650895,-4.257593028949861
125,-0.2372444008247463,0.005726216233588363,0.01855679063075013,-0.05418866968009989,0.015230775300650978,-3.806343745013407
126,-0.4590443584459424,-0.028171531151172755,-0.484593235103335,-0.6333965111908403,0.015228287479070401,-6.0675488609000565
127,-0.2372444008247463,0.005726216233588363,0.018556790630750136,-0.0541886696800999,0.015230775300650895,6.697757214477607
128,-0.8327288655988558,-1.3933658595570442,-0.34998593197496,-0.04966748716366136,0.015234407690956048,-14.244399555677187
129,-0.23724440082474635,0.005726216233588335,0.018556790630750136,-0.05418866968009989,0.01523077530065095,-2.3728442980995204
130,-0.6865180832143982,0.005620429660256457,-0.4358803868737787,-0.6305071731951032,0.015243705055130369,-1.0899052145001449
131,-1.2190005901340313,0.011978409619760835,-0.15811436182241367,-0.416867421179123,0.01522903983579324,-3.47396422114247
132,-0.21734851467427546,0.008309527366169092,0.36344674360045925,0.32803725483862944,0.015162203307500982,-2.195292935065076
133,-0.23724440082474646,0.005726216233588363,0.018556790630750164,-0.05418866968009988,0.015230775300650923,5.080429273043171
134,-0.2024478118080661,0.007933083155912804,-0.3217858280416834,-0.42394148680642235,0.015225397067021584,1.0157025782604303
135,-1.1719455030522374,0.013682492346199074,0.10263015618007477,-0.12237459699072233,0.01525091611580262,-0.932410005858739
136,-0.5586446050293388,0.00847078605345418,0.04857064805977662,-0.07642095187282735,0.015237715992322792,-8.308475575830858
137,0.5801673271916628,-0.033988718636117174,-0.8410310695166687,-0.8482986643471687,0.015202287717445001,1.8117363530628805
138,-0.2630080995470067,0.005731153043300588,0.16951454004627675,-0.061984826361611074,-0.5220909714239579,-4.130734608994118
139,-0.23724440082474635,0.005726216233588363,0.018556790630750136,-0.0541886696800999,0.015230775300650923,-6.463902092792214
140,-0.2372444008247463,0.005726216233588391,0.018556790630750143,-0.05418866968009989,0.01523077530065095,3.2283223050173886
141,-0.2372444008247463,0.005726216233588363,0.018556790630750143,-0.054188669680099874,0.01523077530065095,-4.347412013641467
142,-0.2372444008247463,0.005726216233588419,0.018556790630750143,-0.05418866968009989,0.015230775300650978,-7.992144578723397
143,-0.07482669971545203,0.4545004565707581,0.4159539446817498,0.24700017104625416,0.015233875088371013,5.892469072498626
144,-0.23724440082474635,0.005726216233588363,0.018556790630750136,-0.0541886696800999,0.015230775300650923,9.755274039272534
145,-0.23724440082474635,0.005726216233588363,0.018556790630750136,-0.0541886696800999,0.015230775300650923,11.552521715596631
146,-0.23724440082474635,0.005726216233588363,0.018556790630750136,-0.0541886696800999,0.015230775300650923,-3.2971129049764687
147,-0.16782126958027915,0.3104260292491836,0.6879968804533679,0.5835172059466875,0.015239251209354238,3.1511128364746366
148,-0.25099512825028436,0.0057284339226907205,0.09912606761952569,-0.05834988771428061,-0.2715501774006505,2.999853398733666
149,-0.19707895065107656,0.04395347194823723,0.37849486417402695,0.33501575644947146,0.015162826060412804,2.0013729568272383
150,-0.2372444008247463,0.005726216233588391,0.018556790630750143,-0.05418866968009989,0.01523077530065095,10.020908149564542
151,-0.2372444008247463,0.005726216233588363,0.018556790630750136,-0.0541886696800999,0.015230775300650895,-1.7174586202684683
152,-0.2730326866245047,0.005733422095698673,0.22825232886348318,-0.06501811080818834,-0.7311623114043857,0.9586125992938735
153,-0.23724440082474635,0.005726216233588363,0.018556790630750136,-0.0541886696800999,0.015230775300650923,-9.272230344102008
154,-0.4450326222433509,0.0070045305113176776,-0.024460095549558816,-0.13713642072874954,0.015201755430909153,3.303673569179092
155,0.05645798557947962,0.5404618978894833,-0.2672187216208577,-0.14391553113031336,1.1889901623787704,1.8154008129724368
156,-0.3509958782017753,0.007543512597177546,0.13575089385408345,0.05498686065107866,0.015185419846730969,-3.5300509790032795
157,-0.2372444008247463,0.005726216233588363,0.018556790630750136,-0.0541886696800999,0.015230775300650895,4.460784941930358
158,-0.2372444008247463,0.005726216233588391,0.018556790630750143,-0.05418866968009989,0.01523077530065095,3.538512768991186
159,-0.24640968673189134,0.005727396013897851,0.07225825815676988,-0.05696240428669361,-0.1759168714858103,0.5436948474639136
160,-0.2372444008247463,0.005726216233588391,0.018556790630750143,-0.05418866968009989,0.01523077530065095,-9.483445452652738
161,-0.2544127835033871,0.005729207504563752,0.11915138247337868,-0.05938401714453614,-0.3428283016598765,-6.38980713426564
162,-0.2372444008247463,0.005726216233588391,0.018556790630750143,-0.05418866968009989,0.01523077530065095,-5.008833965390412
163,-0.25624873185142827,0.005729623069112164,0.12990888754693908,-0.059939546616800635,-0.38111857519357617,-1.8702753293494419
164,-0.25362293468176095,0.005276565135848357,0.17896489335405816,0.11986884795665732,0.015233310996738886,3.147700146011109
165,-0.23724440082474635,0.005726216233588363,0.018556790630750164,-0.05418866968009989,0.015230775300650895,9.063179187100381
166,-0.2372444008247463,0.005726216233588391,0.018556790630750143,-0.05418866968009989,0.01523077530065095,-5.105507976983871
167,-0.3402592528693266,0.007605050762665502,0.15404294963397475,0.0769224956078132,0.015183554734867488,-1.3084202701292358
168,-0.2436827474368834,0.008158589774182393,0.31858094641571333,0.27423467731919193,0.015166777956277633,-0.05603412327997925
169,-0.5113294891003082,-0.6381760155294542,-0.151073268265778,-0.05213010910207687,0.015232355188561614,-5.2806216617233055
170,-0.96891388259603,0.004001846642095699,-0.9169998778076718,-1.2074604501087691,0.015292761414954142,-10.277518474886822
171,-0.2372444008247463,0.005726216233588391,0.018556790630750143,-0.05418866968009989,0.01523077530065095,5.190657096730371
172,-0.23724440082474624,0.005726216233588349,0.01855679063075015,-0.05418866968009989,0.015230775300650867,3.0393487841317928
173,-0.23318169553345258,0.005724401875095361,-0.005249468344387234,-0.05295981947681638,0.09996420209124818,5.769367626674769
174,-0.2372444008247463,0.005726216233588363,0.018556790630750136,-0.0541886696800999,0.015230775300650895,9.093262829256986
175,-0.2372444008247463,0.005726216233588363,0.018556790630750136,-0.0541886696800999,0.015230775300650895,-12.502794372117355
176,0.1285348416746086,0.8653086813642001,0.2449359581164866,-0.057032868888802865,0.015228268923412419,7.658365963198981
177,-0.2372444008247463,0.005726216233588391,0.018556790630750143,-0.05418866968009989,0.01523077530065095,-4.115220256687357
178,-0.2372444008247463,0.005726216233588391,0.018556790630750143,-0.05418866968009989,0.01523077530065095,-3.6644588202048767
179,-0.24069763538797084,-0.0022742610814600467,0.016419598375542466,-0.0542037408167578,0.015230626894829818,0.2206025566571232
180,-0.2372444008247463,0.005726216233588349,0.018556790630750136,-0.05418866968009988,0.015230775300650923,-0.5226835821926339
181,-0.42134024990059055,-0.4267289360242973,-0.09537932302733888,-0.052819623428734405,0.015231780504407016,-4.786361849855059
182,-0.5359677551967346,0.0064833256553153,-0.17938685072913113,-0.3229229057222195,0.015217552219007863,-13.429102562507829
183,-0.4994855349849655,0.007968064308520859,0.04335606213994045,-0.07198825836285908,0.015236442707003778,-7.7135873931165255
184,-0.247077074202727,0.0057275470761939395,0.07616872988175459,-0.057164345376084794,-0.18983580816969575,0.4707948401608646
185,-0.340992320934626,0.005927591678609692,0.30267411772455705,0.2411170312839126,0.015236785425199545,2.884702292334889
186,-0.2372444008247463,0.005726216233588349,0.018556790630750136,-0.05418866968009988,0.015230775300650923,10.276041189024742
187,-0.22414158792161348,0.006806951865302571,-0.10951131986965383,-0.19341346873599008,0.01522875188103695,6.251156065573259
188,-0.13325292272015882,0.18113110991045986,-0.10746457954799211,-0.04591229332962811,0.6281288962023441,3.7279245817098166
189,-0.23724440082474624,0.005726216233588335,0.018556790630750115,-0.054188669680099895,0.015230775300650923,2.913441848972016
190,-0.20113186624021678,0.008001394337559434,-0.3346624105570698,-0.4379253281652105,0.015225193563831466,-2.333554496430786
191,-0.39463713324407584,0.007293377876840604,0.061399014486031245,-0.034175106915065034,0.01519300098326068,-16.257318437984598
192,-0.23724440082474624,0.005726216233588349,0.018556790630750122,-0.054188669680099916,0.015230775300650867,3.5990526227836512
193,-0.824257741332493,-1.3734613187233078,-0.34474319034057693,-0.04973239449698817,0.015234353593144484,-5.897187389897474
194,0.5928915169741253,-0.001314733701556145,-0.05293169204594203,0.009861788722488898,0.015212931389771756,-2.7904595067034257
195,-0.23972622167105884,8.262865391406303e-06,0.01702080206205764,-0.05421118396974899,0.015230620691242841,0.6989209955330478
196,-0.2379892980162565,0.006088112528192732,0.025989103581907744,-0.046261347951527886,0.015230893347403601,0.6813114080332501
197,0.0048832083592929565,0.5321335124548132,0.050878884842798025,-0.05045847141481029,0.3935948105157089,5.408485300260326
198,-0.025125120052948258,0.009411277190027448,0.6909389441512779,0.7207623508531332,0.015128811238518725,4.029494516411654
199,-0.2372444008247463,0.005726216233588349,0.018556790630750136,-0.05418866968009988,0.015230775300650923,8.830008209986937
