x1,x2,x3,x4,x5,y
0.12837806960027967,1.062062334714912,-0.17548362086337402,-0.3412820914839483,-0.762667284447546,9.328029743758144
0.3773105206100507,0.46538201694650705,0.08065858491988986,0.1347260007119922,0.36348010355187443,4.1944104126088515
0.4740896254182029,-0.7838500256336659,1.8153626507127723,-0.2901426619297055,-0.5332126610708048,-11.906397704517758
-0.15889634495213315,-0.7095987368538235,-0.5728324161270884,-0.2709082758698129,-0.3791554330489504,-7.03138200279667
1.1334105037078455,0.20139515843405442,1.0858027371219403,-0.2750407865094481,1.24107691042606,3.1211252500543516
0.036297146641056766,0.6048270462181252,0.418608363801084,0.1667486766032057,0.5890777319275751,9.82388761682944
-0.1795325891760569,0.04850224441984646,1.4497279654312667,0.36441410991698653,-0.5918969111389523,1.5651810599855935
-1.2709897727902817,-1.0870874835753703,-0.3535679180079379,-0.8976172983962745,-1.5694069425338024,-5.745203858767052
0.9635637626382965,1.0029076730950301,1.093157103750178,0.9524960618273351,-0.586472912463413,8.384392602737398
-0.22726318051216815,1.2333178989132623,-0.8449223169561295,0.6498782139125944,0.1475102801080157,9.560045045172167
0.16673981343943867,0.8394434109640625,-0.05809328076178977,1.3488176509112668,0.7555463968171021,9.357024034696169
0.35592667943860545,0.954741497291547,0.5807417394946955,0.6286574060272331,-0.18173874736440263,10.706031921191528
1.0833073937307631,1.1212311498787437,1.303422164044671,1.6762866379437757,1.1751526781506985,12.553082655224316
-0.04106706666832194,0.8848477952233336,0.16250214576139493,0.011927997596589024,0.6831734607031371,10.920210427634084
0.18349734566997317,0.5883269065948864,0.15508274621596058,-0.06230628950465525,-0.426706547980464,4.122491039583619
-0.47615674724414125,-0.670379051714688,-1.268124530153467,-0.4799764902338331,-0.6328201516725825,-4.356628397728817
0.19430029437905197,0.0003955147256583802,0.2565903839196265,0.23443670654996762,0.2053631162475341,0.18407645835494657
-0.513599431745611,-1.1431136198868437,-1.0179891150532092,-1.3034198815264808,-0.707950845646776,-6.944800174621386
-0.03361702002927814,0.2891801625182173,-0.25299210586740073,0.04075888171597958,0.6181553031734578,3.093934758290237
0.22819287131926622,0.48166182835981597,0.834321111925256,0.7047368077307616,-0.661896013108355,5.355570232461473
0.05914083244611398,0.48077622201075787,-0.526373185652275,-0.07877875379852659,0.4136484419554397,6.131055557223891
-0.6903741341580483,-0.09537006603003662,-1.4954990127406607,-0.14310360318298582,-0.593008908696375,0.18671415140430914
-0.18474309451240964,0.8070522791386711,0.6715765837766718,-0.1800657202189335,0.48747041010824205,6.351966206665902
0.038657381275435554,0.4100490160376997,0.7649779026346615,-0.1651726263529648,0.05682165048027077,3.6787839625946317
-1.2706265215513146,-1.3288228831483146,-0.9832888591478861,-0.5107073842228831,-0.8197307818998497,-3.699988822463313
0.8284636354595571,0.6874220698746167,0.8420764309744276,0.4233110310266759,1.2056567243418361,8.182698879559515
-0.38449721223588,-0.09989586394321065,-0.12867980090694975,-0.659692822508316,-0.2947678401503565,-0.9549560587717977
0.543174879230991,1.2536602239941126,0.4635653561206101,-0.2521853229153831,-1.0207154576779867,6.742768041914012
-0.48820425181132504,-0.3939758483782766,-0.5976987387170472,-0.9581872123469714,0.03152686318278192,0.9257202971802257
0.044414851217551954,-0.8014634285911844,-1.9662584001380132,-0.11285025076677735,-0.19974954424963698,-9.98387705550414
0.4057028615827562,-1.777750204241783,-0.73704950002602,-0.4313652875383596,-0.27713577241929443,-14.095093549044677
0.1949181312364416,-0.9257389540226243,0.9756336291370022,0.3097550717998028,-0.44932679618368504,-7.869487785113308
-0.25224797006118793,-0.9128652131564534,0.06373215230283047,-0.18209525159756176,0.11347463878774794,-7.554528791074761
-0.5642596577406722,-0.3991240873465797,0.4327321813242803,-0.12905203890160366,0.3710272975363304,-3.4928758543403546
0.9392380783517724,-0.24144597671191237,-0.014617144627750295,-1.0239606967742771,-0.33862792344975545,-1.5297134037359963
0.814400867529656,-0.3672083007354159,0.38189333218584387,0.8050759901755108,-0.3464402799552869,-1.7650061401741286
0.6405892064200147,-0.5035612500811575,0.40401450953552664,-0.28197260260251944,0.5025054237092382,-2.5983034787563155
-0.4447621427023807,0.4284216154018272,-0.7996639913921734,0.6024403091481189,0.21001884584563546,1.0793530620610767
0.21869852806941115,0.902513878436195,0.16180152523392083,-0.8289646340900331,-0.4984994580507284,8.178645979229827
0.07116558045927461,0.33535312392513505,0.16078660431202974,-0.5144703198783251,-0.459827836611942,2.8662952641714496
-1.4422157026640805,-1.4021590021461041,-1.814330749342711,-1.128983964714816,-0.6056677974633563,-3.4545881616424596
-0.6474362187185425,-1.6747898717658125,-0.9613452089860092,0.6882636235174403,-0.13287477247998253,-14.481980987742787
0.9852995736767811,-0.14273323502138602,0.24020123553684603,1.0899139469396424,-0.5538982379975959,-0.38151122952909755
-0.27851666157203775,-0.6840950741679169,-0.9085101177251547,0.19596986668519978,-0.5034845953101227,-8.334626895328164
1.2380455087678244,1.1424546535380147,0.5555022588991054,1.2804653467043106,0.9400446510826865,8.710337598526253
1.4409230988795487,1.0209972896222472,-0.27476887127739075,0.4699772509496483,0.39243212762534707,3.5334428011975305
-0.09432041839435076,0.009077557714988305,0.43607639656268304,0.08286692490411257,-0.7897594480177936,-1.0018176549842477
0.0007030251061890258,0.11036682804007264,-1.0880983421832637,-0.011898766085736867,-0.5245203493548539,-0.34523641498606633
0.6366288474926188,-0.767217991021584,-0.30696029895156907,0.721298228068459,1.2124943253637142,-4.007706549740089
0.3345211612701939,-0.5398673166072516,-1.1731151002750344,-0.6469444795208148,-0.3324101021781304,0.3726875240632874
0.04008859651213381,-1.1291944027600467,-0.656388041898812,0.04784511802740296,-0.11378360365094412,-12.697463225451637
-0.0746206048299124,-0.36496347880773894,-1.018399470095704,-0.628021966301738,-0.2579247112349216,-1.2182452657541585
0.1159440865053849,-0.6436430079569267,0.4619281227081897,-0.40343649855622005,-0.3598349242438513,-7.713854972416586
-0.845653686549294,-0.5411117723701259,-1.3915878759239004,-0.17457516437288575,0.19135565682247563,-0.06955244225453883
0.039435727992249224,-0.01375829079692343,-1.376271813110991,1.0139958579321953,0.38958033581373613,-3.6795011932717614
0.05977798430445211,0.9132703048441416,-0.390645786834049,0.22340655614522437,0.685058486267582,9.636771292824815
0.012847728462706862,-0.2952696363410626,0.11596993503218103,0.6067289111042521,0.09702987502235194,-2.8205855039425183
0.16632815373247914,0.3768742318965115,0.8923149929751694,-0.12153204991755362,0.22364769866561401,4.047583025746946
-0.4850245959590514,-0.17182628436457797,0.5497605901922951,0.09055487124723402,-0.1827040532233427,-2.2165056521299538
0.7595999508731607,-0.2671452245846107,0.3290963955519993,0.4118306095350516,0.01833605622616441,-0.7977827638057302
0.45441559609774773,-0.3308870184052383,0.7738920925775631,-0.7579593552561681,0.14626950947953388,-5.120649489057886
-1.141334165830117,-0.10312044516105046,-0.8317396986454914,-1.1921588013329112,-1.2645280448411604,1.5789099889001816
-1.0101249693149255,-0.8919282577936489,-0.666932442663781,-0.6447131649239,0.25516733142778936,-2.442055166320458
0.20911506206193528,-0.0659546680678065,-0.5378773932850628,0.6585816924126419,0.25975863442830227,-3.848661904204611
-0.5773602520716022,-0.5148351077530159,-0.9152908892411196,-0.5763812751060923,-1.2505492479256808,-6.193625323181088
-0.027058227032905002,-0.42512112190446505,-0.12316573643843101,0.38140102858503305,0.2066121334741155,-2.0716103272069466
0.15033153453597306,1.096030680714427,0.445840936527145,0.4400122533051171,0.5058354056659508,13.219655834683227
-0.8425752023637716,-0.09718959849225123,-0.9707505138478159,-0.0981140049063533,0.15743469391090137,-1.8631666046207795
0.090301093903212,0.13551333406056126,-0.22620571208188214,0.44748463168038677,0.22541308724094014,0.8599136625690176
-0.19974431428166128,-0.41963616843345924,-1.3977222577458615,-0.7994351809830462,-0.4842165163108195,0.10026504749637988
0.5728935536715873,-0.507558667304119,0.10881830355007739,-0.8249483303017099,0.6792982494729599,-4.327923812060175
-1.0128337406868766,0.2590233773325164,-0.5090844508733038,-0.6863728860936756,0.05340368523872058,1.8604028117099911
0.6253058802006117,0.20190967989300201,0.35357539506722013,0.42201546075535445,0.15143553691888229,2.6902155560462426
-0.7790857303150428,0.41512812515011643,-0.24254859704786305,-0.22847583921475995,-0.06474434764221998,1.6884045141847228
-0.15124205843982724,-0.36076980328407,-0.41907218792035605,-0.5353351279044327,-0.5451717790734463,-4.965030652548112
0.9987442427975892,0.7790669534229695,0.39692671869215673,0.037423857546329486,1.2387732037872459,7.109634708600549
-1.2505293245470912,-0.8986924230801643,-0.7144308323728179,-0.07709349436788887,-0.5228833927483643,-4.3911298994812675
-0.22667896951260963,-0.35055151910615673,0.43987880332822177,-0.013133441581357902,-0.1551196630045651,-4.498303210513329
0.8259736551953273,1.2204679265714877,0.5136442540925239,1.2911274502072112,0.8291208165841125,9.748348377244811
-0.647924791080069,-0.6706853426891729,0.2723648244284727,-0.8115913146780687,-0.2941546675555138,-6.296910764795985
-0.6920276761577271,-0.3554047706198679,0.653426019604993,-0.10577337848678892,-0.14869977651078015,-2.503985803792057
-1.3517210735183227,-0.33388522940178267,-0.07914721105567674,-0.8218555077955203,-0.48328099020486737,-1.6830192928909333
-0.06291076074114726,0.022230411049885185,1.1420952895402752,1.319967232042158,1.593890057479122,9.802134082371497
-0.13264300270150353,0.6498414204052261,0.10715169679703851,0.421118050146188,1.2182306692713571,8.070036320817511
-0.302814503116367,-0.5773639817023819,-1.1587979767521146,0.08759723195924729,0.22236669689445282,-6.2815471533314815
0.17899686863397568,-0.5411246992931005,0.20174685227943523,-0.41471954498980623,-0.9396310245041353,-6.1211144941092055
0.020365833056418592,1.182955915771628,1.215369632384869,0.8174427617950614,0.6201005202559098,18.363067762893063
0.318139383511038,-0.09904127152423939,0.06066231554268106,0.2288908806092556,-0.7837143726988748,-0.08277730780901171
1.210045408789267,1.7774531014395833,2.644323304001228,1.0537581595831245,0.7460490984294933,10.265187613523507
-0.039832804667135735,0.000925107448246365,0.6496086805257585,0.15430396137854507,0.9199289195132394,1.5595925741851993
-0.015372795515146809,1.333706025840591,1.165337162109785,1.0807973664942228,-0.05501918240592363,18.39294510028421
0.10004187311434959,0.8738211280300929,-0.8601784158673229,-0.014936760863234921,-0.2977433687231292,8.849718745644058
0.06819375664683663,0.9647810924939464,0.3680593733980812,1.120565853243336,0.17086518861040434,12.653637418071545
-0.0810902799232075,-0.4752671683116977,-0.7653053931914308,0.18948682122790142,0.9060026217856808,-3.80266974021472
0.21103877235282187,0.49539508815130184,0.6919175748465238,1.3283802516485146,-0.09243724595455471,8.952489215610969
0.2825887541059614,-0.4632056217461948,-0.9468082295138116,-0.08026336582116356,0.5640496361700491,-2.6353272399255903
-0.41374855426237234,-0.796890149998859,-0.11464313015882499,-0.2893191145485993,-0.44997065351184684,-5.870403317890187
0.3099192782187592,0.7171787874385879,-0.5201600054258615,0.2503537915080747,1.04367698733151,7.509266071485579
0.8456981783304778,0.023238260669405597,1.6476956802091451,1.3810979679335014,0.4633715616727386,4.264061014253602
0.17016407312611548,0.6439655533418712,1.0471286598360479,0.6690293635167177,0.15612230903683819,10.88245896329355
0.4576346534024026,0.4749890175722783,0.717480341473802,-0.2942090362956503,0.9573995143687586,6.062705691095683
0.9007740342993786,-0.12863037859796678,0.4155160490403472,0.1123822613587045,0.5163841966803543,1.3637567810261761
0.05068125789796013,0.7064023881977637,-0.34853871285989196,-0.06574076165368342,-0.4594429353478029,7.819770587610411
-0.128355369675943,0.09972847225628986,-0.1677021860792384,-0.36487108402854707,-0.2053174231820125,1.7721975271870798
0.20328566852903612,-0.4619823901855634,-0.659173393811416,-0.3931243097682704,0.34200509247545813,-2.658900654128216
0.9379460263300221,0.022221594052510785,-0.587895078456315,-0.6202401636987553,0.8650333407608181,2.80412574887489
-0.15199307815821747,0.17069400107189533,0.3995689922050252,0.463574807546957,-0.07861558132111732,2.0536728635072747
0.2653564931143293,0.37674650792321895,0.522744194986426,-0.01826279133589652,0.15344442707866326,5.419113296549022
-0.6507304839677457,-0.7383560383968296,-0.4531840661955074,0.2567693327827929,-0.8923007615424848,-8.149834544556358
-0.32471294145560975,-0.5345612319468948,-0.863385502667643,0.8423746082368246,-0.86468044094085,-8.071404320665156
-0.2511981647545094,-0.756471568612332,-0.3162989719065435,-0.7293832321983447,-0.25615293213201007,-6.497084742166557
-0.33659073979782683,0.12073136392594119,-0.22861105495375353,-0.8859327962176877,0.6428289277153707,2.2846115127901516
0.31663099200868017,-0.2358881926911838,0.43128461063046775,0.39368693448017456,0.2767594351145225,-0.08585506274015087
-0.5521807557614892,-0.780225828860234,-0.08420277066975318,-0.8744211301681823,-0.6654654816554911,-5.201538155827951
0.06420688392804796,1.2042375448388483,0.7912084755866386,0.7910918319701559,1.3866700628765982,18.202426705568996
-1.3446558605824883,-0.2974362848273633,-0.6863850405883531,0.017593433413234882,-0.3977657611829075,-1.7783507666488192
-0.38422733586728325,-0.16243265004012905,0.2925058610711563,-0.0031726613760538203,-0.6967725013187402,-3.314471647820687
-0.4516693550439456,-0.807453291985561,-0.36392213047670746,0.37942361150864645,0.16939561198666994,-6.4015908760589735
-0.8633194258707341,-0.9262416464843012,-0.7077663159171992,-0.17681849131739938,-0.3803818070963089,-5.77385064233536
0.49694262998556704,-0.10127911018252066,-0.32102502910025477,0.06520964929882747,0.396878218637569,0.02983791001010047
0.13718657781228905,-0.8306318076748832,-0.9285991624781165,-0.34997711550450084,-0.32690980970223454,-7.394449856195244
-0.6679514443124241,-0.20060700773247897,0.23871890989887318,0.6685401417042819,0.9688364385243757,-0.09606906559370088
0.12713241828642444,0.5856866043637878,0.48427691145162033,-0.39386717343379835,-0.22303641299909402,2.847516408029274
-0.10438759612271997,-0.24050595561061297,-0.9845669996228535,0.03738335341635418,-0.5385097565315131,-3.2308154112348446
0.29436914743932996,-0.4459163103830788,-0.07661779476881289,0.40970187234887184,-0.3140377480509698,-4.257593028949862
-1.1999396530136697,-1.033226006132386,-0.6865104319646853,-0.9204326019757857,-0.9081781893987597,-3.8063437450134066
-0.4590443584459424,-0.4684276512951356,-0.48459323510333496,0.4097290838908022,0.34266054426465553,-6.0675488609000565
0.9255367796807558,0.3171311746408687,-0.8038486473365405,-0.6541245947680214,0.5890911319163802,6.697757214477607
-0.3641398468315193,-1.3933658595570442,-0.7374901642327836,0.7152136889182715,-0.4513411481727291,-14.244399555677187
-0.2695932991345912,-0.5407838394047375,-0.7953496895188357,-1.492117369552492,-1.1757473540169352,-2.3728442980995204
-1.0498265146565853,-0.5410936260908104,-1.0099991366595629,-0.6305071731951032,-0.26088387177031347,-1.0899052145001447
-1.2190005901340313,-0.7812424594394296,-0.4238263445047128,-0.416867421179123,-0.600137572563474,-3.47396422114247
-0.05213566909543382,-0.25856904517142454,-0.25675059210453277,0.32803725483862944,0.08817036055367553,-2.195292935065076
0.29244174946939144,0.2725954881620351,-0.2829004384161303,-0.4929501238177771,0.26417393450985355,5.080429273043171
0.17716917434564733,-0.013159376625402383,-0.3217858280416834,-0.17277240764427315,0.03313602452877626,1.0157025782604303
-1.1719455030522374,-0.5304109318267011,-0.2926940139863937,0.011423997373535943,-0.03131885381424071,-0.932410005858739
-0.5586446050293388,-1.385310969968755,-0.7444282643560591,-1.3195624681352092,-1.0907277626353866,-8.308475575830858
0.5801673271916628,0.12025836104410381,-0.8410310695166687,-0.22257978887239466,0.4313847251560553,1.8117363530628805
-0.21547278503909378,-0.24238588881550216,0.05501902607075182,0.6764808356549082,-0.5220909714239579,-4.130734608994118
-1.0577452037274693,-1.094797922858639,-0.1812339004111434,-0.057863266620047066,-0.9759732546761373,-6.463902092792214
-0.02220032312273311,0.5981294390100903,0.7137727812116048,-0.8910765341374159,0.24638920793770866,3.228322305017389
-0.28050169395610003,-0.12355270166799986,-1.299826886582684,0.11445661900232362,-1.1599467593720902,-4.347412013641467
0.015618255279552795,-0.6621264043786399,0.030251444404883587,0.6810295990869613,-0.4948061714964217,-7.992144578723397
0.6764517152870171,0.45450045657075805,0.4159539446817498,0.7657043913276672,1.1904155950166517,5.892469072498626
0.3105391116696339,0.28861364142280155,0.6317835530488386,0.7060478274230364,1.8280554698509373,9.755274039272534
0.9794422849797225,1.3749433035362562,0.47321637174631004,1.4200684085612987,0.8585490622770817,11.55252171559663
-0.5906267562532365,-0.6948648690225272,-1.2856824944049934,-1.1130953512623962,-1.7861664297180315,-3.2971129049764687
1.235043226862081,0.3104260292491836,0.687996880453368,0.3619479527513765,0.41257061770041936,3.1511128364746366
0.3020821336308769,0.023441956031360844,0.6223533363429306,0.9870926826487669,-0.2715501774006505,2.999853398733666
0.8497182297531931,0.04395347194823723,0.5279520419328361,0.33501575644947146,0.22421665044911163,2.0013729568272383
0.3473798841684433,1.060635522837033,0.2456996640704986,0.426919022639627,0.3154894834764832,10.020908149564544
-0.4201438103661359,-0.17596554096820755,-0.1196560529158062,0.04503222315992783,0.33986269313408923,-1.7174586202684683
-0.4086579665364126,-0.23666650062263617,-0.7853402607915992,-1.2037390286555372,-0.7311623114043857,0.9586125992938737
-0.019244671121088318,-0.7072243948615928,1.3503223397243218,-0.4492608574321865,0.04267156261432742,-9.272230344102008
-0.04984805797077228,0.09882697203369604,0.5822201399334822,-0.13713642072874954,0.6355256405487143,3.303673569179092
2.213330081256785,0.5404618978894833,-0.2672187216208577,0.8390865774891735,1.1889901623787704,1.8154008129724368
-0.4287823074427833,-0.15005003346318874,-0.4915689669698631,0.05498686065107866,-0.9856613628974327,-3.5300509790032795
0.13379583192839456,0.6013433417777418,-0.3940809876964946,0.6807183671006459,0.4805340408131311,4.460784941930358
-0.6856548224863576,0.6227282974624205,0.37400310777769086,-0.5519422792355141,-0.05815436848952529,3.538512768991186
0.9714877095983181,-0.3560590716441288,0.7159772206924495,0.6524166673874976,-0.1759168714858103,0.5436948474639136
-0.655616811251105,-1.7420529301602898,-0.6917637745852169,-1.4588877033931982,-0.46672208885920874,-9.483445452652738
0.07225143179151797,-0.7373678372037089,-0.32746271690040096,-0.2411463060089606,-0.34282830165987654,-6.38980713426564
0.6437951963552688,-0.6593060346133006,-0.39637057605726234,0.005236126908383432,0.023218054652972137,-5.008833965390412
-1.313582395242961,-1.1268880373314614,-2.059449362522468,-0.3591989985851971,-0.38111857519357617,-1.870275329349442
-0.4695603101185045,0.23078798418776605,0.17896489335405816,0.45632100272108367,-0.1053612809798623,3.147700146011109
-0.08459850048310863,0.5584414310540905,1.0705435500694471,0.6167228579266966,-0.05623548139391482,9.06317918710038
-0.9907894977745844,-0.8501481139470213,-1.460065840182339,-0.3957976579829693,-0.9691957991328416,-5.105507976983871
-0.5725807719965506,-0.0029115966460819126,0.3476570529808464,0.0769224956078132,-0.5517499755576313,-1.3084202701292358
0.427553364029612,0.053561044677017056,-0.046698305611039936,0.27423467731919193,0.7114078801586599,-0.05603412327997925
0.12924133678876734,-0.6381760155294542,0.4439010769749432,0.298799168921222,0.06339109088484746,-5.2806216617233055
-0.9292707851298053,-1.095967986872066,0.07402677261758905,-1.2074604501087691,-1.392433848477451,-10.277518474886822
1.1802138602954189,0.7190943529136861,-0.0876120785279938,1.2199268676140775,0.5983523841004007,5.190657096730371
-0.7304700437713174,-0.08873262710909516,0.5959511795435687,0.7917788107261947,0.8881993184243162,3.039348784131793
-0.6479467719397626,0.524301010811459,-0.3753568285038849,0.2843807428722261,0.09996420209124818,5.769367626674769
0.5074212354443238,1.0386403671160904,0.4926456496656432,0.5893363291150269,-0.10372156984063463,9.093262829256986
-0.052402387204190104,-1.1941369289185648,0.3566675160961618,-0.04474331258707298,-0.734749542420233,-12.502794372117354
1.312434628651079,0.8653086813642001,1.5317808145212257,1.2426449646385311,1.046389087937962,7.658365963198981
-0.24889204643468943,-0.1351348548974181,-0.053130217692413995,-1.1234150514251866,-0.46727129483486185,-4.115220256687357
-0.17028644861675324,-0.25347156470208965,-0.8162685891685524,-0.3299797499941255,-1.2373787881493292,-3.664458820204876
0.5167912580618294,-0.0022742610814600467,-0.24729856588277008,-0.4198836167248355,-0.18591854069090671,0.2206025566571232
-0.18674969981171485,-0.11781930188639864,-0.11196034718634873,0.49716891908772526,0.3039380271248387,-0.5226835821926339
0.35849462685546196,-0.4267289360242973,0.8765441058785033,0.07536746994253687,-0.6034579290055561,-4.786361849855058
-0.07784156883900285,-1.5559604801632865,0.13012769721566977,-0.3229229057222195,0.44242104595797493,-13.42910256250783
-0.4994855349849655,-0.959921537822599,-0.18902354577162284,-0.7634831860136027,-0.08192697333675396,-7.713587393116525
-0.6272964106643532,-0.7533578454586842,-0.9475168178992673,-1.6607167792461008,-0.18983580816969578,0.4707948401608646
-0.340992320934626,0.013757180498897875,0.30267411772455705,0.3879191205611451,0.6470046199458537,2.8847022923348895
0.2034776786592552,1.1869425282172577,0.7240427456948658,-0.5267554879318099,0.08141049947564612,10.276041189024742
0.4384288377647033,0.5947641075263175,-0.10951131986965384,-0.1834017235213362,1.1362365800257053,6.251156065573259
0.2845935436043735,0.18113110991045986,-0.21696274680266533,-0.04738512136897652,0.6281288962023441,3.727924581709816
-0.042875853089718675,0.28156453863374264,-0.126391896431988,-0.804679414801842,0.6381870233880536,2.913441848972016
0.5477941305877093,-0.22959698870704967,-0.3346624105570698,-0.25309172133474633,-0.08004809533680264,-2.333554496430786
-0.25649867025523365,-1.8167734151853503,0.4267549181646002,-0.034175106915065034,0.7486813102454152,-16.257318437984598
-0.31766213302459984,0.5801982677560124,0.2588211779908962,-0.17736090352010636,-0.2569541347527681,3.5990526227836512
0.9380521946622263,-1.373461318723308,-0.1102374367932687,-1.104881941188153,0.24888169030989538,-5.897187389897475
0.5928915169741253,-0.10605936374350688,0.2537611885431861,-0.8036977977125521,-0.41343928961770476,-2.790459506703426
0.07875226475162453,8.262865391406304e-06,-0.5838348239184932,-0.3785216434561928,0.3156363382553192,0.6989209955330478
-0.3933181689682798,-0.21252147166418123,0.025989103581907744,-0.14874255998672073,0.36900664797990584,0.6813114080332501
1.290053096752656,0.5321335124548132,1.3113575893788132,0.5439572115711035,0.3935948105157089,5.408485300260326
1.1521967373125044,0.32024242718597495,0.25832594880085047,0.7207623508531332,0.5710607557999626,4.029494516411654
0.4126680951309829,0.6410408821404753,0.49138845860888497,1.050005935900956,1.0322401711649118,8.830008209986937
