,x1,x2,x3,x4,x5,y
0,,,,,,-2.8125105580718914
1,,,,,,9.762949076116834
2,,1.0802206151150635,-0.30894003503274725,,,3.0942351187125485
3,,,,,,-0.551780371757859
4,,,,,,-0.3277578644387562
5,,,,-1.2209864678889968,0.5616632337180347,9.583824207990046
6,,,,0.2543299554430006,-0.012720972200381158,5.787113702061792
7,,,,-0.6341265857248413,,-12.428678210626716
8,,-0.3245894072451629,,,0.30023538053483056,-1.6139092728867932
9,,-0.068608625594692,,-0.7869031342343121,,-0.4630169896695263
10,,,,-0.7202825246087389,,-0.053196323394194785
11,,,0.4533056393342045,0.16501018270722007,,5.540433045721112
12,,,,,,13.07471094566232
13,,,,,,-0.9415649123493771
14,0.4936392938173009,,,0.4162301445753185,,13.109742783686707
15,,,0.7294427144601333,,,8.461715152368642
16,-0.25890445403667484,,0.4768045415439683,,,1.2963930379435329
17,,,-0.7292544451556175,,,-3.744711563981253
18,-0.2838788559464779,,,,-0.467743097863867,1.7443622450019198
19,,,,,-0.01996360867365412,-6.448209084721958
20,,,,,-0.09952389254658513,-7.600286435314128
21,,,,,,-1.6069176409436965
22,,-0.7526020938575619,,,-1.0371213163514637,-6.331074076468442
23,,,,-1.2212333169363951,,1.7486718043137779
24,0.9906885706126616,,0.42868634932120975,,,-1.6934853186611694
25,,,,,,-2.7041607562331738
26,,,,,-0.3533575056930858,-9.389637374178557
27,,-0.1380652815929395,-0.8651879300372658,0.2454179705023884,,-4.216274900092148
28,,,-0.06369757133563958,,,-2.4088912830017546
29,,,-0.8729889754143709,,-0.640707038379667,4.377445375414299
30,0.5792633784127755,,,,0.979224788182294,-4.526890446441403
31,-0.03843232121730217,,,,,10.71105337453207
32,,,,,,-1.1021541713511809
33,,,,,,-4.089292831571799
34,,0.7778216671358207,,,,12.477432757206476
35,,,,,,-1.343728475963599
36,,0.10980384480669587,-0.4867053389198284,,,0.4990989765436538
37,,,,,,3.815113503612248
38,,,,,,7.548586154347314
39,,,,,-0.4132022899774399,-3.6077224876560217
40,-1.302032451521857,,-0.8737347011279428,,,0.1654094489053337
41,,,,,,9.749222915791144
42,,-1.1607706303941163,,,,-6.623992069809942
43,0.3449834489121022,,,,,-2.9031692578071295
44,,-0.4141834850664976,,,0.056480491454223763,-2.7817970131212126
45,,,-0.3209587518694446,0.10022981382539367,,-2.4108522152765257
46,,,,,0.5721873999733438,2.411910088469486
47,,,,-0.4913785161793154,,0.6560395164582309
48,0.16686465036425946,,0.6876017417175914,-0.3695359409326812,,1.5636958168036108
49,,,,,,5.933945159214481
50,,-0.2183717125829968,,0.4929337533776294,,0.7535938239856701
51,,,0.2668178879426737,,,-0.4200193001633328
52,-0.030271165116298793,,,0.026758727772322743,,3.6077007442368463
53,0.0630389424502299,-0.05003766642192964,,,,-2.172242255213997
54,,1.0257828643515352,,-0.9029482091438372,,7.877867700443757
55,,-0.430571261797618,,,,-2.6244040170767597
56,,,,,,-7.578841657589148
57,,,,,,0.5864795607623934
58,,-0.952404442934908,,,-0.8273543684883569,-11.144706044440492
59,,,,0.6768329350821074,0.4752882806246482,2.3968499212632595
60,,,0.305400179735235,,,-1.5752571121661383
61,-0.7341277047690652,,,,,0.5558303867915684
62,-1.162438173721874,,,,,-3.800159092435342
63,,,,,,0.7944200456300261
64,,,,,,9.822924221671883
65,,,,,0.19054447169517652,-3.4013261546160134
66,,,,,,6.9488864660199425
67,1.0205675931684373,,0.9246895036801764,,,14.296811247366845
68,0.9782305987965751,,-0.2506006383614059,,-0.23111191382944685,-3.0554205082021904
69,,,,,,-4.838317266371896
70,-0.6727023491614268,,,,,-0.4136556726817682
71,,,,0.33704734792654856,,0.4543791701676762
72,,,,,0.2405261266934537,0.22291644113338596
73,,,,,-0.6758444934361802,0.8399417948459268
74,,,,,,-3.79887672349964
75,,0.4705093690109764,,,,1.3514902429233429
76,,,,,,-0.3861086295164276
77,,,-0.28035493031116177,,,3.73898116311962
78,,,,,,-0.02305174868748228
79,,-0.2313696024502113,,,,-0.6811279849900063
80,,,,-0.854888106449702,,-1.3767700305723902
81,0.7800066486679825,,0.6393892247290572,1.5137923966777105,,12.866339340803115
82,-0.3578047118865236,,,,,0.6748982548578994
83,,,,,0.1823608165499162,-0.8272160560878941
84,,,,,,3.840762248425892
85,,0.09912355818622803,-0.07644560039842946,,,-0.33389665698154913
86,,,,,,-6.801350589221416
87,,,0.6076593717879233,-0.003071873256402069,,-1.8718542771571889
88,0.4057955066302821,-0.042363402092735765,-0.2347778963329255,,,1.4503966743802232
89,,-0.425757463941658,,,,0.7705360184059882
90,,,,0.13272462860657036,,1.5168671068886042
91,,,,,,-1.223232401100412
92,1.099429850597955,1.3038181583249684,,,,10.936330149507194
93,,,,,,-5.357026776654333
94,,,,,,1.894555543169652
95,,,,,,-1.9590058882120185
96,,,0.4052175164854536,,,1.6432595260321663
97,-1.2327469383292649,,,,,-1.9468729558674436
98,,,-0.2943188468143161,,,0.5646075624897253
99,,,,-0.21129550863357172,-0.2669477482751986,1.4957265529993626
100,,,,,,-12.767501775572315
101,,,,,,-2.622321214416064
102,-0.12985460643979505,,,,,2.1177365377862745
103,,1.3715714685464222,,1.5942897541350216,0.4366591314188249,17.728341189504253
104,-0.6469426824338854,,0.005642259665133653,,,-1.9783427228289818
105,,0.9847721978607302,,,,10.427273816758149
106,,,-1.3596363052722855,,,-6.362631190322055
107,,,0.4863211010095143,,,1.4273199200087636
108,,,,,,-8.465444983945204
109,,,,,,-7.013512278832126
110,,,,,,0.536980528528286
111,,,,,,-2.7598746640603946
112,,,0.2789089436945932,,,5.9635627147674715
113,-0.07534018545606783,,,,,7.603892503318693
114,,,,,,6.44599724510746
115,,,,,,9.11337960191166
116,,,,,-0.4783034982185394,1.0115537777983143
117,,,,,,14.210255487976143
118,,,,,,12.985489665286732
119,-0.013913433655306008,,,,,-8.259813542044206
120,,,,,,7.611131537835617
121,,,,,,-7.170304781266368
122,,-0.4541017947503641,,,,-5.024865037829246
123,,,,,,18.84140930475829
124,,,,,,-2.3661600888725096
125,-0.6695546392355163,,,,,-7.537710204089942
126,,,0.8693161610725404,-0.2020574002290848,,14.818080199378715
127,,,,,,4.255529989436306
128,-0.07160983670628779,0.10206182000203516,,,,2.318504048454715
129,,,-0.09231700242303004,,,-1.1819646011329854
130,,,,,,5.135107851342081
131,,,,1.7446874836427404,,8.730368684801402
132,,,,,,8.228420966302235
133,,0.8198537342066963,,0.06081427606450699,,7.572912136101358
134,,,,,,10.858302309608183
135,,,,,-0.0179992130965197,-0.17896457777994446
136,,,,0.5953095668872477,-0.1835368706342727,-2.0794634241548238
137,,,0.01631599849137605,,,-6.570743559662452
138,,,,,,4.243700924817847
139,0.6670056230458172,,0.6734098648793121,,,7.689182994919835
140,,,,-0.29327652602304616,,1.0542300261672937
141,1.4188129488746946,,,,,9.269828840614457
142,,,,1.0512814786530114,,5.898909447715687
143,-0.9034896914030176,,,,,-1.0088402734947493
144,,,,,,-1.2537623583494593
145,,-0.3258028194809333,,-0.430073512398482,,-0.88356712971164
146,,,,,,-3.62810368110708
147,,,,,,-5.881125153426452
148,,,,,,-2.744600480279201
149,,,,,,2.6651906928398903
150,,,,-0.2640516753813956,,-0.6087348273085293
151,,,,,,-8.268059398740697
152,,,,,,-1.0967705090402715
153,,,,,,12.985895693436749
154,,,,,,4.117502719358195
155,,,,,,5.190934006686241
156,,,,-0.9758804102131112,,-2.395442775819022
157,,0.5751345331052959,0.501378353580213,,,4.021812935807782
158,-0.1139406811500704,0.8715280907989374,,-0.00630830719460454,,7.845035145969782
159,-1.7815361600557011,,-0.9881039345790668,-0.8972867507144076,,-2.671217122025117
160,,0.761706156000749,,,0.6748197760048068,8.498142718152549
161,,0.9453804450294684,,,,7.442395914859168
162,,,,,,5.298041408551604
163,,,,,,10.694224975805717
164,0.843168578607264,,,,0.9111064366701668,-1.3193884452131333
165,,0.04770998914755084,,0.5407953010280371,,3.149459162302749
166,,,,0.2345169422123416,,-5.732864026924794
167,,,,,1.5240405450151069,7.6975881505433925
168,,,,,0.4902460202251189,-2.874548047415108
169,,,,,,-0.7517974222812916
170,-0.8458848201603657,,,,,-4.300237596117653
171,-0.26716786876758924,0.5210007264048049,0.15673806197086915,-0.15676307363815295,1.0599993969970845,5.895283612552157
172,,,,-0.06348489751220783,0.2363204753498821,8.286623875704235
173,,,,,,-4.979777683177359
174,0.36176622098550737,-0.2293058724570793,,,,-3.7059182367666987
175,,,,,,-7.487373570248772
176,,,-1.18668122359984,,,-5.397906986334281
177,,,,,,-1.0528104220345411
178,,,0.054051316466320665,,,-4.649724850172774
179,,,,,1.0041679685430205,13.838966765685775
180,0.034436896991898336,,,,-0.7903211227954478,-12.119596514827919
181,,0.5481662732009517,,,,5.381481572119836
182,,,,0.4283868311256745,,-4.9701408993915805
183,,,,,,3.1929175053266836
184,,,,-1.0039787186539468,,2.6127878825050384
185,-0.3691415265241253,0.024114373138022168,,-1.5908529679031505,-0.015138461598799726,2.9649917381624897
186,,,,,,1.319231325015517
187,,,-0.4574226407997111,,,-1.5788851824698489
188,,,,,,0.4372154677420082
189,,,,-0.5647731175983488,0.20746213476176525,-8.850614726513669
190,0.09600696088113653,,,,,-2.4139859657115377
191,-0.1718918736292477,0.17412402741729505,,,,-1.4918609011102013
192,,,,,,6.767165588020779
193,,,,,-0.9316214720449818,-7.486917624586734
194,,,,,,7.76168970371158
195,,,,,,0.3016686025321498
196,,0.5180758539074913,,,,7.319669882772744
197,0.9363651863530618,,,0.8183548224108663,,13.229402198762019
198,,,,,,5.49218567968742
199,,,,,,-5.614531887502072
200,,,,,,11.658877115627199
201,,,,,,1.29113563859646
202,,0.33871309469432465,,,0.8660040057324738,5.565768412940327
203,,,,,,10.911393065825536
204,,,-0.5554673571741393,,,5.1066267786176445
205,,,,,,1.2123016541502962
206,-0.37207619173981177,,,,,6.668431217655089
207,,-1.2024462352163432,,-1.9838586698154823,,-4.397708489816462
208,-0.4516086564428826,,-0.33082957298971744,,,-9.109840024628662
209,0.5675611724351163,0.9024374960194808,,,,7.978878700495169
210,,,,,0.7086366867214875,1.4878278705051176
211,-0.4648030853540008,,,,,4.439487459184434
212,,,,,-0.04924587334722341,6.129094838821561
213,,,-0.3956317206112376,,,-6.750299890712593
214,,,,,-0.4832463507774037,-3.6172855093608534
215,,0.3565258727373633,,,-0.5253369655137337,-2.226487281431852
216,,,,,,5.925660347139957
217,,,,,0.3195779301501379,-0.2692686189710032
218,,,,,,-3.4336220501394106
219,,,,,,1.8468474732662457
220,,,,,0.5047807931630633,3.35159117078812
221,,,,,,5.163800684347252
222,,,,1.0271780446305434,,5.828661629225862
223,,,,-1.2106130042268468,,-1.5005312449011012
224,,,,,,2.520910351490804
225,,,,,,-9.247198887992386
226,,,,,,-2.1855830821711666
227,,,-0.4027185271044962,,,-1.6809083478953313
228,,,,,-1.5067959698831952,-5.107545601018886
229,,0.2599690713805036,-0.2380107586543308,,,2.7046001474286494
230,,0.3692235403036033,,,0.040466332199301215,1.6776282442572297
231,,,,-0.3714577148010904,,-0.10180557546836176
232,,-0.19073404934690488,0.4765081636242297,-0.1693558295666538,,0.30671971684819765
233,,,,,,-1.4862342698754998
234,,,,0.5554131124846238,,6.967883956812838
235,,,,0.4275176123136129,,-1.8713670169904075
236,,,,,-0.4321306868046473,-0.12749572889943372
237,,,,1.17861756296148,,11.269125027630588
238,,,,,,10.540916496243408
239,,0.9045647281398674,1.515738109434977,0.7970107876542489,,10.83663031255559
240,,,,,,3.923241363568002
241,,,1.0587928124212436,,,6.865219338529512
242,,0.6454413986843672,,,-0.072820815440329,5.898744296102429
243,,,,,,0.7690667594387235
244,,,,,,-6.56854816840529
245,,,,,,6.049083593957597
246,-0.3599469925686609,,-0.3441261913603532,,,-0.6129632510297323
247,0.3986200671892972,,,,,0.5914567827826321
248,,,0.9193048096646372,,,4.278526289658002
249,,,0.5383443593433517,,,0.5470150532726793
250,,,0.22026404764190094,,,-0.003307139671771986
251,,,,,0.555453328544868,6.0873563838802385
252,,,0.20151454351266726,,,1.4827789660943376
253,,,0.3446624558879273,,,-2.884111135821163
254,,,,,,0.9055881237271596
255,,,,,,-2.796656280958354
256,,,,,,1.5525749287413149
257,,,,,,14.686639857096212
258,,,,,,4.305816075991881
259,,,,,,4.206958757286951
260,,1.0226685930867745,0.4568670708900502,,,9.318944580091092
261,,,,,,-2.4665578821542
262,,,-0.23359445703425544,-0.14680988605491366,,-2.2965361285036145
263,,-0.7222924533851752,,-0.8282944161216458,-1.3995665250010958,-3.2408268793103527
264,-0.4788910099050705,,,,,-3.9172167484280735
265,,,,,,12.976557080406632
266,,,,0.09129851822019866,0.6847855434701553,1.570555217273312
267,,,,,,7.096349723674956
268,,-0.4455137184590283,,,,-0.06554063683258288
269,0.8879712968844342,,1.1358035397703088,,,1.8339284474354776
270,-0.6465011352306179,,,,,-5.852723746097169
271,,,0.3379404167888388,,,0.026820551207960674
272,-0.9623355076220343,-1.4872914236928725,,,,-5.972785234639553
273,1.1422964432842042,,,,0.4416317701203368,2.0100350129725633
274,,,,,0.09380962746562832,-6.194795424245384
275,,,,,,-0.7952638266339698
276,,-0.12694019675337634,,,,-0.08703892387653345
277,,,,,,4.371086071076523
278,,,,,,1.3397039314690675
279,-0.362351602752079,,,,0.05218724689117915,4.986120615558285
280,,,0.26340772944085433,0.3052660583326821,,-3.0284620857102214
281,,,,0.3983486828725582,,0.844223434166538
282,0.8872952609880286,,,,,-3.617541113266717
283,,,,,,-10.088867872172
284,,,1.4084093581250954,0.6370842974551291,0.6089162683332089,7.8714966205629056
285,1.0395797800810278,0.0768712936770039,,,,2.2743251207316915
286,0.6129615260340423,,0.4712128736529746,0.6709624550773589,-0.24107299045136826,5.485269670334475
287,,,,,0.1894346532753601,-2.629237435420325
288,,,,,,-0.7057094447597354
289,,0.7629058693432783,,,,7.581835871707153
290,,,,,,8.209487352099774
291,,0.624631253815777,,0.44574662949453175,0.4576110539578703,6.478045375810553
292,,,,,0.9002184058952771,16.061870210662793
293,,1.1097237284104775,0.4114377354555043,,,8.205499063172867
294,0.2932905765912334,,,,,13.724434431967607
295,,,,,,5.020419214479267
296,,,0.33915126903713994,-1.0702919887346671,,3.7252602570934656
297,,,,,,13.826019737249153
298,,,,,,-2.1596616503099533
299,,,,,,6.652929659070848
300,,,,,,-2.471693548301085
301,,,0.6312200123059817,,,13.343668290598204
302,0.13203535671419436,0.28020618438346745,,,0.2486201060658887,7.055781503350432
303,,,,,-0.7619916428885718,-0.2103076408336192
304,,,0.7979729285795949,0.2213454099449668,-1.0001304669992743,-10.36778178459218
305,,,,,,-6.047573300196111
306,0.6751761459810712,,,,0.17695881276923764,3.4641228888904525
307,-0.14077436402283475,,,,,-3.8024491260965814
308,,,,,,-0.7818381945025878
309,,-0.17897179929776594,,,,-6.096296319716044
310,,,,,,2.1321867427664247
311,,,,,,-11.319828134230333
312,,,,,0.7129281999910573,-1.4284748847441124
313,0.15051153547863774,,0.3787099403545895,0.6737665387496179,0.3929365713630972,6.820160697896514
314,,,,,,-1.8802718414111423
315,,,,,-0.6694190031891613,-5.41105649502512
316,,,,,,-16.256494553455035
317,,0.06604984928176931,,,0.11786075185809225,-2.2370606941532065
318,,,,,,7.041919279330085
319,,,,,,-4.715595088605594
320,-0.1656400919237301,,,0.15584330164538027,,4.558538540229974
321,,,,,,6.942615281441174
322,,1.0288807399465614,,,,14.10062926884602
323,,,0.4303919325604051,,,-4.738831003386371
324,,,0.6862409428203413,,,-2.6564064725989027
325,,,,,,-6.043896659861421
326,,-0.4889121661117886,,1.2561440214459902,0.9634666545143891,2.393297585152632
327,,-0.1510805616221347,,,,-2.286057407691767
328,,,,-1.829629228013426,,7.327744810265268
329,,,,,,10.986041326657462
330,,,,,,-3.86082521595921
331,-1.0665108716671563,,,,,1.156829510316413
332,,,-0.2602101222950535,,,-3.713946995502356
333,-0.4978018110255932,,,,,10.083953147964172
334,,0.5690521488423117,,,,6.451570255995122
335,,,,,,6.165373149714319
336,,,,,,3.8276486623425217
337,,,,,1.1433828051816144,7.879343700575214
338,-0.7006544054593582,,,,,-3.958616165920048
339,,,,,,4.787857128225056
340,,,0.9085688985614774,,,8.009199744195664
341,,,,,-0.651556154634785,3.6282488766337995
342,,,-0.6197217983395162,,,-5.728038035564804
343,,-0.3670456000412405,,,,-6.081202337531535
344,,-1.0132619194500667,,,,-3.86177791507664
345,,,-0.1903882263414173,,,1.3093954708680235
346,,,,,,-2.642642452228129
347,,,,,,11.654707079221742
348,,,,-1.1612959648431094,,-2.3454094568080506
349,,,,1.7803053851173396,1.5437748081679858,7.487416668865548
350,,,,-0.5054246474182111,,3.38982767979294
351,,-0.9243614007700188,,,,-0.7771035688231802
352,,,,,,0.40969417687981
353,,,,-0.2623105456730505,,-5.543420322966154
354,-0.7762270677996209,,,,,0.02340184556652869
355,,,1.1475652033361674,,,1.1380371038957755
356,,1.36208524164278,,,0.6218475146836638,9.358700959361212
357,,,,,1.1261019492282143,4.784290037512377
358,,,1.0719833529699092,-0.2016404703021918,-0.00951042004329572,11.379855200963545
359,-0.5829789535698646,,,,,9.365584363529305
360,,,,,-0.7976797493886124,-4.939820068492679
361,,0.35967758138373074,,,,6.3035098851006826
362,,-0.25059422990822977,,,-0.4802988997847543,1.2230565606593058
363,,,1.3555492019924156,,,10.730991502528855
364,,0.19151798938854656,,,,-0.6913458517950932
365,,,,,,4.246484719636022
366,,,,,,4.250605763695708
367,,,0.7844836596700357,,,4.014993292402892
368,,,,,-0.7464422152273991,-3.9493793401190116
369,,,,,,4.566199599987769
370,,,,,,-3.8732430949805017
371,,,,,,-6.865272622543073
372,,,,,,2.0837507139677847
373,-1.0441498024449525,,-0.7787754554389694,-0.9438648251997872,-0.09270097850465464,0.9465973947179204
374,,0.6402065025674402,,,,5.3569018722079615
375,,,,,,3.2671809562468113
376,,,,0.640443112457602,,0.12228874276072264
377,,,,,,2.403268251754587
378,,0.5042236195132632,-0.18300671024062187,0.7322114597946846,,6.933100005248325
379,-1.6112301596254408,,,,,-1.1076855512480437
380,,,,,,19.957145072320905
381,0.3623942189780601,,0.6661450065298777,,,5.678175838472452
382,,,,,,15.148942327040512
383,0.6890749034809649,,,,,5.785338601155258
384,,,0.6875077750103128,,,1.9614311131050088
385,,,0.4667481063413344,,,3.5084811349072704
386,0.030980674395859283,,,,,-1.8896700702518203
387,-0.41889557966794105,0.08488380283179002,,0.22477912015330165,-0.2870590512209473,-0.3995529051912435
388,,0.5173576371412161,,,0.6268331600866147,3.6088596198460223
389,-0.8148486058159867,,,,,-2.4609392143926545
390,,,,,,-1.4025663070694538
391,,,,,,10.051269780477718
392,,,,,,10.606824884502057
393,,,,,,-10.723394711954722
394,,,-0.7766552246628062,-1.3188222134241605,,-1.8436093780590936
395,0.25182092478465323,,,,,-9.300194658472998
396,-0.5241820137755763,,,,,-6.3191854957148434
397,-0.2844868495130504,,,,-0.5593589090591516,-0.5945208821830861
398,,,,,-0.6868623361358304,-12.416671743693387
399,-1.1616051768543796,-0.2651956330671246,,,,-1.6344287910316764
400,,,,,0.4912262282240895,4.942449748585184
401,,0.6638443003967516,,-0.5436113423781541,,4.242902433863138
402,,,,,,-0.6610203741046708
403,,1.2300255825852693,,,,9.117877525561124
404,,-0.058786723339680214,,,,-1.1779072874267302
405,,,,0.4704736858952194,,-7.466186979845497
406,,,,,0.28969275061939714,5.9411585849489565
407,0.6597532344157102,,,,,3.3218688556915583
408,,-0.26891112582427296,,,,-3.881877396569752
409,,,,,,-13.089775857432814
410,0.4317796227170404,,,,,-1.8243039755720332
411,,0.436120691910416,,,,3.3857920370983217
412,,-1.2476026898461114,,,,-12.613253199568446
413,,0.9331729334012304,,0.2436584666194017,1.0415781424946395,7.083224106530767
414,0.6347128612707921,,-0.4844207654585698,,,5.7685960751222565
415,,0.7110007347238345,,,,3.9398248258720128
416,,,1.5409899206510083,,,16.820502919696516
417,,0.43133370401556104,0.7787015254538396,,,7.0671098688141445
418,,,0.9986232506082156,,,6.735880562692567
419,,,-1.198769240439229,,,1.9943820381839903
420,,,,,,-6.646559251347398
421,-0.9689178062575596,,,,0.4370691855516723,-0.5109147744367222
422,,,,,,-0.1701295937269175
423,,,,,,0.4275178139789457
424,,,-0.3114839623194272,,,-12.549845867530605
425,-0.5763532372462745,,,,,-13.61743280688582
426,,,,,,0.8306422839354526
427,,,-0.4583477210050531,,,-1.9254234764212503
428,,-0.00553943448869898,0.07265146143211088,-0.11529007065953888,,1.5626291223228423
429,,,,-0.05483245823624738,0.3071650444919014,1.276864444802779
430,,,,,,3.8929350180724813
431,,,,,,0.6597927638812735
432,,,-0.7390021467195895,0.4051275556939849,,-3.398616620966433
433,-0.513745255749253,,,0.3863323691239735,0.16314528795418773,0.7967230253185182
434,0.2373589229157241,,,,,-8.830560411907703
435,0.038554227695098975,,,,,-10.022407948626553
436,,,,,,2.9813441181880376
437,,-0.7547563793952919,,,,-5.262250286811555
438,,,,,0.3006856318915003,3.896224693526948
439,0.3965607242383066,-0.2835654157855645,-0.2636806734793483,,0.21811895903276646,-1.3044879507599971
440,,,-0.5739991720273565,-0.16327700657989327,0.4801130788150722,1.37025892664884
441,,,,,,-0.8184935569975131
442,0.3128319598834228,,,,,-6.470585419697927
443,-0.5107490978289926,,,-0.038734517298975424,,-2.877377633454173
444,,,,,,7.178416606857913
445,,-0.5670123002066187,,,,-4.983212265022317
446,,-0.30575657598504524,,,,-1.529348693110325
447,0.02930481727096052,,,0.7507472394891841,,-2.7739482150757286
448,,,,,,10.158710645562925
449,,,,-0.3321116738363918,-0.6631396841040886,2.3764680610993416
450,-0.6488549587640324,,,,,1.7356235576420695
451,,,,,,0.5981006090550486
452,,,,,,5.94028926032914
453,,-0.10870834316550587,,0.5494031960682892,,-5.3990335624805095
454,,,,,,4.124140654997474
455,,,,,,-3.4885474621397448
456,,,-0.752246046643861,,,-2.270387463884485
457,-0.9913954332182354,,,,,0.9575629543830282
458,,,,,,0.5545267962724887
459,,,1.8086434539907479,,,19.197553294665788
460,,,,,,0.2408535822994207
461,,,,,,-4.709881137710963
462,,0.8591641825972763,,,,5.759062532664317
463,-0.20999111524037609,0.7713834251498253,0.3921325201244388,0.4569820390844282,,9.559932669683391
464,,,,0.9338973813485104,-0.01507112751173151,3.27785230540402
465,,,,,,1.4943772903838035
466,,,,,-1.6229444702749614,-6.109810555827031
467,,,,,,-8.079246803702585
468,-0.1502515455482062,,,-0.4247748866705789,,-2.645922473624492
469,,,,,,-6.894552221149023
470,,,,-0.4790781331323834,,-5.50117623819371
471,0.8577104867944706,,,,,5.517272562274284
472,,1.0419206359659012,1.004090401877231,,,6.14084191917066
473,,,,-0.4441289511535769,,-0.3067643325683711
474,,,,,,-7.779703662484565
475,2.0156700864605286,1.8316719991764423,,,,10.188937659690259
476,,,,,,0.6713526208101821
477,,,,,,-6.536507843146203
478,,,,,,-5.805054894901915
479,,-1.4132780101826723,,,,-10.369952502185338
480,,,,,0.2091094833665453,10.215549295803084
481,0.3049412177553349,0.7575221211373382,,1.0367368409158386,,6.092806528733674
482,,0.21969147532600855,,,,3.1476253817041133
483,,,-0.43470004587510735,-0.6086357218308871,,0.4104947888997593
484,0.22100275191875973,-0.4902933754405509,-1.087702523393039,,,-1.6606560931343597
485,,,0.6207895636662445,,,-3.2141999999703303
486,,,,-0.3004702802685611,,-1.1561619045547658
487,-0.07795995662142413,,,,,4.928689209935585
488,,0.11286460301120238,,-0.9875891840732004,-0.6593916372024105,1.2429392340201642
489,,,,,,5.0512646252521245
490,,,,,,8.101945731373876
491,,,-0.2463610385730277,,-0.4175638483322186,-3.387334431617297
492,,0.4599932701283316,0.18086984845223267,-0.3991256515932569,,5.569890208465838
493,-0.020629138415075687,,,-0.029807461719512162,,0.6933776143055272
494,,0.19505993756890427,,,-0.5071544131908176,0.6897605075902242
495,,,,,0.01565788232590987,-10.563310071137971
496,,,,,,-6.193987507523088
497,,,,,0.11004309441131888,-6.061424904758702
498,,,,,,-2.868723447126324
499,,,,0.4555438871936646,-0.011558482770416184,-1.4917514339287314
