,x1,x2,x3,x4,x5,y
0,0.06417257657210915,-0.3312926494573807,-0.2102659189874108,,0.025513500862920983,-2.8125105580718914
1,,0.6639084173544122,0.5292971627528131,0.6310857211055292,,9.762949076116834
2,1.3904421710609942,1.0802206151150635,-0.30894003503274725,,,3.0942351187125485
3,-0.26951585257069616,-0.2326228883597365,,,,-0.551780371757859
4,0.30817048976330924,-0.5000198866889415,0.01505579077801961,0.3182325601620262,,-0.3277578644387562
5,0.0037356068787071095,0.4410010890801794,-0.7528205114197049,,0.5616632337180347,9.583824207990046
6,0.08840435659386611,0.7975419162613251,,0.2543299554430006,-0.012720972200381158,5.787113702061792
7,-0.23530080061808384,-1.1621026574328754,-0.26650078439164404,-0.6341265857248413,-0.9350684651354014,-12.428678210626716
8,-0.2997381877560096,-0.3245894072451629,,-0.3126027236195921,0.30023538053483056,-1.6139092728867932
9,-0.4404085363860773,-0.068608625594692,-0.23292582236272816,-0.7869031342343121,-0.4869003618140672,-0.4630169896695263
10,-0.7112789859439425,-0.11310454014564622,-0.2732210478530151,-0.7202825246087389,,-0.053196323394194785
11,0.902324381784248,0.1854428803727772,0.4533056393342045,,1.325958901335968,5.540433045721112
12,,1.1094611745575462,0.5827094901145238,,0.4863625442429057,13.07471094566232
13,-0.7128005456277522,-0.19651412331368834,-0.6680196546413228,-0.4871690573177496,-0.4863409564933832,-0.9415649123493771
14,0.4936392938173009,1.4835332487851207,0.7808088514457452,0.4162301445753185,-0.3024528426557821,13.109742783686707
15,-0.5899566544232209,0.4973876944660114,,1.0573749425499095,,8.461715152368642
16,-0.25890445403667484,-0.02625473974569453,0.4768045415439683,0.7120350090080625,-0.2233859669685472,1.2963930379435329
17,-0.04011440069187855,-0.12340357689180174,-0.7292544451556175,0.08719023150147875,,-3.744711563981253
18,-0.2838788559464779,0.5036626297624944,0.18535999351449034,-0.6841787905561882,-0.467743097863867,1.7443622450019198
19,-0.12977419814092184,-0.4736159055778146,0.4879019789453602,0.2577737273129017,,-6.448209084721958
20,,-0.713849697990845,0.24082972818064474,-1.0494468864522142,-0.09952389254658513,-7.600286435314128
21,0.5619604860002202,0.026379327053703442,-0.2720222868832167,1.2282256380040142,0.005203255037918741,-1.6069176409436965
22,-1.0811247195260154,,,-0.5413904185735543,-1.0371213163514637,-6.331074076468442
23,-1.1941020162992535,-0.20117457032866334,-0.7273691866529659,-1.2212333169363951,-0.3074536359950741,1.7486718043137779
24,0.9906885706126616,-0.3652172882005775,0.42868634932120975,0.4498777455318358,0.8444387918735151,-1.6934853186611694
25,-0.1608398432608118,-0.6822162044575912,-1.6041562687765345,,-0.010063335536404372,-2.7041607562331738
26,-0.14664931601905384,-0.5245294924978892,-0.6075915968490615,0.27984542392459466,-0.3533575056930858,-9.389637374178557
27,-0.5078331635416924,,-0.8651879300372658,0.2454179705023884,-0.5865474642394866,-4.216274900092148
28,-0.8001342101798806,-0.21991137182966106,-0.06369757133563958,-1.7454884265106727,-0.7586104288669834,-2.4088912830017546
29,0.30985617015476585,0.2751359597999724,-0.8729889754143709,-0.32599491788498564,,4.377445375414299
30,0.5792633784127755,-0.5962539021611413,-0.3696619305011456,0.921070046488528,0.979224788182294,-4.526890446441403
31,-0.03843232121730217,,,0.28709919083542196,0.3983999869443892,10.71105337453207
32,,-0.25059331970597754,-0.7071850719323398,-0.15503228013038536,-0.29783898034329115,-1.1021541713511809
33,-0.11385610805278087,,0.25317669725991004,-0.3184387118301252,0.05947619769946374,-4.089292831571799
34,0.07254713478734638,,0.8372127252041032,1.1778326974378943,0.35124833902160696,12.477432757206476
35,-0.012784208248990542,-0.03980665709386155,-0.4402611423378413,0.3852026875621496,-0.2770339252696141,-1.343728475963599
36,-0.0760095536062993,0.10980384480669587,-0.4867053389198284,0.3428438802233923,-0.2593241262080514,0.4990989765436538
37,0.07296117617389322,0.3559959286259308,-0.3367185303493219,,-0.011513173687817692,3.815113503612248
38,1.7902813329663014,0.8099070814157636,0.9723143978152388,0.5905846891919915,1.6309811748627188,7.548586154347314
39,-1.0595794936748808,-0.03833207807321076,0.2230034577984537,-0.9755262883898907,-0.4132022899774399,-3.6077224876560217
40,-1.302032451521857,,-0.8737347011279428,-0.06486336982964508,,0.1654094489053337
41,,0.7594974005010102,1.0347229885403275,0.5498427607978422,,9.749222915791144
42,0.3075014974230399,-1.1607706303941163,-0.7503334646701647,-0.8486733801092629,,-6.623992069809942
43,0.3449834489121022,-0.1656071524644838,-0.058892219616190865,0.017527484565311918,-0.27603509363463474,-2.9031692578071295
44,0.29330821195992485,-0.4141834850664976,-0.4171709676963976,-0.5376472164891766,0.056480491454223763,-2.7817970131212126
45,-0.28528649580405097,-0.18225503328311116,-0.3209587518694446,,-0.000998306652567699,-2.4108522152765257
46,0.6337726418767062,,,0.11609469841189148,0.5721873999733438,2.411910088469486
47,,0.02511191239392517,0.03258141664315839,-0.4913785161793154,0.03040310140646677,0.6560395164582309
48,0.16686465036425946,0.039099949280297364,,-0.3695359409326812,1.1321643917090207,1.5636958168036108
49,-0.5317865197705216,0.6022026385424494,0.003372372718378508,0.17009598062101905,0.3000082120854788,5.933945159214481
50,-0.4684107946392365,-0.2183717125829968,0.18478523660718305,0.4929337533776294,,0.7535938239856701
51,1.2008489836835223,-0.07367980100619631,0.2668178879426737,0.2964291059883129,,-0.4200193001633328
52,-0.030271165116298793,0.3696556984509032,-0.2476543961694142,0.026758727772322743,0.8843643248907054,3.6077007442368463
53,0.0630389424502299,,,,-1.32838160157433,-2.172242255213997
54,-0.7424327998043287,,-0.5986161584590228,-0.9029482091438372,-0.6439837589323643,7.877867700443757
55,0.6696198177200199,-0.430571261797618,-0.3862540430923962,0.1464090259411413,0.6279461637996604,-2.6244040170767597
56,0.6546232740844428,-0.824384929746423,-0.6928195718514756,-0.07853758119157739,0.09526679863776437,-7.578841657589148
57,,0.14713151623616338,1.517341161849103,0.08425531107060052,-0.5964777701589522,0.5864795607623934
58,0.3477096321285211,-0.952404442934908,-0.07797647449391965,,-0.8273543684883569,-11.144706044440492
59,,,0.02611852450756208,0.6768329350821074,0.4752882806246482,2.3968499212632595
60,,-0.20848122199590932,0.305400179735235,0.011773221070957893,0.12422904429243327,-1.5752571121661383
61,,-0.39928166350482586,-0.6270994326184478,,-0.16453876285015245,0.5558303867915684
62,,-1.3694671055518095,,-2.64156356599725,-1.2759992360106591,-3.800159092435342
63,,0.03339287169751448,0.2045907646016484,0.002480964788470777,-0.19124907746677536,0.7944200456300261
64,0.07554407622965204,0.3623861493338112,0.7329017587702754,,,9.822924221671883
65,,-0.4534316207802434,,,,-3.4013261546160134
66,-0.14680329876615011,0.2996050845417481,-0.4994764158910562,,0.002202378649756309,6.9488864660199425
67,1.0205675931684373,1.5062803880091122,0.9246895036801764,1.139194191097744,1.272462883850062,14.296811247366845
68,0.9782305987965751,,-0.2506006383614059,0.5385055039165352,-0.23111191382944685,-3.0554205082021904
69,-0.3688053775884176,-0.5023377676465797,-0.5485278309657691,-0.3994083422460039,,-4.838317266371896
70,,0.03348191599951797,,0.08768898598139077,-0.1072126287275394,-0.4136556726817682
71,-0.4446785250215928,-0.18271272107198827,,0.33704734792654856,-0.11534591752256684,0.4543791701676762
72,,0.1237662731943406,-0.04633131889157723,0.4952336305277637,0.2405261266934537,0.22291644113338596
73,-1.2042557636668514,-0.6327609597644848,-1.5154593584365434,-0.6664792044936845,-0.6758444934361802,0.8399417948459268
74,-0.22314854683228214,-0.7129261138740888,-0.4540369489294328,-0.7406362719487861,,-3.79887672349964
75,-1.046491849996347,0.4705093690109764,-0.9957271432222036,-0.23976144042282999,-0.9455945354427644,1.3514902429233429
76,,,0.24480725950380355,,-0.34759907177101224,-0.3861086295164276
77,0.0575710316770432,0.10681514630161999,-0.28035493031116177,-0.1776418615956672,0.6431433061092879,3.73898116311962
78,-0.4687322313474352,0.04036898719991218,-0.5469080638857277,0.1416955699637869,-0.4254399361087692,-0.02305174868748228
79,-1.1624233458725908,-0.2313696024502113,-0.5488206453050194,,,-0.6811279849900063
80,,-0.08759900894584101,-0.03481256932028619,-0.854888106449702,0.028319592459201477,-1.3767700305723902
81,0.7800066486679825,1.1725853910891606,,1.5137923966777105,0.8235882472935742,12.866339340803115
82,-0.3578047118865236,0.3598203796303461,,-0.49581734782581605,0.3984272764227504,0.6748982548578994
83,,,0.4531822116970716,-0.07223940598982381,0.1823608165499162,-0.8272160560878941
84,,0.33184353818511314,-0.4261585184935971,,,3.840762248425892
85,-0.11756761505280301,0.09912355818622803,-0.07644560039842946,0.4665211120006697,-0.5424479018913596,-0.33389665698154913
86,0.7221561246334527,-0.7499778298354318,-0.5436556921509856,0.7237738134066352,0.3706822932680055,-6.801350589221416
87,-0.12685434749073454,-0.15116551771442355,0.6076593717879233,-0.003071873256402069,-0.23230092667362665,-1.8718542771571889
88,,-0.042363402092735765,-0.2347778963329255,0.3412283520346655,0.6337894704222422,1.4503966743802232
89,1.0304498802615414,-0.425757463941658,0.9208403245940742,0.10337244638221,,0.7705360184059882
90,0.8472150055309581,-0.031983186574105066,0.03680897807619831,0.13272462860657036,0.5958543782273624,1.5168671068886042
91,1.3975153352796679,,-0.3198211325459836,0.8054033508874188,-0.26545375304926583,-1.223232401100412
92,1.099429850597955,1.3038181583249684,1.1185576374520934,1.4856364083498974,0.02374817552098496,10.936330149507194
93,0.05473291023565735,-0.459638250593012,-0.18407508087085364,0.9001174444663712,-0.3894696948738452,-5.357026776654333
94,1.0593896757200814,0.3593512402370512,0.0020053023956838195,0.3452741869993711,0.11396373687384932,1.894555543169652
95,-0.5985935157631479,-0.7342030047014587,-0.9034008288601588,-0.4523027706530387,0.11956131134046445,-1.9590058882120185
96,,-0.026744167059453483,,,-0.1681509197656318,1.6432595260321663
97,,-1.6582062028432554,-1.8966655925141525,-1.1652280980960044,-0.5111636021784597,-1.9468729558674436
98,-1.7219114199386327,,-0.2943188468143161,-1.22429823307521,-0.09192715092181836,0.5646075624897253
99,-0.029510402046542636,,0.27486548372064945,-0.21129550863357172,-0.2669477482751986,1.4957265529993626
100,,-1.0312263965505784,-0.28325352183050645,-0.8336720078822478,-2.032085271522545,-12.767501775572315
101,,-1.0087849913563527,-1.1766529722950614,-0.6194742294016553,0.3148629624581222,-2.622321214416064
102,-0.12985460643979505,0.3557587120043261,-0.3865144536501964,0.5051994644789802,-0.3336221658730045,2.1177365377862745
103,0.3673759512611687,1.3715714685464222,1.2106075801914966,1.5942897541350216,0.4366591314188249,17.728341189504253
104,-0.6469426824338854,-0.1785743556917926,0.005642259665133653,-1.3733741371257775,-0.4992838538623273,-1.9783427228289818
105,,,1.2354454902754397,,0.710477967034104,10.427273816758149
106,0.19273210836108576,-0.5390538314009241,,-0.17465783296655135,-1.0968517555157478,-6.362631190322055
107,-0.2533497527621033,0.10732437441352008,0.4863211010095143,0.6196110463752965,,1.4273199200087636
108,-1.9602316705820848,-1.1527499054641108,,0.1864386461165776,-1.7262190580987975,-8.465444983945204
109,-0.912155060029773,-1.0671441095988143,-0.5209189875752775,0.12947320970546738,-0.18182544652259364,-7.013512278832126
110,0.28119898889873474,-0.04400549953856103,0.23583146959649295,,-0.12278887066105125,0.536980528528286
111,-0.8607472910304494,-0.7923964541599086,,-1.179375605633722,,-2.7598746640603946
112,-0.3592597249663184,0.7436515413166995,0.2789089436945932,,-0.15698461090653246,5.9635627147674715
113,-0.07534018545606783,0.35356250203363426,0.4783059538841618,0.5642024762021786,-0.023005985438195,7.603892503318693
114,-0.4886057134224896,,-0.4428568236563084,,1.1831691139651683,6.44599724510746
115,,0.9053161752551332,-0.3335531889476337,-0.197356908842724,,9.11337960191166
116,0.9988839530969076,0.43567591557093205,0.3658894609873772,-0.4360390808886347,-0.4783034982185394,1.0115537777983143
117,,1.8026026177210104,0.4899649275787522,1.9090938895505785,2.322998062545869,14.210255487976143
118,0.9857609457838272,1.4656330407004992,1.5557383065858552,1.5021527143568467,1.0852630369931224,12.985489665286732
119,,,,,-0.974442961980166,-8.259813542044206
120,0.7129930596022558,0.9738620968625749,0.3104179073835921,,,7.611131537835617
121,-0.12714717324714495,-1.0201184504919358,-0.2704860085209897,-0.28141235966952505,0.7319976634933923,-7.170304781266368
122,0.3337667559193331,-0.4541017947503641,-0.9218767221446188,0.1416922071848683,,-5.024865037829246
123,0.6122672865766191,1.5253125934883718,,1.1912051439006657,1.816790541991476,18.84140930475829
124,-0.5681955037427863,-0.7902633047350378,-1.3728414303580785,-1.249469628840756,-0.5327771890650157,-2.3661600888725096
125,-0.6695546392355163,-0.7160391396249416,-1.3841912944116204,,,-7.537710204089942
126,0.03982256602486306,,0.8693161610725404,-0.2020574002290848,0.7858435114552751,14.818080199378715
127,0.3440540814972604,0.33926907728912065,0.8606422854297177,0.048096979723688434,0.4273959038735596,4.255529989436306
128,,0.10206182000203516,0.17661679922004608,0.3726929583220083,-0.11993104963626387,2.318504048454715
129,-0.1274023144544263,,-0.09231700242303004,-0.09798075332335128,0.09463862576080008,-1.1819646011329854
130,0.2967430969173958,,1.1297363416351829,0.07470589871667624,0.12476507000499262,5.135107851342081
131,0.11028435068303592,,0.87328543832635,1.7446874836427404,1.4729000235345302,8.730368684801402
132,0.06694201529095092,0.3634126177465794,-0.8170229344003628,-0.8450707123649096,-0.057888447586595025,8.228420966302235
133,0.16662028463344608,,,0.06081427606450699,,7.572912136101358
134,1.364751645652227,1.9013357803483302,0.18035693431234048,,,10.858302309608183
135,0.8285912426367908,-0.2399488722228373,0.2375506118530404,0.6413022130908136,-0.0179992130965197,-0.17896457777994446
136,-0.02734924723378393,-0.35183625732932106,0.9025574468409148,0.5953095668872477,-0.1835368706342727,-2.0794634241548238
137,0.07179448548471079,-0.5822598120098228,0.01631599849137605,0.9041036558291402,-0.12126994067404705,-6.570743559662452
138,0.6572902736479178,,,,0.1107108719518138,4.243700924817847
139,0.6670056230458172,1.2821411316229292,0.6734098648793121,-0.045383114661137536,-0.16211807885741886,7.689182994919835
140,-0.6601002040365851,-0.010300756915294584,0.1800822151023386,-0.29327652602304616,0.3389144948110207,1.0542300261672937
141,1.4188129488746946,0.7429036964124816,0.6661695972053903,,1.5381581605025534,9.269828840614457
142,0.4623400676940922,0.06185985793870358,1.304242673849979,1.0512814786530114,0.3097118397468528,5.898909447715687
143,-0.9034896914030176,-0.5019455689728716,-0.9270025098209348,,-0.6087392211597613,-1.0088402734947493
144,-0.3384180036157585,-0.21410074387982772,-0.5917743162296558,,0.4410693633344611,-1.2537623583494593
145,,-0.3258028194809333,-1.100183659292307,-0.430073512398482,-0.13463770237993572,-0.88356712971164
146,-0.5990638090133793,,-0.3975960787588059,-1.5573360833198198,-1.222222905848888,-3.62810368110708
147,0.06758466317585121,-0.4996837121691325,-0.1989214582854106,0.9109515585929618,-0.7839855653215085,-5.881125153426452
148,-1.7369490616537553,-0.6753263719095914,,0.18905930242922886,-0.7363854018860646,-2.744600480279201
149,-0.6699233904802635,0.08913533435517468,-0.5959721170453283,,,2.6651906928398903
150,-0.4642982794456734,0.3277739300626044,0.0001274652472722099,-0.2640516753813956,-0.2164943712871596,-0.6087348273085293
151,-0.7709595419887032,-0.877282429414532,0.5993012326781658,-0.5961749782909753,-0.2495556828961441,-8.268059398740697
152,-0.27949886160623266,0.027916163494353455,-0.20612966618528145,-0.8501353071416249,,-1.0967705090402715
153,0.4959753619918002,,-0.15977827527000066,0.2511174228853117,1.1605592117403374,12.985895693436749
154,-0.3157628098086126,-0.06185939166268994,1.2366873231337092,0.8759880801257299,0.5994165889907014,4.117502719358195
155,0.06723078474131627,0.32355255127131144,,0.7475925311045555,,5.190934006686241
156,-0.9631552299695124,-0.7772085246839509,-0.9969184527578199,-0.9758804102131112,-0.8873861623054663,-2.395442775819022
157,0.7907101283578657,,0.501378353580213,-0.22524683501293966,0.6899418769236625,4.021812935807782
158,-0.1139406811500704,,0.4836641442614895,-0.00630830719460454,0.3533700458032893,7.845035145969782
159,-1.7815361600557011,-1.4314794195521052,-0.9881039345790668,-0.8972867507144076,-1.0315712656293472,-2.671217122025117
160,0.4952057241816198,0.761706156000749,,0.28204968978142,0.6748197760048068,8.498142718152549
161,0.02577091776374293,0.9453804450294684,,,-0.16044940563321472,7.442395914859168
162,,0.549647960559869,,0.7633392556712091,0.08194188927029107,5.298041408551604
163,1.1293246924887768,1.09161399988968,0.9529729260671655,1.2003698909531664,0.6030331885009829,10.694224975805717
164,0.843168578607264,-0.6239570308085076,0.2134801281053191,,0.9111064366701668,-1.3193884452131333
165,,0.04770998914755084,0.5188720775205367,0.5407953010280371,0.4266704281265935,3.149459162302749
166,-0.05229156752665148,-0.2603151616264935,-0.7316689360714284,0.2345169422123416,-1.3939324397699104,-5.732864026924794
167,1.387021872316857,0.9387258869610088,0.09157235070467107,0.9844068863707162,,7.6975881505433925
168,-0.7976927520612449,,,0.5477023220937249,,-2.874548047415108
169,,-0.35832611182220364,-0.7111869308865567,,1.1267979599063116,-0.7517974222812916
170,-0.8458848201603657,-1.1486550305728165,,-0.6129742415352711,-0.8165137489242562,-4.300237596117653
171,-0.26716786876758924,0.5210007264048049,0.15673806197086915,-0.15676307363815295,1.0599993969970845,5.895283612552157
172,,0.946083708804632,,-0.06348489751220783,0.2363204753498821,8.286623875704235
173,,-0.3511164207203377,-1.0159153718657592,-0.19076093014800344,-1.8328575404169185,-4.979777683177359
174,0.36176622098550737,-0.2293058724570793,0.08646467853822767,-0.9959794525894654,,-3.7059182367666987
175,-0.06672872827303486,-0.7408528743673649,0.34285803562193706,,0.19275157910327148,-7.487373570248772
176,,,-1.18668122359984,-0.612128096517446,-0.2641516196446554,-5.397906986334281
177,,-0.2905932195390501,0.3385808511135749,,0.5024548793408309,-1.0528104220345411
178,0.25921412372689423,-0.2195060897807425,0.054051316466320665,-0.4467764706726069,-1.4071249293729748,-4.649724850172774
179,-0.19487730574512066,0.965190501927419,0.6510439043529246,1.2859545508836263,1.0041679685430205,13.838966765685775
180,0.034436896991898336,-1.2928449736800425,-0.8213116983893761,-0.6763401618947525,,-12.119596514827919
181,,,0.5113471309314651,0.4418145105038571,-0.07468621085747074,5.381481572119836
182,-0.011793053867840159,,,0.4283868311256745,-0.1953538264642357,-4.9701408993915805
183,1.0088510753874096,0.4090863737870463,0.14503543941804947,0.3194602421374153,1.2761752640964823,3.1929175053266836
184,0.0946556062850826,-0.014171139851627225,-0.4047968494305326,-1.0039787186539468,0.03826406700772926,2.6127878825050384
185,-0.3691415265241253,,-0.33710039011445425,-1.5908529679031505,-0.015138461598799726,2.9649917381624897
186,0.7115064952730406,-0.4265340899650951,-0.9100825852761107,-1.0746776281276262,-0.16783240743148667,1.319231325015517
187,0.0805309529249784,-0.04817151953453397,-0.4574226407997111,0.4898849084168872,0.6581402706434429,-1.5788851824698489
188,-1.3151212888017223,0.07301083752012771,-0.3781069654846713,,-0.29116687482700826,0.4372154677420082
189,,-1.3574670259553543,0.3722274448346423,,0.20746213476176525,-8.850614726513669
190,0.09600696088113653,-0.15287827519664882,0.09745139446314502,,-0.3492521799884491,-2.4139859657115377
191,-0.1718918736292477,0.17412402741729505,-0.9264941310168148,0.30763855365112064,0.16333058477819473,-1.4918609011102013
192,0.06922338879257453,0.5446946564198102,,0.24400728099483865,0.7630548679627782,6.767165588020779
193,-0.16651507653223238,-0.7406456721906544,-0.424950991614675,,,-7.486917624586734
194,0.2873848986182589,0.5702323622897322,,0.06668836608140882,,7.76168970371158
195,,0.118675017613327,0.7946495997900407,-0.4704988135900913,0.00042337762957424247,0.3016686025321498
196,0.5353436961989939,0.5180758539074913,,0.4632855601425981,0.6204310050230429,7.319669882772744
197,0.9363651863530618,1.6318598860201114,0.8788942764757093,0.8183548224108663,0.8877096244603142,13.229402198762019
198,-0.1954537070364523,0.5131032451712583,-0.044220007999377975,-0.13647205762079895,0.2109741794199886,5.49218567968742
199,,,-0.36073022453040143,,-0.5366410231961601,-5.614531887502072
200,0.02766509556242253,1.350524559801601,-0.6994745011580165,0.3456938210846177,-0.25087140915673833,11.658877115627199
201,-0.06553976877170231,0.14373521492900326,-0.750550507489198,0.3466381440493096,,1.29113563859646
202,-0.39192850892767694,0.33871309469432465,0.17143437911628745,0.5386924207459507,0.8660040057324738,5.565768412940327
203,0.07555878064260224,0.7175232908172602,,,0.349978977292536,10.911393065825536
204,0.4743132971287474,0.4831157705945025,-0.5554673571741393,-0.2335914082118803,,5.1066267786176445
205,-0.6653112147626917,0.11389551234177707,-0.07370746549325027,,-0.03940099268425032,1.2123016541502962
206,-0.37207619173981177,0.4461469222747214,0.6170623076433552,0.8168439365678859,0.5668913488147271,6.668431217655089
207,-1.1518707318297692,-1.2024462352163432,-1.2558972889023867,-1.9838586698154823,-0.8781258429165236,-4.397708489816462
208,-0.4516086564428826,,-0.33082957298971744,-0.7606517413102307,-1.319371667777261,-9.109840024628662
209,,0.9024374960194808,0.4224882068626212,0.221650096393576,0.20288891212719995,7.978878700495169
210,0.8769480718508984,-0.17678209840331033,0.4181527226097033,0.7991299752691675,0.7086366867214875,1.4878278705051176
211,-0.4648030853540008,,0.3143358928370857,0.13875645814868107,0.9583606272038816,4.439487459184434
212,,0.6473652575465548,0.19043399904930516,0.525339569547869,-0.04924587334722341,6.129094838821561
213,-0.8964654781983055,-0.8623299572202963,-0.3956317206112376,-0.6731289281257657,-0.9611329921818714,-6.750299890712593
214,,-0.27158968835444164,0.313177880905004,-1.3422752894861039,-0.4832463507774037,-3.6172855093608534
215,-0.2104399033532856,0.3565258727373633,,0.5847948599347352,-0.5253369655137337,-2.226487281431852
216,-0.487685583729896,0.7325724452557518,0.020592923834157645,-0.21033428383470149,,5.925660347139957
217,0.09683085671012928,,-0.6019542304567886,0.2371104339270811,0.3195779301501379,-0.2692686189710032
218,-0.022067614990474882,-0.2758419212543802,-0.11780459622826978,0.5319556104305639,,-3.4336220501394106
219,-1.332596407331553,-0.09161955802900634,-1.3936863866794784,-1.6288114206914908,-0.7033994809344463,1.8468474732662457
220,1.9486533787012257,0.31776345055628197,0.3894395957843273,1.167630228653883,0.5047807931630633,3.35159117078812
221,0.9228291023526668,,0.2409716792715587,0.4139429610565147,,5.163800684347252
222,1.0309472214530204,0.6783222041547535,,,,5.828661629225862
223,-1.6382478650520118,,-0.9348579231926272,,-1.0625522375451752,-1.5005312449011012
224,-0.3348722931260698,0.3904624888859977,-0.2761117297616215,-0.8215710957467252,-0.6502520843025894,2.520910351490804
225,,-1.0335995071054491,0.06687405877086061,-0.5499942454398493,-0.1339873355500266,-9.247198887992386
226,-0.09212098303267456,,0.27086945038458066,,-0.6939654445138679,-2.1855830821711666
227,,-0.06916395594604892,-0.4027185271044962,0.9805613048655836,0.4312025855980072,-1.6809083478953313
228,-0.5959500024704574,,,,-1.5067959698831952,-5.107545601018886
229,-0.20877626902121696,0.2599690713805036,-0.2380107586543308,-0.5765090313277574,-0.4055055197887918,2.7046001474286494
230,-0.4849129657019762,0.3692235403036033,-0.8649520406081623,,,1.6776282442572297
231,0.4808352357972204,-0.11803886886431478,0.2203243453566092,-0.3714577148010904,,-0.10180557546836176
232,0.2257474069346501,-0.19073404934690488,0.4765081636242297,-0.1693558295666538,0.2339247037946671,0.30671971684819765
233,-0.3104758232957123,0.2392404175596979,,,-0.2003071482169767,-1.4862342698754998
234,0.3435042335878136,0.7473490874474369,-0.5906810998307256,0.5554131124846238,0.13303789031137853,6.967883956812838
235,-0.4206153569025832,-0.38761320404454586,-0.4368705704875044,0.4275176123136129,0.7789262988384023,-1.8713670169904075
236,,-0.5027561039828163,,-1.0447125165513649,-0.4321306868046473,-0.12749572889943372
237,0.5904411763205426,,0.8866832891901506,1.17861756296148,-0.1068847432603408,11.269125027630588
238,1.0189672794384743,0.9713038477264968,1.0235926630998604,1.097849904237568,0.7435359130116735,10.540916496243408
239,1.2132981611119331,0.9045647281398674,1.515738109434977,,0.7809758424231563,10.83663031255559
240,-0.9750823511027424,,-1.3697587143708063,-0.7257136363607755,-0.9979277298774332,3.923241363568002
241,,0.6137918625653007,1.0587928124212436,0.6431755888509627,0.1813941052858935,6.865219338529512
242,0.3940658543760512,0.6454413986843672,,0.6847064096693405,-0.072820815440329,5.898744296102429
243,-0.7682461574790721,-0.013408169148683645,-0.603350340697439,-0.0039304252960352115,-0.24152202055939526,0.7690667594387235
244,-0.7399610867457864,,,-1.4184270796854763,-1.5537356867857106,-6.56854816840529
245,0.09568346046250888,0.5396209509873329,-0.7085006207706759,-0.26584918863456497,0.4975434582119727,6.049083593957597
246,-0.3599469925686609,-0.19917300159486595,-0.3441261913603532,-0.6025460842778457,0.3978283371405895,-0.6129632510297323
247,0.3986200671892972,0.2381215095132173,-0.6066036064171558,-0.15713817938028302,0.4183514827342729,0.5914567827826321
248,1.3553145408909857,,0.9193048096646372,1.6483906402349542,0.06685804671445103,4.278526289658002
249,-0.7582936867496708,,0.5383443593433517,0.10905741426295977,0.32671427408954723,0.5470150532726793
250,,,0.22026404764190094,-0.2723729743755124,0.20749471640422001,-0.003307139671771986
251,1.1390511529550231,0.9074607846831678,-0.1782345891221621,1.3295857403972609,,6.0873563838802385
252,0.13648313082600494,0.22385842977581974,,-0.986623680671234,,1.4827789660943376
253,-1.2422431144858166,,0.3446624558879273,-0.773690418422098,0.2380131881565837,-2.884111135821163
254,-1.5208894952446266,-1.1661022617220629,,-1.096334455562447,-0.40874674000573785,0.9055881237271596
255,-0.6204203710446011,-0.23639739600635684,,0.1890350320133512,0.11884269198792913,-2.796656280958354
256,,-0.006427685895207924,-1.4328652298735722,-0.3459013989811905,-0.8498113805020935,1.5525749287413149
257,0.6442328005533517,1.414779200109326,0.8522287647666833,0.5987290911518871,0.8987786962065029,14.686639857096212
258,,0.42778321274550457,,0.17393401446571513,0.038524335560046315,4.305816075991881
259,0.027060149730675196,0.4074005204427391,-0.3251916681967687,,-0.31501339464912786,4.206958757286951
260,1.0007777652645948,,0.4568670708900502,1.281261435999773,0.07610910100550827,9.318944580091092
261,0.5611730556868484,-0.18840133497741526,-0.18564717171804807,0.6518524745302859,,-2.4665578821542
262,-0.8309459055649816,-0.5013826785882622,-0.23359445703425544,-0.14680988605491366,,-2.2965361285036145
263,,,-0.7174967431456949,-0.8282944161216458,-1.3995665250010958,-3.2408268793103527
264,,-0.9752604377376486,,-0.8728462016922788,0.02123866816270259,-3.9172167484280735
265,0.1522683543223649,1.1283358916288269,,0.4460407798857314,,12.976557080406632
266,,,-0.1276867864955482,0.09129851822019866,0.6847855434701553,1.570555217273312
267,-0.05518646028092111,0.3412534423961847,-0.6524217278575286,-1.0637003780303087,0.21267146775693316,7.096349723674956
268,-0.3916129948862177,-0.4455137184590283,,-1.1507328447738427,-0.4430891004416919,-0.06554063683258288
269,0.8879712968844342,,,0.06332981715546382,0.4068886749874868,1.8339284474354776
270,-0.6465011352306179,-0.4605127729632342,-0.2933159275676848,-0.3975820354552253,-0.823670415148716,-5.852723746097169
271,0.1304385220217651,-0.023182959386727764,0.3379404167888388,-0.6385933619843136,-0.1046230627367044,0.026820551207960674
272,-0.9623355076220343,-1.4872914236928725,-1.6016200519048724,-1.6594492985459235,-0.6148974057899226,-5.972785234639553
273,1.1422964432842042,-0.19025983128935972,,0.733630317807968,,2.0100350129725633
274,0.03398209120837109,-1.001642533148085,-0.9821602366890528,-0.7134967020194782,0.09380962746562832,-6.194795424245384
275,0.4905696728232202,,0.15241600233701325,-0.018705405051898938,-0.28730517799141464,-0.7952638266339698
276,1.1743031426199877,-0.12694019675337634,,0.2337149851588433,,-0.08703892387653345
277,-0.5179858841701966,0.5867831613662984,0.16176629592278322,-0.2998828474829669,-0.2064038624835199,4.371086071076523
278,-0.38707079591254895,-0.15241350351756894,-0.9854126104477006,-0.5056150832008355,,1.3397039314690675
279,,0.28682910838802833,-0.5988660020534046,-0.3534147954575457,0.05218724689117915,4.986120615558285
280,,-0.2232090584262325,0.26340772944085433,0.3052660583326821,-0.21278380964037247,-3.0284620857102214
281,0.08338867491469643,-0.17373087706857532,,,,0.844223434166538
282,0.8872952609880286,-0.24779077272710864,-0.3605503126152345,-0.1171069575258664,-1.1926056572663646,-3.617541113266717
283,-0.35854348603248953,-1.1404675913632738,0.05981608341793788,-0.39015893407118135,,-10.088867872172
284,1.0392111696469006,0.21964028269065305,,0.6370842974551291,0.6089162683332089,7.8714966205629056
285,1.0395797800810278,0.0768712936770039,,0.06414900061311979,0.5883841552803355,2.2743251207316915
286,0.6129615260340423,,0.4712128736529746,0.6709624550773589,-0.24107299045136826,5.485269670334475
287,0.5964921089604711,-0.08920653240083913,,-0.5833779705209361,0.1894346532753601,-2.629237435420325
288,1.0507600542523088,-0.34471094350944914,,0.06793840296763012,0.8110272313007596,-0.7057094447597354
289,0.1001778711054986,0.7629058693432783,1.1055340948552206,0.11152208813055896,-0.4371536010878337,7.581835871707153
290,0.33662043485123955,,,0.3341007015037488,-0.061753997012387714,8.209487352099774
291,0.7241903190494932,0.624631253815777,0.5992499364213715,0.44574662949453175,0.4576110539578703,6.478045375810553
292,0.12335771034456955,1.093889582436938,1.1821223146905155,,0.9002184058952771,16.061870210662793
293,,1.1097237284104775,0.4114377354555043,0.4229266627826122,,8.205499063172867
294,0.2932905765912334,0.8435831160654288,,,0.478707865010288,13.724434431967607
295,-0.4558169402672338,0.13796130404989865,-0.8171062632544787,-0.5082979518578974,0.4143522963566752,5.020419214479267
296,,0.5912393521011446,0.33915126903713994,-1.0702919887346671,,3.7252602570934656
297,0.7192514898643101,1.6679238901574662,,0.4277649855226989,0.9075268535362421,13.826019737249153
298,-0.7909740731401727,-0.16556012552714716,-0.5223613029726812,0.31289591138427963,-0.4113993847051671,-2.1596616503099533
299,0.7996247597890267,0.6319195095647447,-0.8405357675577969,-0.2633569033513518,0.7736359626267945,6.652929659070848
300,-0.8822008850004438,-0.4477909262247485,-0.4566322993494004,,-0.3407994160246789,-2.471693548301085
301,-0.0056208218996736115,0.6919378568728627,0.6312200123059817,1.5201387541225608,0.8940069199118621,13.343668290598204
302,0.13203535671419436,,1.2836388527356806,1.2893246565607894,0.2486201060658887,7.055781503350432
303,0.4484084634722427,0.16069518326734827,-0.4614238197440945,-0.04564606178179231,,-0.2103076408336192
304,-0.1316772363673991,,,0.2213454099449668,-1.0001304669992743,-10.36778178459218
305,-0.2368218886639996,,-0.44013582943750734,-0.2687352744576027,-0.5260676656643105,-6.047573300196111
306,0.6751761459810712,0.5072095132051508,0.3951650245246366,-0.6450801891331726,0.17695881276923764,3.4641228888904525
307,-0.14077436402283475,-0.6291019325343941,-0.7244826753715644,-0.6287797508712325,-0.5358480813138804,-3.8024491260965814
308,0.4584566122553452,0.10282349126112666,0.9029035808483872,-0.6260454095649499,0.5615646223544636,-0.7818381945025878
309,-0.18766693794015687,-0.17897179929776594,-0.7074525617040014,0.8939070914880693,-0.2941898163371852,-6.096296319716044
310,,,-1.207760347704491,-0.38284080052145947,-0.10722927395791754,2.1321867427664247
311,-0.19908169341668508,,0.3715006874406725,,-0.2657596143168329,-11.319828134230333
312,,-0.3845741508809356,0.098987991936418,-0.7054761534453945,,-1.4284748847441124
313,0.15051153547863774,0.4617371493130712,0.3787099403545895,0.6737665387496179,0.3929365713630972,6.820160697896514
314,,,-0.7935372152463274,,-0.9660372249424184,-1.8802718414111423
315,-0.3805406046559512,,-0.5029233509869431,,-0.6694190031891613,-5.41105649502512
316,,-1.5533918324016336,-0.6631826060797663,,-1.4943396175948735,-16.256494553455035
317,-0.6322431248814576,0.06604984928176931,,,0.11786075185809225,-2.2370606941532065
318,,,0.08441189698399401,0.3132965890205661,0.017943039902937108,7.041919279330085
319,0.11907843081308815,-0.44691092320980463,-0.20336414789260865,,,-4.715595088605594
320,,0.3222011698568337,0.22682936312480215,0.15584330164538027,-0.1205216003989162,4.558538540229974
321,0.5432398953849783,0.7013951636863962,1.3543203869639728,0.003661786028189229,1.079443502030443,6.942615281441174
322,0.7927367920960735,1.0288807399465614,1.070624302743152,1.0394344577144952,1.1911236647727124,14.10062926884602
323,-1.0464306226353115,,0.4303919325604051,-0.3838716342219064,,-4.738831003386371
324,0.02206474789299761,,0.6862409428203413,0.03531002436884602,-0.2473227550398737,-2.6564064725989027
325,,-0.2802101409854495,-0.5383912687035401,1.0429891703504903,-0.3678078518825096,-6.043896659861421
326,-0.394356371477236,-0.4889121661117886,0.6422140201666175,1.2561440214459902,0.9634666545143891,2.393297585152632
327,,,,0.3732990323221371,-0.1133489866282582,-2.286057407691767
328,-1.9443847778143877,0.6492606516729469,-0.6060661491397836,-1.829629228013426,-0.5872319816321873,7.327744810265268
329,0.5784760884279545,1.4498047942309662,-0.08746126522456421,0.3706711341471143,0.4441959600275239,10.986041326657462
330,,-0.4965455592485905,0.4316742307965668,,,-3.86082521595921
331,,-0.4304774505744278,-1.129323044535711,-0.6906727694576218,,1.156829510316413
332,-1.063422984102928,-0.517837701157567,-0.2602101222950535,,-0.68554268299953,-3.713946995502356
333,-0.4978018110255932,1.0776283108040274,,,,10.083953147964172
334,0.1410322265952602,0.5690521488423117,-0.46163061042794207,-0.8344927069062118,0.11657897020277855,6.451570255995122
335,0.4440702911778419,0.5239185381537275,0.8063839241455617,,,6.165373149714319
336,0.7994982264319513,0.35011027885799284,0.7121962880437729,0.8281705542840159,0.2941877815683467,3.8276486623425217
337,-0.4607597787328046,0.6236313090595116,0.08693620107133238,0.3305193729505573,1.1433828051816144,7.879343700575214
338,-0.7006544054593582,-0.1383834764403707,-0.5272766656694468,-0.3943620542747584,,-3.958616165920048
339,0.6050261078245354,,0.6432307957887743,,0.30640046387132663,4.787857128225056
340,,0.4932143057829372,0.9085688985614774,,0.7853343795609234,8.009199744195664
341,0.028687911331909424,0.5075088330138414,-0.18151455414867096,0.4349364265544317,-0.651556154634785,3.6282488766337995
342,0.1974526558785928,,-0.6197217983395162,0.4539214941357012,-0.010920609470788295,-5.728038035564804
343,0.056142449750080335,-0.3670456000412405,0.7759494052776051,,-0.3629827605359178,-6.081202337531535
344,,-1.0132619194500667,-1.4649082824633581,-0.6203141697229597,-0.89212298204465,-3.86177791507664
345,0.06894213847709582,0.0049074481418659175,-0.1903882263414173,-0.5141255798452465,0.21963053318359824,1.3093954708680235
346,,-0.5469002437564547,-0.9240251037380068,-1.010407343919953,-1.4894364106940052,-2.642642452228129
347,0.42929706633349135,0.8388688656611045,0.8419130370770398,,0.9815761278688284,11.654707079221742
348,-0.008272266500795709,,-0.6138610809261147,-1.1612959648431094,-1.2753784621345081,-2.3454094568080506
349,1.1476577319088337,0.5114713155043091,0.8801608137628634,1.7803053851173396,,7.487416668865548
350,-0.6856468244344471,0.026986103600082384,-0.9862173270995378,-0.5054246474182111,,3.38982767979294
351,0.9722004289792388,-0.9243614007700188,0.9574148989013168,0.6319365345255755,0.9336889556592458,-0.7771035688231802
352,-0.9310185623308164,,-0.2990214809954184,-0.3145156342320522,-0.01988756555749147,0.40969417687981
353,-0.5685645126970731,-0.8399737717130956,-0.68499467696436,,-0.6356870154550339,-5.543420322966154
354,-0.7762270677996209,0.2107988971997652,-0.27411571204856944,,,0.02340184556652869
355,,,1.1475652033361674,0.8142164123523933,0.6507384478959161,1.1380371038957755
356,0.6731919255210587,,-0.13537957168210302,,0.6218475146836638,9.358700959361212
357,0.6919219781369043,0.4162076109142664,1.0164611905778866,0.15410387834357092,1.1261019492282143,4.784290037512377
358,0.2474835597684236,1.2999947669390075,1.0719833529699092,-0.2016404703021918,,11.379855200963545
359,-0.5829789535698646,1.065325241345942,-0.17026902162610524,,0.8035041186338707,9.365584363529305
360,-0.6287215317017186,-0.2380650892269931,0.1577782551568616,-0.693907204948585,-0.7976797493886124,-4.939820068492679
361,-0.5135143101316895,0.35967758138373074,-0.7141071448549888,,0.4330497585240589,6.3035098851006826
362,0.18988776810931968,-0.25059422990822977,,-1.4529771736117856,-0.4802988997847543,1.2230565606593058
363,1.0638290567686308,0.8563499988773992,1.3555492019924156,1.6535766196509298,1.5414511344600916,10.730991502528855
364,-0.7109790467404948,,-0.4295794731418757,-0.4447970684331344,-0.5013122417797088,-0.6913458517950932
365,-1.3526122166907482,0.3968085228883188,,-0.9956364268857864,-0.04870060336240828,4.246484719636022
366,-0.4690165637406135,0.5023488238368253,,-0.030450062870128688,0.6898548137223122,4.250605763695708
367,1.3552963269051743,0.5611184601501028,,0.6000298545741625,0.04943049206229416,4.014993292402892
368,0.02228874021959254,-0.11002692001057876,-0.1990242491870888,-0.47019072574994897,-0.7464422152273991,-3.9493793401190116
369,0.5146002871514792,0.20775910811228626,,0.19070735436785813,0.42289810701243696,4.566199599987769
370,,-0.14066567503765104,0.10609261375698442,-0.3955925799101922,-0.9007038349976539,-3.8732430949805017
371,-0.14099791716151033,-0.8818051204439498,-0.5989789252057084,-0.5930448760022623,-0.4144448070063269,-6.865272622543073
372,-0.8101852924352753,0.7245578573604068,,-0.5245972966472325,-0.5359287807162938,2.0837507139677847
373,-1.0441498024449525,-0.5055651691418469,-0.7787754554389694,-0.9438648251997872,-0.09270097850465464,0.9465973947179204
374,0.851353703882677,0.6402065025674402,0.9703854562707734,0.006662411149521264,0.4001038328010657,5.3569018722079615
375,1.476865160623552,0.5225198584249101,,-0.02492401892595375,0.4516205591678249,3.2671809562468113
376,0.2617001260198349,0.026817796833634226,,0.640443112457602,0.13496654332515484,0.12228874276072264
377,1.5566458379123222,0.3387754584216054,0.5148782312802016,0.09978464690911126,0.35689355225130925,2.403268251754587
378,0.77129701729136,0.5042236195132632,-0.18300671024062187,0.7322114597946846,1.318083075747252,6.933100005248325
379,-1.6112301596254408,,,-0.2906480565492469,-0.31724335653142344,-1.1076855512480437
380,0.2806067181081248,1.3259200932505748,0.9868347533614564,1.1835175864312273,0.8414698364562867,19.957145072320905
381,0.3623942189780601,0.3918928466287297,0.6661450065298777,0.6207669342781051,,5.678175838472452
382,0.08256000571879807,1.4751839636542712,-0.3354403397828304,0.5892578160445183,,15.148942327040512
383,,0.3699511592974781,0.2985979244281517,1.4443311356383468,0.34689071753183665,5.785338601155258
384,-0.953838894533052,-0.08580660040380506,0.6875077750103128,,0.29076272460491426,1.9614311131050088
385,-0.6186848165501397,0.47498441292878,,,0.16050711455624272,3.5084811349072704
386,0.030980674395859283,-0.2358026471746388,-0.03276307751306029,,0.5536279502236812,-1.8896700702518203
387,-0.41889557966794105,0.08488380283179002,-0.5901649366771475,,,-0.3995529051912435
388,0.6011824517738702,0.5173576371412161,,0.26383777127973285,,3.6088596198460223
389,-0.8148486058159867,,0.09032426438371294,0.511338329925084,-0.4987176172980228,-2.4609392143926545
390,-0.3355824459483173,-0.22384883311106515,-0.5465404162486927,-0.5125603076936651,-0.3756911988322632,-1.4025663070694538
391,1.9939172460815795,1.366883389089748,0.9606204753090491,0.4533773261394951,,10.051269780477718
392,,0.7610279005085434,0.4444418437163592,,0.3612305758541,10.606824884502057
393,-0.7407191051614946,-1.7925237490137946,-0.4041094004577989,-0.5018429100998765,,-10.723394711954722
394,,-0.4481890831561994,-0.7766552246628062,-1.3188222134241605,-1.4727992952397555,-1.8436093780590936
395,,-0.7632514145122129,0.011211035378735829,0.35683203145500925,0.2972953703554688,-9.300194658472998
396,,-1.030004267363264,-1.1504869943367275,-0.4887667042918639,,-6.3191854957148434
397,-0.2844868495130504,,-0.5503749288587312,-0.9042031328902564,-0.5593589090591516,-0.5945208821830861
398,,,-0.3414664473221394,-0.06644149106916293,-0.6868623361358304,-12.416671743693387
399,-1.1616051768543796,-0.2651956330671246,-0.4973288563153204,-0.08578732820640766,0.04245395604519675,-1.6344287910316764
400,,0.4935503424568081,0.3665837687250469,,0.4912262282240895,4.942449748585184
401,0.06633163884770021,0.6638443003967516,,,0.5902056369956828,4.242902433863138
402,,-0.3543696679354905,-0.6201956964138826,-0.9939231156473384,-0.7477392618060182,-0.6610203741046708
403,,1.2300255825852693,0.5382249553308414,0.5839461072929808,-0.2571214043060014,9.117877525561124
404,,-0.058786723339680214,0.08499239467722175,-0.6826431770918004,-0.6295748124156818,-1.1779072874267302
405,-1.1805335653844362,-0.5850023494349361,-0.8115849493456302,0.4704736858952194,,-7.466186979845497
406,0.3674619582423729,0.6218575619907385,,0.8298196903954732,,5.9411585849489565
407,0.6597532344157102,0.2398188525184581,,-0.06955822678260137,0.3149980518641429,3.3218688556915583
408,-0.8012195798580928,-0.26891112582427296,0.28912687740078225,-0.5457414889545615,-1.0346210474394026,-3.881877396569752
409,-0.3503561782169465,,-0.5117374687766909,-0.4839772051118579,,-13.089775857432814
410,0.4317796227170404,-0.11068751333392153,0.37435786265830295,-0.3075318615585857,,-1.8243039755720332
411,-0.2829373935657643,0.436120691910416,-0.08259544937554475,0.3043565330193168,-0.1061462650499564,3.3857920370983217
412,,-1.2476026898461114,,-0.5127705864979035,-0.9368744993279108,-12.613253199568446
413,,,0.9097383678577384,0.2436584666194017,1.0415781424946395,7.083224106530767
414,0.6347128612707921,0.403217126896313,,-0.6726616438293322,0.7383221515240969,5.7685960751222565
415,-0.9650269826527924,,0.56708215265235,0.5530979983792876,-0.443274502280491,3.9398248258720128
416,,1.3817198666558654,1.5409899206510083,1.1681183391655758,1.41445228746923,16.820502919696516
417,,0.43133370401556104,0.7787015254538396,0.3734569110183117,1.3831176817867548,7.0671098688141445
418,,0.3233567497351526,0.9986232506082156,0.6231820359625126,,6.735880562692567
419,,-0.3904311479069648,-1.198769240439229,-0.5499555249917804,,1.9943820381839903
420,-1.4150482644776154,-0.7959464962462701,0.17102733109242307,,-1.3082194362918322,-6.646559251347398
421,,-0.20558673518183684,,,,-0.5109147744367222
422,-0.2617675201091955,0.13003854495060624,-0.3991682704212727,-0.16484067274276484,-0.3180020263408456,-0.1701295937269175
423,-1.1947332987816792,-0.06008627421007413,-0.5385479188130929,-0.7462784088235059,-0.5384077892908616,0.4275178139789457
424,,-1.2955230031368214,,0.24657290717935276,0.4773294315039133,-12.549845867530605
425,-0.5763532372462745,-1.4851718333897328,,-1.2404273092345142,0.21329898226766755,-13.61743280688582
426,-1.7216126772967868,,-0.34262297325424995,-0.2673749304241779,0.2258407965564224,0.8306422839354526
427,-0.6181050602715973,-0.030425841980757318,,-0.2604173264511944,-1.1391967852808271,-1.9254234764212503
428,-0.5801586177038905,-0.00553943448869898,0.07265146143211088,,0.30618107551669405,1.5626291223228423
429,-1.0073191880261296,,0.06408646150268371,-0.05483245823624738,0.3071650444919014,1.276864444802779
430,-0.30857145163981736,0.18212749759544106,0.5702668110917453,0.5466867188041132,-0.08244359629960082,3.8929350180724813
431,-0.8361833157140128,-0.21755814889082253,-0.03718138869283808,-0.10856065055850388,,0.6597927638812735
432,-1.3890569583891743,,-0.7390021467195895,0.4051275556939849,-0.20151567686045346,-3.398616620966433
433,-0.513745255749253,,-0.2605099867891042,0.3863323691239735,0.16314528795418773,0.7967230253185182
434,0.2373589229157241,-0.9961462441493798,-0.8516777398432644,-0.7250717956347491,-0.7330389591800017,-8.830560411907703
435,0.038554227695098975,-1.0075005320500954,0.3920278512347037,-0.4108747259626455,,-10.022407948626553
436,1.2693488400271271,,2.1075922479150977,1.7007204591513032,1.2503980076000123,2.9813441181880376
437,0.3058375721688158,-0.7547563793952919,-0.8233092422999688,-0.66640591006217,-0.5265945952624289,-5.262250286811555
438,1.523920182898855,,0.06890341432878255,1.0625585870896188,0.3006856318915003,3.896224693526948
439,,-0.2835654157855645,-0.2636806734793483,,0.21811895903276646,-1.3044879507599971
440,-0.5296446367436033,0.04032077862076228,-0.5739991720273565,,0.4801130788150722,1.37025892664884
441,0.04988583607117916,-0.16177361824946918,0.16267500768421309,-0.06472529579668307,-0.3529019214773181,-0.8184935569975131
442,0.3128319598834228,-0.38666876448896,-0.20824770855121424,,-1.0235810609544191,-6.470585419697927
443,-0.5107490978289926,-0.3319448553227613,-0.6159546714336059,-0.038734517298975424,-0.4470181815903636,-2.877377633454173
444,0.991006558886794,,0.9082138957619952,0.3287135971659836,-0.2820176236117887,7.178416606857913
445,0.7904314204041081,-0.5670123002066187,,-0.7209930953534833,0.4928996427018006,-4.983212265022317
446,-0.3431513942375681,-0.30575657598504524,-0.8861205545296226,,-0.5938523308194767,-1.529348693110325
447,0.02930481727096052,-0.3471617226583253,0.3343633327428531,0.7507472394891841,0.917908595127842,-2.7739482150757286
448,0.3379953142454286,0.806862441648114,0.2386375855065164,0.7649239729637629,,10.158710645562925
449,-0.00969549433451225,0.3713831235530329,,-0.3321116738363918,-0.6631396841040886,2.3764680610993416
450,-0.6488549587640324,0.2815437450244705,-0.38512211615641495,0.362894672960916,-0.05614888340353358,1.7356235576420695
451,,-0.17798036357810482,-0.6097637275119749,-0.20734809198867712,0.17770113681944874,0.5981006090550486
452,0.4274204001113779,0.27293852896179266,0.4915155026133171,0.05218561384792197,1.1364196029559923,5.94028926032914
453,0.10801173630385674,-0.10870834316550587,-0.1804242300610206,0.5494031960682892,,-5.3990335624805095
454,-0.5342777138736339,0.7790200857351087,,-0.3289855805979929,-0.378626969115904,4.124140654997474
455,-0.0036168763155028476,-0.3347965651323076,-0.08397491382580091,-0.4148585621031293,0.1810823820705288,-3.4885474621397448
456,-1.4223369429390158,-0.457014285329587,-0.752246046643861,-0.32726470986754497,-1.661307020210396,-2.270387463884485
457,,-0.18299695975919691,-0.9144170466104378,,-1.0957106793678941,0.9575629543830282
458,-1.8011736244238832,-1.130524637598709,-0.7856586746277971,-1.943244883969588,-0.2491104200449171,0.5545267962724887
459,0.7121520787043549,,,,1.7641438650800727,19.197553294665788
460,-1.6089197749029518,,-0.9380030520585162,-1.0521001900308826,-1.5141864577215638,0.2408535822994207
461,-0.4310387845676911,-0.6148130907099925,0.19315249458845046,0.5847805070014154,-0.17087005537437733,-4.709881137710963
462,0.8787483729804432,0.8591641825972763,0.2744207584635553,0.6813464254030073,0.4724210808218619,5.759062532664317
463,-0.20999111524037609,0.7713834251498253,0.3921325201244388,,0.2464441108916845,9.559932669683391
464,0.015722800831295236,,0.4741039855174831,0.9338973813485104,-0.01507112751173151,3.27785230540402
465,0.11270063353325033,-0.06426570091096688,0.03927197159612143,0.028457248580050006,,1.4943772903838035
466,-1.1613315929613064,-1.6494422145331409,,,,-6.109810555827031
467,-0.045218571373994654,-0.8343363273229791,0.03121212074995777,-0.2255096898599665,0.8976927760408031,-8.079246803702585
468,,-0.4934187539931599,,-0.4247748866705789,,-2.645922473624492
469,-0.17036077150784856,-0.9220347735458184,0.4908833503233847,-0.10542327074424476,1.2936758912286488,-6.894552221149023
470,-0.6062880456218589,,,,-1.0878672275968668,-5.50117623819371
471,0.8577104867944706,,,-0.6913953908406507,,5.517272562274284
472,0.8005256967049594,1.0419206359659012,1.004090401877231,-0.17660427287862468,0.17045293177944848,6.14084191917066
473,-0.8620707032964289,0.26814992127761644,0.15568831816028272,-0.4441289511535769,0.25023068931759096,-0.3067643325683711
474,-0.21044248441683489,-1.1000930160524098,-0.8761970884671912,-1.4787731854824266,,-7.779703662484565
475,2.0156700864605286,1.8316719991764423,1.0203422711855734,1.495696679481748,0.7280940722137442,10.188937659690259
476,0.4496936199284055,0.07128023954987077,0.26113817313681625,,-0.494586606790723,0.6713526208101821
477,-0.7963843244276165,-1.1750009685377665,-0.4612423863187877,,,-6.536507843146203
478,-0.4202849312425674,,,-0.7838664927576249,,-5.805054894901915
479,,-1.4132780101826723,-0.9116833501906764,-0.34326245263105537,,-10.369952502185338
480,-0.017459989419931377,,-0.5328807357129717,-0.6076368540715565,,10.215549295803084
481,0.3049412177553349,0.7575221211373382,-0.02692061522545941,1.0367368409158386,-0.5261752008978242,6.092806528733674
482,0.6470026755801659,,0.4698120077861106,0.2658986812339066,0.1474703264916101,3.1476253817041133
483,0.6730369781521119,,-0.43470004587510735,-0.6086357218308871,-0.2967733115234007,0.4104947888997593
484,0.22100275191875973,-0.4902933754405509,-1.087702523393039,,-0.7893661422618722,-1.6606560931343597
485,0.7407881002876818,-0.546380059010553,0.6207895636662445,-0.05066360525899813,0.15440370609827064,-3.2141999999703303
486,-1.668609570588924,-1.42267935298342,-1.2613431073393493,-0.3004702802685611,0.3510362412149778,-1.1561619045547658
487,-0.07795995662142413,0.23358311067080603,-0.15369371862193165,,0.9365618154207848,4.928689209935585
488,0.12599892411354266,,,-0.9875891840732004,,1.2429392340201642
489,0.5496308769418419,0.29383947230519714,,0.8586911329943019,0.15834449610860646,5.0512646252521245
490,,0.6687791418370483,0.6556933287911989,0.4410485777088461,-0.41255772710865296,8.101945731373876
491,-0.5457361166294031,-0.3428636886384876,-0.2463610385730277,-0.4553638788664206,-0.4175638483322186,-3.387334431617297
492,0.6692370313301894,0.4599932701283316,0.18086984845223267,-0.3991256515932569,0.7994279830747502,5.569890208465838
493,-0.020629138415075687,0.14177615305456975,,-0.029807461719512162,-0.18937425546643166,0.6933776143055272
494,,0.19505993756890427,-0.388280854584052,,-0.5071544131908176,0.6897605075902242
495,-0.4752077414346143,,,0.09018241270140834,0.01565788232590987,-10.563310071137971
496,,-0.19814114920001696,-0.5412101321120024,0.03437683704163458,-1.449790283411645,-6.193987507523088
497,0.2825445320581747,-0.8150381584546134,,0.4478252491228344,0.11004309441131888,-6.061424904758702
498,,-0.4105378788788486,,-0.2781075067537473,,-2.868723447126324
499,-0.16508669344508187,,0.005736700608780815,,-0.011558482770416184,-1.4917514339287314
