,x1,x2,x3,x4,x5,y
0,,,-0.2102659189874108,,0.025513500862920983,-2.8125105580718914
1,,,,,,9.762949076116834
2,,1.0802206151150635,,,,3.0942351187125485
3,,,,,,-0.551780371757859
4,,,,,,-0.3277578644387562
5,0.0037356068787071095,,-0.7528205114197049,,0.5616632337180347,9.583824207990046
6,,,,0.2543299554430006,,5.787113702061792
7,,,,-0.6341265857248413,,-12.428678210626716
8,,,,,,-1.6139092728867932
9,,,-0.23292582236272816,,,-0.4630169896695263
10,,,,,,-0.053196323394194785
11,,,,,,5.540433045721112
12,,,,,,13.07471094566232
13,,,,,,-0.9415649123493771
14,,,,,,13.109742783686707
15,,,,,,8.461715152368642
16,,-0.02625473974569453,,,,1.2963930379435329
17,,,,,,-3.744711563981253
18,,0.5036626297624944,,,,1.7443622450019198
19,,,,,,-6.448209084721958
20,,,,,,-7.600286435314128
21,,,,,,-1.6069176409436965
22,,,,,,-6.331074076468442
23,,,,,,1.7486718043137779
24,,,,,,-1.6934853186611694
25,,,,,,-2.7041607562331738
26,-0.14664931601905384,,-0.6075915968490615,,,-9.389637374178557
27,-0.5078331635416924,,,,-0.5865474642394866,-4.216274900092148
28,,,,,,-2.4088912830017546
29,0.30985617015476585,,,,,4.377445375414299
30,,,,,,-4.526890446441403
31,,0.8043039435214729,0.8620849942851374,,,10.71105337453207
32,,,,,,-1.1021541713511809
33,,,,,,-4.089292831571799
34,,,,,0.35124833902160696,12.477432757206476
35,,,,,,-1.343728475963599
36,,,,,,0.4990989765436538
37,,,,,,3.815113503612248
38,,,,,,7.548586154347314
39,,,,,,-3.6077224876560217
40,,,,,,0.1654094489053337
41,,,,0.5498427607978422,,9.749222915791144
42,,,,-0.8486733801092629,0.433695844268728,-6.623992069809942
43,,,,,,-2.9031692578071295
44,,,,,,-2.7817970131212126
45,-0.28528649580405097,,,,,-2.4108522152765257
46,,,,0.11609469841189148,,2.411910088469486
47,,,,,,0.6560395164582309
48,,,,,1.1321643917090207,1.5636958168036108
49,,,,,,5.933945159214481
50,,,,,,0.7535938239856701
51,,,,,,-0.4200193001633328
52,,,,0.026758727772322743,,3.6077007442368463
53,,,,,,-2.172242255213997
54,,,-0.5986161584590228,,,7.877867700443757
55,,,,,,-2.6244040170767597
56,,,,-0.07853758119157739,,-7.578841657589148
57,,,,,,0.5864795607623934
58,,-0.952404442934908,,,,-11.144706044440492
59,,,,,,2.3968499212632595
60,,,,,,-1.5752571121661383
61,,,,-0.7814443937610295,,0.5558303867915684
62,,,,,,-3.800159092435342
63,,,,,,0.7944200456300261
64,,0.3623861493338112,,,,9.822924221671883
65,,,,,,-3.4013261546160134
66,,,,,,6.9488864660199425
67,,,0.9246895036801764,,,14.296811247366845
68,,,,,,-3.0554205082021904
69,,,,,,-4.838317266371896
70,,,,,,-0.4136556726817682
71,,,0.4162944688342822,,,0.4543791701676762
72,,,,,,0.22291644113338596
73,,,,,,0.8399417948459268
74,,,,,,-3.79887672349964
75,,,,-0.23976144042282999,,1.3514902429233429
76,,,,,,-0.3861086295164276
77,0.0575710316770432,,,,,3.73898116311962
78,,0.04036898719991218,,,,-0.02305174868748228
79,,,-0.5488206453050194,,,-0.6811279849900063
80,,,,,,-1.3767700305723902
81,,,0.6393892247290572,,,12.866339340803115
82,,,,,0.3984272764227504,0.6748982548578994
83,,,,,,-0.8272160560878941
84,,,,,0.30543743384684585,3.840762248425892
85,-0.11756761505280301,,,,,-0.33389665698154913
86,,,,,0.3706822932680055,-6.801350589221416
87,,,0.6076593717879233,,,-1.8718542771571889
88,,,,,,1.4503966743802232
89,,,,0.10337244638221,,0.7705360184059882
90,,-0.031983186574105066,,,,1.5168671068886042
91,,,-0.3198211325459836,,,-1.223232401100412
92,,,,,,10.936330149507194
93,,,,0.9001174444663712,,-5.357026776654333
94,,,,,,1.894555543169652
95,,,,-0.4523027706530387,,-1.9590058882120185
96,,,0.4052175164854536,,,1.6432595260321663
97,,,,-1.1652280980960044,,-1.9468729558674436
98,,,,,,0.5646075624897253
99,,,,,,1.4957265529993626
100,,,,,,-12.767501775572315
101,,,,,,-2.622321214416064
102,,,,,,2.1177365377862745
103,,,,,,17.728341189504253
104,,,,,,-1.9783427228289818
105,,,,,,10.427273816758149
106,,,-1.3596363052722855,,,-6.362631190322055
107,,0.10732437441352008,,,,1.4273199200087636
108,,,,,,-8.465444983945204
109,,,,,,-7.013512278832126
110,,,0.23583146959649295,,,0.536980528528286
111,,,-0.6418633033111826,,,-2.7598746640603946
112,,,,,,5.9635627147674715
113,,0.35356250203363426,,,,7.603892503318693
114,,,,,1.1831691139651683,6.44599724510746
115,,,,,,9.11337960191166
116,,,,,,1.0115537777983143
117,,,,,,14.210255487976143
118,,,1.5557383065858552,1.5021527143568467,,12.985489665286732
119,,,,,,-8.259813542044206
120,,,,,1.4543348102346998,7.611131537835617
121,,-1.0201184504919358,,,,-7.170304781266368
122,,,,,,-5.024865037829246
123,,,,,,18.84140930475829
124,,,-1.3728414303580785,,,-2.3661600888725096
125,,,,,,-7.537710204089942
126,,,,,,14.818080199378715
127,,,,,,4.255529989436306
128,,,,0.3726929583220083,,2.318504048454715
129,,,,,,-1.1819646011329854
130,,,,0.07470589871667624,,5.135107851342081
131,,,,,,8.730368684801402
132,,,,,,8.228420966302235
133,,,,0.06081427606450699,,7.572912136101358
134,,1.9013357803483302,,,,10.858302309608183
135,,-0.2399488722228373,,,,-0.17896457777994446
136,,,,,,-2.0794634241548238
137,,,,,,-6.570743559662452
138,,,0.938038762481866,,,4.243700924817847
139,,,,,,7.689182994919835
140,,,,,,1.0542300261672937
141,,,,,,9.269828840614457
142,,,,,,5.898909447715687
143,,,,,,-1.0088402734947493
144,,,,,0.4410693633344611,-1.2537623583494593
145,-0.4903243821939077,,,-0.430073512398482,,-0.88356712971164
146,,,,,,-3.62810368110708
147,,,,,,-5.881125153426452
148,,,0.4256187418628925,,-0.7363854018860646,-2.744600480279201
149,,,,,,2.6651906928398903
150,,,,-0.2640516753813956,,-0.6087348273085293
151,,,,,,-8.268059398740697
152,,,,,,-1.0967705090402715
153,,,-0.15977827527000066,,,12.985895693436749
154,,,,,,4.117502719358195
155,,,,,,5.190934006686241
156,,,,,,-2.395442775819022
157,,,,,,4.021812935807782
158,,0.8715280907989374,,,,7.845035145969782
159,-1.7815361600557011,,,,,-2.671217122025117
160,,,,,,8.498142718152549
161,,,,,,7.442395914859168
162,,,-0.6527033236216371,,0.08194188927029107,5.298041408551604
163,1.1293246924887768,,,1.2003698909531664,,10.694224975805717
164,,,,,,-1.3193884452131333
165,,,,,,3.149459162302749
166,,,,,,-5.732864026924794
167,,,,,,7.6975881505433925
168,,,,,,-2.874548047415108
169,,,,,,-0.7517974222812916
170,,,,,,-4.300237596117653
171,,,0.15673806197086915,,,5.895283612552157
172,,,,,,8.286623875704235
173,,,,,-1.8328575404169185,-4.979777683177359
174,0.36176622098550737,,,,0.14866084328323678,-3.7059182367666987
175,,,0.34285803562193706,,,-7.487373570248772
176,,,,,,-5.397906986334281
177,,,,,,-1.0528104220345411
178,,,,,,-4.649724850172774
179,,,,,,13.838966765685775
180,,,,,,-12.119596514827919
181,,,,,,5.381481572119836
182,,,,,,-4.9701408993915805
183,,,,,,3.1929175053266836
184,,-0.014171139851627225,,,,2.6127878825050384
185,,,,,,2.9649917381624897
186,,,,,,1.319231325015517
187,0.0805309529249784,,,0.4898849084168872,0.6581402706434429,-1.5788851824698489
188,,,,,,0.4372154677420082
189,,,,,0.20746213476176525,-8.850614726513669
190,,,,0.3041984046899481,,-2.4139859657115377
191,,,,,,-1.4918609011102013
192,,,,,,6.767165588020779
193,,,,,,-7.486917624586734
194,,0.5702323622897322,,,,7.76168970371158
195,,,,,,0.3016686025321498
196,,,,,,7.319669882772744
197,,1.6318598860201114,,,,13.229402198762019
198,,,,,,5.49218567968742
199,,-0.5146825622944088,,,-0.5366410231961601,-5.614531887502072
200,,,,,-0.25087140915673833,11.658877115627199
201,,,,,,1.29113563859646
202,,,,,,5.565768412940327
203,,,,,,10.911393065825536
204,,,,,,5.1066267786176445
205,,,,,,1.2123016541502962
206,,0.4461469222747214,,,,6.668431217655089
207,-1.1518707318297692,,,,,-4.397708489816462
208,,,,,,-9.109840024628662
209,,,,,,7.978878700495169
210,,-0.17678209840331033,,,,1.4878278705051176
211,,,,,,4.439487459184434
212,,,0.19043399904930516,0.525339569547869,,6.129094838821561
213,,,-0.3956317206112376,,,-6.750299890712593
214,-1.3889514868437185,,,,,-3.6172855093608534
215,,,,,,-2.226487281431852
216,,,,,,5.925660347139957
217,0.09683085671012928,,,,0.3195779301501379,-0.2692686189710032
218,-0.022067614990474882,,,,,-3.4336220501394106
219,-1.332596407331553,,,,,1.8468474732662457
220,,,,,,3.35159117078812
221,,,,,,5.163800684347252
222,,,,,,5.828661629225862
223,-1.6382478650520118,,,,,-1.5005312449011012
224,,,,,-0.6502520843025894,2.520910351490804
225,,,,,,-9.247198887992386
226,,,,,,-2.1855830821711666
227,-0.11673872705065935,,,,,-1.6809083478953313
228,,,,,,-5.107545601018886
229,,,,,-0.4055055197887918,2.7046001474286494
230,,,-0.8649520406081623,,0.040466332199301215,1.6776282442572297
231,,-0.11803886886431478,,,,-0.10180557546836176
232,,,,,,0.30671971684819765
233,,,,,,-1.4862342698754998
234,,,,,,6.967883956812838
235,,-0.38761320404454586,,0.4275176123136129,,-1.8713670169904075
236,,,,,,-0.12749572889943372
237,,0.931959675074904,,,,11.269125027630588
238,,,,,,10.540916496243408
239,,,,,,10.83663031255559
240,,,,,,3.923241363568002
241,,,,,,6.865219338529512
242,0.3940658543760512,,,0.6847064096693405,,5.898744296102429
243,,,,,,0.7690667594387235
244,,,,,,-6.56854816840529
245,,,,,,6.049083593957597
246,,,,,,-0.6129632510297323
247,,,-0.6066036064171558,,,0.5914567827826321
248,,,,,,4.278526289658002
249,,,,,,0.5470150532726793
250,,,,,,-0.003307139671771986
251,,,,,,6.0873563838802385
252,,,,,,1.4827789660943376
253,,,,,,-2.884111135821163
254,-1.5208894952446266,,,,,0.9055881237271596
255,,-0.23639739600635684,,,,-2.796656280958354
256,,,,,,1.5525749287413149
257,,,,0.5987290911518871,,14.686639857096212
258,,,,,,4.305816075991881
259,,,,,,4.206958757286951
260,,,,,,9.318944580091092
261,,,,,,-2.4665578821542
262,-0.8309459055649816,,,,,-2.2965361285036145
263,,,,,-1.3995665250010958,-3.2408268793103527
264,,,,,,-3.9172167484280735
265,,,,,,12.976557080406632
266,,,,,,1.570555217273312
267,,,,,,7.096349723674956
268,,,,,,-0.06554063683258288
269,,,,,,1.8339284474354776
270,,-0.4605127729632342,,,,-5.852723746097169
271,0.1304385220217651,,,,-0.1046230627367044,0.026820551207960674
272,,,,,,-5.972785234639553
273,,,0.6467642443408832,,,2.0100350129725633
274,,,,,,-6.194795424245384
275,,,,,,-0.7952638266339698
276,,-0.12694019675337634,-0.4736433555356769,,,-0.08703892387653345
277,,,,,,4.371086071076523
278,,,-0.9854126104477006,,,1.3397039314690675
279,-0.362351602752079,,,-0.3534147954575457,,4.986120615558285
280,,,,,,-3.0284620857102214
281,,,,,,0.844223434166538
282,,,,,-1.1926056572663646,-3.617541113266717
283,,,,,,-10.088867872172
284,,,,,,7.8714966205629056
285,,,,,,2.2743251207316915
286,,,,,,5.485269670334475
287,,,,,,-2.629237435420325
288,,,,,,-0.7057094447597354
289,,,,,-0.4371536010878337,7.581835871707153
290,,,,,-0.061753997012387714,8.209487352099774
291,,0.624631253815777,,,,6.478045375810553
292,,,,,,16.061870210662793
293,,,,0.4229266627826122,,8.205499063172867
294,,,1.868820987474891,,,13.724434431967607
295,,,,-0.5082979518578974,,5.020419214479267
296,,,,,,3.7252602570934656
297,,,,,,13.826019737249153
298,,,,,,-2.1596616503099533
299,,,,,,6.652929659070848
300,,,,,,-2.471693548301085
301,,,,,,13.343668290598204
302,,,,,0.2486201060658887,7.055781503350432
303,,,,,,-0.2103076408336192
304,,,,,,-10.36778178459218
305,-0.2368218886639996,,-0.44013582943750734,,,-6.047573300196111
306,,,,,,3.4641228888904525
307,,,,,,-3.8024491260965814
308,,,,,0.5615646223544636,-0.7818381945025878
309,-0.18766693794015687,,,,,-6.096296319716044
310,,,,,-0.10722927395791754,2.1321867427664247
311,,,,,,-11.319828134230333
312,,,,,,-1.4284748847441124
313,,,,,,6.820160697896514
314,-0.1971783168710564,,,,,-1.8802718414111423
315,,-0.8155133357888674,,,,-5.41105649502512
316,,,-0.6631826060797663,,,-16.256494553455035
317,,,,,,-2.2370606941532065
318,0.2758941410985145,,,,0.017943039902937108,7.041919279330085
319,,,,,,-4.715595088605594
320,,,,,,4.558538540229974
321,,,,,,6.942615281441174
322,,,,,,14.10062926884602
323,,,,,,-4.738831003386371
324,,,,,,-2.6564064725989027
325,,,,,,-6.043896659861421
326,,,,,,2.393297585152632
327,,-0.1510805616221347,,0.3732990323221371,,-2.286057407691767
328,,,,,,7.327744810265268
329,,,,,,10.986041326657462
330,,,,,,-3.86082521595921
331,-1.0665108716671563,,,-0.6906727694576218,,1.156829510316413
332,,,,,,-3.713946995502356
333,,,,,,10.083953147964172
334,,,,,,6.451570255995122
335,,,0.8063839241455617,,0.08666809067070796,6.165373149714319
336,0.7994982264319513,,,,,3.8276486623425217
337,,,,,,7.879343700575214
338,,,,,,-3.958616165920048
339,0.6050261078245354,,,,,4.787857128225056
340,,,,,,8.009199744195664
341,,,,,,3.6282488766337995
342,,,,,,-5.728038035564804
343,,,,,,-6.081202337531535
344,,,,,,-3.86177791507664
345,,,,-0.5141255798452465,,1.3093954708680235
346,,,,,,-2.642642452228129
347,,,,,,11.654707079221742
348,,,,,,-2.3454094568080506
349,,,,,,7.487416668865548
350,-0.6856468244344471,,,-0.5054246474182111,,3.38982767979294
351,,,,0.6319365345255755,,-0.7771035688231802
352,,,,-0.3145156342320522,,0.40969417687981
353,,,,,,-5.543420322966154
354,,,,,,0.02340184556652869
355,,,,0.8142164123523933,,1.1380371038957755
356,,,,,,9.358700959361212
357,0.6919219781369043,0.4162076109142664,,,,4.784290037512377
358,,1.2999947669390075,,,-0.00951042004329572,11.379855200963545
359,-0.5829789535698646,1.065325241345942,,,0.8035041186338707,9.365584363529305
360,,,,,,-4.939820068492679
361,,0.35967758138373074,,,,6.3035098851006826
362,,,,,,1.2230565606593058
363,,,,,,10.730991502528855
364,,0.19151798938854656,,,,-0.6913458517950932
365,,0.3968085228883188,,,,4.246484719636022
366,-0.4690165637406135,,-0.2027431735890093,,,4.250605763695708
367,,,,,,4.014993292402892
368,,,-0.1990242491870888,,,-3.9493793401190116
369,,,,,,4.566199599987769
370,,,,,,-3.8732430949805017
371,,-0.8818051204439498,,,,-6.865272622543073
372,,,,,,2.0837507139677847
373,,,,,,0.9465973947179204
374,,,,,,5.3569018722079615
375,,,,,,3.2671809562468113
376,,0.026817796833634226,,,,0.12228874276072264
377,,,,,,2.403268251754587
378,0.77129701729136,,,,,6.933100005248325
379,,,,,,-1.1076855512480437
380,,,,,,19.957145072320905
381,,,,,,5.678175838472452
382,,,,,,15.148942327040512
383,0.6890749034809649,,,,,5.785338601155258
384,,,,,,1.9614311131050088
385,,,,,,3.5084811349072704
386,,,,,,-1.8896700702518203
387,-0.41889557966794105,,,,,-0.3995529051912435
388,0.6011824517738702,,,,,3.6088596198460223
389,,,,,,-2.4609392143926545
390,,,,,-0.3756911988322632,-1.4025663070694538
391,,,0.9606204753090491,,,10.051269780477718
392,,,,,,10.606824884502057
393,,,,,,-10.723394711954722
394,,,,,,-1.8436093780590936
395,,,,,0.2972953703554688,-9.300194658472998
396,,-1.030004267363264,,,,-6.3191854957148434
397,-0.2844868495130504,,-0.5503749288587312,,,-0.5945208821830861
398,,,,,-0.6868623361358304,-12.416671743693387
399,,-0.2651956330671246,,,,-1.6344287910316764
400,,,,,,4.942449748585184
401,,,,,,4.242902433863138
402,,,,-0.9939231156473384,,-0.6610203741046708
403,0.6511359924337892,,,0.5839461072929808,,9.117877525561124
404,,,0.08499239467722175,,,-1.1779072874267302
405,,,,,,-7.466186979845497
406,,0.6218575619907385,,,,5.9411585849489565
407,,,,-0.06955822678260137,0.3149980518641429,3.3218688556915583
408,,,,,,-3.881877396569752
409,,,,,,-13.089775857432814
410,,,,,,-1.8243039755720332
411,,,,0.3043565330193168,,3.3857920370983217
412,,,,,,-12.613253199568446
413,,,,,,7.083224106530767
414,,,,,,5.7685960751222565
415,,,,,,3.9398248258720128
416,0.754352326984068,,,1.1681183391655758,1.41445228746923,16.820502919696516
417,,0.43133370401556104,0.7787015254538396,,,7.0671098688141445
418,0.14793219183527911,,,0.6231820359625126,-0.15266772513840632,6.735880562692567
419,,,,-0.5499555249917804,,1.9943820381839903
420,,,,,,-6.646559251347398
421,,,,,,-0.5109147744367222
422,,,,,,-0.1701295937269175
423,,,,-0.7462784088235059,,0.4275178139789457
424,,,,0.24657290717935276,,-12.549845867530605
425,,,,,,-13.61743280688582
426,,,,,,0.8306422839354526
427,,,,,,-1.9254234764212503
428,,,,-0.11529007065953888,,1.5626291223228423
429,,,,,,1.276864444802779
430,,0.18212749759544106,,,,3.8929350180724813
431,,,,,,0.6597927638812735
432,,,-0.7390021467195895,,,-3.398616620966433
433,,,,,,0.7967230253185182
434,,,,,,-8.830560411907703
435,,,,,,-10.022407948626553
436,1.2693488400271271,,2.1075922479150977,,,2.9813441181880376
437,,,,,,-5.262250286811555
438,,,,,,3.896224693526948
439,,,,,,-1.3044879507599971
440,,,,,0.4801130788150722,1.37025892664884
441,,,,,-0.3529019214773181,-0.8184935569975131
442,,,,0.277048085848885,,-6.470585419697927
443,,,,,-0.4470181815903636,-2.877377633454173
444,,,,,,7.178416606857913
445,,,,-0.7209930953534833,,-4.983212265022317
446,,,,,,-1.529348693110325
447,0.02930481727096052,,,,,-2.7739482150757286
448,0.3379953142454286,,,,,10.158710645562925
449,,,,,,2.3764680610993416
450,,,,,,1.7356235576420695
451,,,,,0.17770113681944874,0.5981006090550486
452,,,,,,5.94028926032914
453,,-0.10870834316550587,-0.1804242300610206,,,-5.3990335624805095
454,,,,,,4.124140654997474
455,,,,,,-3.4885474621397448
456,,,,,,-2.270387463884485
457,-0.9913954332182354,,,,,0.9575629543830282
458,,,,,,0.5545267962724887
459,,,,0.9894286979620877,,19.197553294665788
460,,,,,,0.2408535822994207
461,,-0.6148130907099925,,,,-4.709881137710963
462,,,,,,5.759062532664317
463,,,0.3921325201244388,,,9.559932669683391
464,,,,,,3.27785230540402
465,,-0.06426570091096688,,,,1.4943772903838035
466,,,,,,-6.109810555827031
467,,,,,,-8.079246803702585
468,,,-1.043307248237041,,,-2.645922473624492
469,,,0.4908833503233847,,1.2936758912286488,-6.894552221149023
470,,,,,,-5.50117623819371
471,,,,-0.6913953908406507,,5.517272562274284
472,,1.0419206359659012,,,0.17045293177944848,6.14084191917066
473,,,,,0.25023068931759096,-0.3067643325683711
474,-0.21044248441683489,-1.1000930160524098,,,,-7.779703662484565
475,,,,,,10.188937659690259
476,,,,,,0.6713526208101821
477,,,,,,-6.536507843146203
478,,-1.0150446465035805,,,,-5.805054894901915
479,-0.5675250336447293,,,,,-10.369952502185338
480,,0.6330884255705228,,,,10.215549295803084
481,,,,,,6.092806528733674
482,,,0.4698120077861106,,0.1474703264916101,3.1476253817041133
483,,,-0.43470004587510735,,,0.4104947888997593
484,,,-1.087702523393039,,,-1.6606560931343597
485,,,,,,-3.2141999999703303
486,,,,,,-1.1561619045547658
487,,,,,,4.928689209935585
488,,,,,,1.2429392340201642
489,,,,,,5.0512646252521245
490,,,,,,8.101945731373876
491,,,,,,-3.387334431617297
492,,,,,,5.569890208465838
493,-0.020629138415075687,,,,,0.6933776143055272
494,,0.19505993756890427,,,,0.6897605075902242
495,,,,,,-10.563310071137971
496,,,,,,-6.193987507523088
497,,,,,,-6.061424904758702
498,,,,,,-2.868723447126324
499,,,,,,-1.4917514339287314
